{
  "clivi": {
    "CCCma TS var name": "CICT",
    "CCCma diag file": "3h",
    "CCCma hist file": "3hr",
    "CCCma hist var names": "CICT",
    "CCCma check": "Jason",
    "priority": 2.0,
    "MIPs (requesting)": "  HighResMIP(2)",
    "experiments": "  amip (HighResMIP:2)"
  },
  "clwvi": {
    "CCCma TS var name": "CICT CLWT",
    "CCCma diag file": "3h",
    "CCCma optional deck": "addtwo",
    "CCCma hist file": "3hr",
    "CCCma hist var names": "CICT CLWT",
    "CCCma check": "Jason",
    "priority": 2.0,
    "MIPs (requesting)": "  HighResMIP(2)",
    "experiments": "  amip (HighResMIP:2)"
  },
  "gpp": {
    "CCCma TS var name": "CFGP",
    "CCCma diag file": null,
    "CCCma hist file": "3hr",
    "CCCma hist var names": "CFGP",
    "CCCma hist var frequency": "IS3HR",
    "CCCma check": "Jason",
    "MIPs (requesting)": "  C4MIP(1)",
    "experiments": "  historical (C4MIP:1)"
  },
  "prcsh": {
    "CCCma TS var name": "PSHF",
    "CCCma diag file": null,
    "CCCma units": "kg m-2 s-1",
    "CCCma hist file": "3hr",
    "CCCma hist var names": "PSHF",
    "CCCma hist var frequency": "IS3HR",
    "CCCma check": "Done.",
    "MIPs (requesting)": "  HighResMIP(1,1,1)",
    "experiments": "  piControl (HighResMIP:1), historical (HighResMIP:1), amip (HighResMIP:1)"
  },
  "prra": {
    "CCCma TS var name": null,
    "CCCma diag file": null,
    "CCCma check": "PCP-PCPN?",
    "priority": 2.0,
    "MIPs (requesting)": "  LS3MIP(2)",
    "experiments": "  historical (LS3MIP:2)"
  },
  "prrc": {
    "CCCma TS var name": "PCPC",
    "CCCma diag file": null,
    "CCCma units": "kg m-2 s-1",
    "CCCma hist file": "3hr",
    "CCCma hist var names": "PCPC",
    "CCCma hist var frequency": "IS3HR",
    "CCCma check": "Done. Same as \"prc\" since no convective snow.",
    "MIPs (requesting)": "  LS3MIP(1)",
    "experiments": "  historical (LS3MIP:1)"
  },
  "prsnc": {
    "CCCma TS var name": null,
    "CCCma diag file": null,
    "CCCma check": "One title says Convective snowfall, but explanation say in all forms?!? If just convective snowfall, N/A, since we do not have convective snowfall.",
    "priority": 2.0,
    "MIPs (requesting)": "  LS3MIP(2)",
    "experiments": "  historical (LS3MIP:2)"
  },
  "prw": {
    "CCCma TS var name": "PWAT",
    "CCCma diag file": "3h",
    "CCCma hist file": "3hr",
    "CCCma hist var names": "PWAT",
    "CCCma check": "Jason",
    "priority": 2.0,
    "MIPs (requesting)": "  HighResMIP(2)",
    "experiments": "  amip (HighResMIP:2)"
  },
  "psl": {
    "CCCma TS var name": "PMSL",
    "CCCma diag file": "3h",
    "CCCma optional deck": "mltby100",
    "CCCma hist file": "3hr",
    "CCCma hist var names": "PMSL",
    "CCCma check": "Jason",
    "priority": 2.0,
    "MIPs (requesting)": "  HighResMIP(2)",
    "experiments": "  amip (HighResMIP:2)"
  },
  "ra": {
    "CCCma TS var name": "CFRV",
    "CCCma diag file": null,
    "CCCma hist file": "3hr",
    "CCCma hist var names": "CFRV",
    "CCCma check": "Jason",
    "MIPs (requesting)": "  C4MIP(1)",
    "experiments": "  historical (C4MIP:1)"
  },
  "rh": {
    "CCCma TS var name": "CFRH CFRD",
    "CCCma diag file": null,
    "CCCma hist file": "3hr",
    "CCCma hist var names": "CFRH CFRD",
    "CCCma check": "Jason",
    "MIPs (requesting)": "  C4MIP(1)",
    "experiments": "  historical (C4MIP:1)"
  },
  "rlut": {
    "CCCma TS var name": "OLR",
    "CCCma diag file": "3h",
    "CCCma hist file": "3hr",
    "CCCma hist var names": "OLR",
    "CCCma check": "Jason",
    "priority": 2.0,
    "MIPs (requesting)": "  HighResMIP(2)",
    "experiments": "  amip (HighResMIP:2)"
  },
  "rlutcs": {
    "CCCma TS var name": "OLRC",
    "CCCma diag file": "3h",
    "CCCma hist file": "3hr",
    "CCCma hist var names": "OLRC",
    "CCCma check": "Jason",
    "priority": 2.0,
    "MIPs (requesting)": "  HighResMIP(2)",
    "experiments": "  amip (HighResMIP:2)"
  },
  "rsdt": {
    "CCCma TS var name": "FSO",
    "CCCma diag file": "3h",
    "CCCma hist file": "3hr",
    "CCCma hist var names": "FSO",
    "CCCma check": "Jason",
    "priority": 2.0,
    "MIPs (requesting)": "  HighResMIP(2)",
    "experiments": "  amip (HighResMIP:2)"
  },
  "rsut": {
    "CCCma TS var name": "FSR",
    "CCCma diag file": "3h",
    "CCCma hist file": "3hr",
    "CCCma hist var names": "FSR",
    "CCCma check": "Jason",
    "priority": 2.0,
    "MIPs (requesting)": "  HighResMIP(2)",
    "experiments": "  amip (HighResMIP:2)"
  },
  "rsutcs": {
    "CCCma TS var name": "FSRC",
    "CCCma diag file": null,
    "CCCma hist file": "3hr",
    "CCCma hist var names": "FSRC",
    "CCCma check": "Jason",
    "MIPs (requesting)": "  HighResMIP(2), RFMIP(1)",
    "experiments": "  amip (HighResMIP:2), historical (RFMIP:1)"
  },
  "sfcWind": {
    "CCCma TS var name": null,
    "CCCma diag file": null,
    "CCCma check": "Get diagnostically from \"uas\" and \"vas\"?",
    "MIPs (requesting)": "  LS3MIP(1)",
    "experiments": "  historical (LS3MIP:1)"
  },
  "uas": {
    "CCCma TS var name": "SUA",
    "CCCma diag file": null,
    "CCCma hist file": "3hr",
    "CCCma hist var names": "SUA",
    "CCCma check": "Jason",
    "MIPs (requesting)": "  LS3MIP(1)",
    "experiments": "  historical (LS3MIP:1)"
  },
  "vas": {
    "CCCma TS var name": "SVA",
    "CCCma diag file": null,
    "CCCma hist file": "3hr",
    "CCCma hist var names": "SVA",
    "CCCma check": "Jason",
    "MIPs (requesting)": "  LS3MIP(1)",
    "experiments": "  historical (LS3MIP:1)"
  }
}