{
  "bldep": {
    "CCCma TS var name": null,
    "CCCma diag file": null,
    "CCCma check": "N/A (Jason)",
    "priority": 3.0,
    "MIPs (requesting)": "  HighResMIP(3)",
    "experiments": "  amip (HighResMIP:3)"
  },
  "hfls": {
    "CCCma TS var name": null,
    "CCCma diag file": null,
    "CCCma check": "N/A (Jason)",
    "priority": 3.0,
    "MIPs (requesting)": "  HighResMIP(3)",
    "experiments": "  amip (HighResMIP:3)"
  },
  "hfss": {
    "CCCma TS var name": null,
    "CCCma diag file": null,
    "CCCma check": "N/A (Jason)",
    "priority": 3.0,
    "MIPs (requesting)": "  HighResMIP(3)",
    "experiments": "  amip (HighResMIP:3)"
  },
  "hus": {
    "CCCma TS var name": null,
    "CCCma diag file": null,
    "CCCma check": "N/A (Jason)",
    "priority": 3.0,
    "MIPs (requesting)": "  HighResMIP(3)",
    "experiments": "  amip (HighResMIP:3)"
  },
  "huss": {
    "CCCma TS var name": null,
    "CCCma diag file": null,
    "CCCma check": "N/A (Jason)",
    "priority": 3.0,
    "MIPs (requesting)": "  HighResMIP(3)",
    "experiments": "  amip (HighResMIP:3)"
  },
  "mc": {
    "CCCma TS var name": null,
    "CCCma diag file": null,
    "CCCma check": "N/A (Jason)",
    "priority": 3.0,
    "MIPs (requesting)": "  HighResMIP(3)",
    "experiments": "  amip (HighResMIP:3)"
  },
  "pr": {
    "CCCma TS var name": null,
    "CCCma diag file": null,
    "CCCma check": "N/A (Jason)",
    "priority": 3.0,
    "MIPs (requesting)": "  HighResMIP(3)",
    "experiments": "  amip (HighResMIP:3)"
  },
  "prc": {
    "CCCma TS var name": null,
    "CCCma diag file": null,
    "CCCma check": "N/A (Jason)",
    "priority": 3.0,
    "MIPs (requesting)": "  HighResMIP(3)",
    "experiments": "  amip (HighResMIP:3)"
  },
  "prw": {
    "CCCma TS var name": null,
    "CCCma diag file": null,
    "CCCma check": "N/A (Jason)",
    "priority": 3.0,
    "MIPs (requesting)": "  HighResMIP(3)",
    "experiments": "  amip (HighResMIP:3)"
  },
  "ps": {
    "CCCma TS var name": "",
    "CCCma diag file": ""
  },
  "reffclic": {
    "CCCma TS var name": null,
    "CCCma diag file": null,
    "CCCma check": "N/A (Jason)",
    "priority": 2.0,
    "MIPs (requesting)": "  CFMIP(2)",
    "experiments": "  amip (CFMIP:2)"
  },
  "reffclis": {
    "CCCma TS var name": "RICE CICE",
    "CCCma diag file": null,
    "CCCma optional deck": "cospmask",
    "CCCma hist file": "site",
    "CCCma hist var names": "RICE CICE",
    "CCCma check": "Jason",
    "priority": 2.0,
    "MIPs (requesting)": "  CFMIP(2)",
    "experiments": "  amip (CFMIP:2)"
  },
  "reffclwc": {
    "CCCma TS var name": null,
    "CCCma diag file": null,
    "CCCma check": "N/A (Jason)",
    "priority": 2.0,
    "MIPs (requesting)": "  CFMIP(2)",
    "experiments": "  amip (CFMIP:2)"
  },
  "reffclws": {
    "CCCma TS var name": "RLIQ CLIQ",
    "CCCma diag file": null,
    "CCCma optional deck": "cospmask",
    "CCCma hist file": "site",
    "CCCma hist var names": "RLIQ CLIQ",
    "CCCma check": "Jason",
    "priority": 2.0,
    "MIPs (requesting)": "  CFMIP(2)",
    "experiments": "  amip (CFMIP:2)"
  },
  "rlut": {
    "CCCma TS var name": null,
    "CCCma diag file": null,
    "CCCma check": "N/A (Jason)",
    "priority": 3.0,
    "MIPs (requesting)": "  HighResMIP(3)",
    "experiments": "  amip (HighResMIP:3)"
  },
  "rsdt": {
    "CCCma TS var name": null,
    "CCCma diag file": null,
    "CCCma check": "N/A (Jason)",
    "priority": 3.0,
    "MIPs (requesting)": "  HighResMIP(3)",
    "experiments": "  amip (HighResMIP:3)"
  },
  "rsut": {
    "CCCma TS var name": null,
    "CCCma diag file": null,
    "CCCma check": "N/A (Jason)",
    "priority": 3.0,
    "MIPs (requesting)": "  HighResMIP(3)",
    "experiments": "  amip (HighResMIP:3)"
  },
  "ta": {
    "CCCma TS var name": null,
    "CCCma diag file": null,
    "CCCma check": "N/A (Jason)",
    "priority": 3.0,
    "MIPs (requesting)": "  HighResMIP(3)",
    "experiments": "  amip (HighResMIP:3)"
  },
  "tas": {
    "CCCma TS var name": null,
    "CCCma diag file": null,
    "CCCma check": "N/A (Jason)",
    "priority": 3.0,
    "MIPs (requesting)": "  HighResMIP(3)",
    "experiments": "  amip (HighResMIP:3)"
  },
  "tnhus": {
    "CCCma TS var name": null,
    "CCCma diag file": null,
    "CCCma check": "N/A (Jason)",
    "priority": 3.0,
    "MIPs (requesting)": "  HighResMIP(3)",
    "experiments": "  amip (HighResMIP:3)"
  },
  "tnhuspbl": {
    "CCCma TS var name": null,
    "CCCma diag file": null,
    "CCCma check": "N/A (Jason)",
    "MIPs (requesting)": "  CFMIP(1)",
    "experiments": "  amip (CFMIP:1)"
  },
  "tnhusscp": {
    "CCCma TS var name": null,
    "CCCma diag file": null,
    "CCCma check": "N/A (Jason)",
    "MIPs (requesting)": "  CFMIP(1)",
    "experiments": "  amip (CFMIP:1)"
  },
  "tnt": {
    "CCCma TS var name": null,
    "CCCma diag file": null,
    "CCCma check": "N/A (Jason)",
    "priority": 3.0,
    "MIPs (requesting)": "  HighResMIP(3)",
    "experiments": "  amip (HighResMIP:3)"
  },
  "tntd": {
    "CCCma TS var name": null,
    "CCCma diag file": null,
    "CCCma check": "N/A (Jason)",
    "MIPs (requesting)": "  CFMIP(1)",
    "experiments": "  amip (CFMIP:1)"
  },
  "tntpbl": {
    "CCCma TS var name": null,
    "CCCma diag file": null,
    "CCCma check": "N/A (Jason)",
    "MIPs (requesting)": "  CFMIP(1)",
    "experiments": "  amip (CFMIP:1)"
  },
  "tntrl": {
    "CCCma TS var name": "TTPL",
    "CCCma diag file": null,
    "CCCma hist file": "site",
    "CCCma hist var names": "TTPL",
    "CCCma check": "Jason",
    "priority": 3.0,
    "MIPs (requesting)": "  CFMIP(3)",
    "experiments": "  amip (CFMIP:3)"
  },
  "tntrlcs": {
    "CCCma TS var name": "TTLC",
    "CCCma diag file": null,
    "CCCma hist file": "site",
    "CCCma hist var names": "TTLC",
    "CCCma hist var frequency": "ISRAD",
    "CCCma check": "Jason",
    "MIPs (requesting)": "  CFMIP(1)",
    "experiments": "  amip (CFMIP:1)"
  },
  "tntrs": {
    "CCCma TS var name": "TTPS",
    "CCCma diag file": null,
    "CCCma hist file": "site",
    "CCCma hist var names": "TTPS",
    "CCCma check": "Jason",
    "priority": 3.0,
    "MIPs (requesting)": "  CFMIP(3)",
    "experiments": "  amip (CFMIP:3)"
  },
  "tntrscs": {
    "CCCma TS var name": "TTSC",
    "CCCma diag file": null,
    "CCCma hist file": "site",
    "CCCma hist var names": "TTSC",
    "CCCma hist var frequency": "ISRAD",
    "CCCma check": "Jason",
    "MIPs (requesting)": "  CFMIP(1)",
    "experiments": "  amip (CFMIP:1)"
  },
  "tntscp": {
    "CCCma TS var name": null,
    "CCCma diag file": null,
    "CCCma check": "N/A (Jason)",
    "MIPs (requesting)": "  CFMIP(1)",
    "experiments": "  amip (CFMIP:1)"
  },
  "ua": {
    "CCCma TS var name": null,
    "CCCma diag file": null,
    "CCCma check": "N/A (Jason)",
    "priority": 3.0,
    "MIPs (requesting)": "  HighResMIP(3)",
    "experiments": "  amip (HighResMIP:3)"
  },
  "va": {
    "CCCma TS var name": null,
    "CCCma diag file": null,
    "CCCma check": "N/A (Jason)",
    "priority": 3.0,
    "MIPs (requesting)": "  HighResMIP(3)",
    "experiments": "  amip (HighResMIP:3)"
  },
  "wap": {
    "CCCma TS var name": null,
    "CCCma diag file": null,
    "CCCma check": "N/A (Jason)",
    "priority": 3.0,
    "MIPs (requesting)": "  HighResMIP(3)",
    "experiments": "  amip (HighResMIP:3)"
  }
}