{
  "_metadata_": {
    "Source file": ""
  }, 
  "epfy": {
    "CCCma TS var name": "meridional_component_ep_flux", 
    "CCCma diag file": "6x",
    "units": "m3 s-2", 
    "dimensions": "latitude snap34 time", 
    "modeling_realm": "atmos", 
    "frequency": "6hrPt"
  },
  "epfz": {
    "CCCma TS var name": "vertical_component_ep_flux", 
    "CCCma diag file": "6x",
    "units": "m3 s-2", 
    "dimensions": "latitude snap34 time", 
    "modeling_realm": "atmos", 
    "frequency": "6hrPt"
  },
  "vtem": {
    "CCCma TS var name": "residual_meridional_velocity", 
    "CCCma diag file": "6x",
    "units": "m s-1", 
    "dimensions": "latitude snap34 time", 
    "modeling_realm": "atmos", 
    "frequency": "6hrPt"
  },
  "wtem": {
    "CCCma TS var name": "residual_vertical_velocity", 
    "CCCma diag file": "6x",
    "units": "m s-1", 
    "dimensions": "latitude snap34 time", 
    "modeling_realm": "atmos", 
    "frequency": "6hrPt"
  }
}

