{
  "pr": {
    "CCCma TS var name": "PCHF,PSHF,PLHF",
    "CCCma diag file": null,
    "CCCma units": "kg m-2 s-1",
    "CCCma hist file": "gs",
    "CCCma hist var names": "PCHF,PSHF,PLHF",
    "CCCma hist var frequency": "ISHF",
    "CCCma check": "Done.",
    "CCCma comment": "PLHF+PCHF+PSHF",
    "MIPs (requesting)": "  HighResMIP(1,1,1)",
    "experiments": "  piControl (HighResMIP:1), historical (HighResMIP:1), amip (HighResMIP:1)"
  },
  "prc": {
    "CCCma TS var name": "PCHF,PSHF,PLHF",
    "CCCma diag file": null,
    "CCCma units": "kg m-2 s-1",
    "CCCma hist file": "gs",
    "CCCma hist var names": "PCHF,PSHF",
    "CCCma hist var frequency": "ISHF",
    "CCCma check": "Done.",
    "CCCma comment": "PCHF+PSHF",
    "MIPs (requesting)": "  HighResMIP(1,1,1)",
    "experiments": "  piControl (HighResMIP:1), historical (HighResMIP:1), amip (HighResMIP:1)"
  },
  "psl": {
    "CCCma TS var name": null,
    "CCCma diag file": null,
    "priority": 3.0,
    "MIPs (requesting)": "  HighResMIP(3)",
    "experiments": "  amip (HighResMIP:3)"
  },
  "rlut": {
    "CCCma TS var name": null,
    "CCCma diag file": null,
    "priority": 3.0,
    "MIPs (requesting)": "  HighResMIP(3)",
    "experiments": "  amip (HighResMIP:3)"
  },
  "ta": {
    "CCCma TS var name": null,
    "CCCma diag file": null,
    "priority": 3.0,
    "MIPs (requesting)": "  HighResMIP(3)",
    "experiments": "  amip (HighResMIP:3)"
  },
  "ta27": {
    "CCCma TS var name": null,
    "CCCma diag file": null,
    "priority": 3.0,
    "MIPs (requesting)": "  HighResMIP(3)",
    "experiments": "  amip (HighResMIP:3)"
  },
  "tntr27": {
    "CCCma TS var name": null,
    "CCCma diag file": null,
    "priority": 3.0,
    "MIPs (requesting)": "  HighResMIP(3)",
    "experiments": "  amip (HighResMIP:3)"
  },
  "ua": {
    "CCCma TS var name": null,
    "CCCma diag file": null,
    "priority": 3.0,
    "MIPs (requesting)": "  HighResMIP(3)",
    "experiments": "  amip (HighResMIP:3)"
  },
  "ua27": {
    "CCCma TS var name": null,
    "CCCma diag file": null,
    "priority": 3.0,
    "MIPs (requesting)": "  HighResMIP(3)",
    "experiments": "  amip (HighResMIP:3)"
  },
  "utendnogw27": {
    "CCCma TS var name": null,
    "CCCma diag file": null,
    "priority": 3.0,
    "MIPs (requesting)": "  HighResMIP(3)",
    "experiments": "  amip (HighResMIP:3)"
  },
  "va": {
    "CCCma TS var name": null,
    "CCCma diag file": null,
    "priority": 3.0,
    "MIPs (requesting)": "  HighResMIP(3)",
    "experiments": "  amip (HighResMIP:3)"
  },
  "va27": {
    "CCCma TS var name": null,
    "CCCma diag file": null,
    "priority": 3.0,
    "MIPs (requesting)": "  HighResMIP(3)",
    "experiments": "  amip (HighResMIP:3)"
  },
  "vtendnogw27": {
    "CCCma TS var name": null,
    "CCCma diag file": null,
    "priority": 3.0,
    "MIPs (requesting)": "  HighResMIP(3)",
    "experiments": "  amip (HighResMIP:3)"
  },
  "wap": {
    "CCCma TS var name": null,
    "CCCma diag file": null,
    "priority": 3.0,
    "MIPs (requesting)": "  HighResMIP(3)",
    "experiments": "  amip (HighResMIP:3)"
  },
  "wap27": {
    "CCCma TS var name": null,
    "CCCma diag file": null,
    "priority": 3.0,
    "MIPs (requesting)": "  HighResMIP(3)",
    "experiments": "  amip (HighResMIP:3)"
  },
  "zg27": {
    "CCCma TS var name": null,
    "CCCma diag file": null,
    "priority": 3.0,
    "MIPs (requesting)": "  HighResMIP(3)",
    "experiments": "  amip (HighResMIP:3)"
  }
}