{
  "clayfrac": {
    "CCCma TS var name": null,
    "CCCma diag file": null,
    "MIPs (requesting)": "  LS3MIP(1)",
    "experiments": "  historical (LS3MIP:1)"
  },
  "fldcapacity": {
    "CCCma TS var name": null,
    "CCCma diag file": null,
    "MIPs (requesting)": "  LS3MIP(1)",
    "experiments": "  historical (LS3MIP:1)"
  },
  "ksat": {
    "CCCma TS var name": null,
    "CCCma diag file": null,
    "MIPs (requesting)": "  LS3MIP(1)",
    "experiments": "  historical (LS3MIP:1)"
  },
  "ps": {
    "CCCma TS var name": "",
    "CCCma diag file": ""
  },
  "rld": {
    "CCCma TS var name": "",
    "CCCma diag file": ""
  },
  "rlu": {
    "CCCma TS var name": "",
    "CCCma diag file": ""
  },
  "rootdsl": {
    "CCCma TS var name": null,
    "CCCma diag file": null,
    "MIPs (requesting)": "  LS3MIP(1)",
    "experiments": "  historical (LS3MIP:1)"
  },
  "rsd": {
    "CCCma TS var name": "",
    "CCCma diag file": ""
  },
  "rsu": {
    "CCCma TS var name": "",
    "CCCma diag file": ""
  },
  "sandfrac": {
    "CCCma TS var name": null,
    "CCCma diag file": null,
    "MIPs (requesting)": "  LS3MIP(1)",
    "experiments": "  historical (LS3MIP:1)"
  },
  "sftflf": {
    "CCCma TS var name": null,
    "CCCma diag file": null,
    "MIPs (requesting)": "  CMIP(1,1,1,1,1), ISMIP6(2,2,2,2)",
    "experiments": "  abrupt-4xCO2 (CMIP:1), amip (CMIP:1,ISMIP6:2), 1pctCO2 (CMIP:1,ISMIP6:2), historical (CMIP:1,ISMIP6:2), piControl (CMIP:1,ISMIP6:2)"
  },
  "sftgrf": {
    "CCCma TS var name": null,
    "CCCma diag file": null,
    "MIPs (requesting)": "  CMIP(1,1,1,1,1), ISMIP6(1,1,1,1)",
    "experiments": "  abrupt-4xCO2 (CMIP:1), amip (CMIP:1,ISMIP6:1), 1pctCO2 (CMIP:1,ISMIP6:1), historical (CMIP:1,ISMIP6:1), piControl (CMIP:1,ISMIP6:1)"
  },
  "siltfrac": {
    "CCCma TS var name": null,
    "CCCma diag file": null,
    "MIPs (requesting)": "  LS3MIP(1)",
    "experiments": "  historical (LS3MIP:1)"
  },
  "slthick": {
    "CCCma TS var name": null,
    "CCCma diag file": null,
    "MIPs (requesting)": "  LS3MIP(1)",
    "experiments": "  historical (LS3MIP:1)"
  },
  "vegHeight": {
    "CCCma TS var name": null,
    "CCCma diag file": null,
    "priority": 2.0,
    "MIPs (requesting)": "  CMIP(2,2,2,2,2), DCPP(2), PAMIP(2), PMIP(2,2,2,2,2)",
    "experiments": "  abrupt-4xCO2 (CMIP:2,PMIP:2), amip (CMIP:2,PMIP:2), 1pctCO2 (CMIP:2,PMIP:2), historical (CMIP:2,DCPP:2,PAMIP:2,PMIP:2), piControl (CMIP:2,PMIP:2)"
  },
  "wilt": {
    "CCCma TS var name": null,
    "CCCma diag file": null,
    "MIPs (requesting)": "  LS3MIP(1)",
    "experiments": "  historical (LS3MIP:1)"
  }
}