{
  "ccb": {
    "CCCma TS var name": "TBCD TCDCB",
    "CCCma diag file": "gp",
    "CCCma optional deck": "maskcdcb",
    "CCCma hist file": "gs",
    "CCCma hist var names": "BCD",
    "CCCma hist var frequency": "ISRAD",
    "CCCma check": "Done.",
    "CCCma comment": "%df xtraconv, maskout TCDCB<=0",
    "MIPs (requesting)": "  AerChemMIP(1,1,1,1,1), CFMIP(1,1,1,1,1), CMIP(1,1,1,1,1), DAMIP(1,1,1,1,1), FAFMIP(1,1,1), GeoMIP(1,1,1), GMMIP(1), HighResMIP(1,1,1), LUMIP(1), RFMIP(1,1,1,1,1), VolMIP(1,1)",
    "experiments": "  abrupt-4xCO2 (AerChemMIP:1,CFMIP:1,CMIP:1,DAMIP:1,FAFMIP:1,GeoMIP:1,RFMIP:1), amip (AerChemMIP:1,CFMIP:1,CMIP:1,DAMIP:1,GMMIP:1,HighResMIP:1,RFMIP:1), 1pctCO2 (AerChemMIP:1,CFMIP:1,CMIP:1,DAMIP:1,FAFMIP:1,RFMIP:1), historical (AerChemMIP:1,CFMIP:1,CMIP:1,DAMIP:1,GeoMIP:1,HighResMIP:1,LUMIP:1,RFMIP:1,VolMIP:1), piControl (AerChemMIP:1,CFMIP:1,CMIP:1,DAMIP:1,FAFMIP:1,GeoMIP:1,HighResMIP:1,RFMIP:1,VolMIP:1)"
  },
  "cct": {
    "CCCma TS var name": "TTCD TCDCB",
    "CCCma diag file": "gp",
    "CCCma optional deck": "maskcdcb",
    "CCCma hist file": "gs",
    "CCCma hist var names": "TCD",
    "CCCma hist var frequency": "ISRAD",
    "CCCma check": "Done.",
    "CCCma comment": "%df xtraconv, maskout TCDCB<=0",
    "MIPs (requesting)": "  AerChemMIP(1,1,1,1,1), CFMIP(1,1,1,1,1), CMIP(1,1,1,1,1), DAMIP(1,1,1,1,1), FAFMIP(1,1,1), GeoMIP(1,1,1), GMMIP(1), HighResMIP(1,1,1), LUMIP(1), RFMIP(1,1,1,1,1), VolMIP(1,1)",
    "experiments": "  abrupt-4xCO2 (AerChemMIP:1,CFMIP:1,CMIP:1,DAMIP:1,FAFMIP:1,GeoMIP:1,RFMIP:1), amip (AerChemMIP:1,CFMIP:1,CMIP:1,DAMIP:1,GMMIP:1,HighResMIP:1,RFMIP:1), 1pctCO2 (AerChemMIP:1,CFMIP:1,CMIP:1,DAMIP:1,FAFMIP:1,RFMIP:1), historical (AerChemMIP:1,CFMIP:1,CMIP:1,DAMIP:1,GeoMIP:1,HighResMIP:1,LUMIP:1,RFMIP:1,VolMIP:1), piControl (AerChemMIP:1,CFMIP:1,CMIP:1,DAMIP:1,FAFMIP:1,GeoMIP:1,HighResMIP:1,RFMIP:1,VolMIP:1)"
  },
  "cfc113global": {
    "CCCma TS var name": null,
    "CCCma diag file": null,
    "CCCma check": "cfc11 has combined cfcs.",
    "priority": 2.0,
    "MIPs (requesting)": "  AerChemMIP(3,3,3,3,3), CFMIP(3,3,3,3,3), CMIP(3,3,3,3,3), DAMIP(3,3,3,3,3), FAFMIP(3,3,3), GeoMIP(3,3,3), GMMIP(3), HighResMIP(3,3,3), LUMIP(3), RFMIP(3,3,3,3,3), VIACSAB(2,2,2,2), VolMIP(3,3)",
    "experiments": "  abrupt-4xCO2 (AerChemMIP:3,CFMIP:3,CMIP:3,DAMIP:3,FAFMIP:3,GeoMIP:3,RFMIP:3), amip (VIACSAB:2,AerChemMIP:3,CFMIP:3,CMIP:3,DAMIP:3,GMMIP:3,HighResMIP:3,RFMIP:3), 1pctCO2 (AerChemMIP:3,CFMIP:3,CMIP:3,DAMIP:3,FAFMIP:3,RFMIP:3), historical (VIACSAB:2,VIACSAB:2,AerChemMIP:3,CFMIP:3,CMIP:3,DAMIP:3,GeoMIP:3,HighResMIP:3,LUMIP:3,RFMIP:3,VolMIP:3), piControl (VIACSAB:2,AerChemMIP:3,CFMIP:3,CMIP:3,DAMIP:3,FAFMIP:3,GeoMIP:3,HighResMIP:3,RFMIP:3,VolMIP:3)"
  },
  "cfc11global": {
    "CCCma TS var name": null,
    "CCCma diag file": null,
    "CCCma units": "ppv",
    "CCCma hist file": "gs",
    "CCCma hist var names": "F11",
    "CCCma hist var frequency": "ISDAY",
    "CCCma check": "Done but units are PPV and must be converted.",
    "CCCma comment": "input files, CF11, Charles,Vivek, Larry",
    "priority": 2.0,
    "MIPs (requesting)": "  AerChemMIP(3,3,3,3,3), CFMIP(3,3,3,3,3), CMIP(3,3,3,3,3), DAMIP(3,3,3,3,3), FAFMIP(3,3,3), GeoMIP(3,3,3), GMMIP(3), HighResMIP(3,3,3), LUMIP(3), RFMIP(3,3,3,3,3), VIACSAB(2,2,2,2), VolMIP(3,3)",
    "experiments": "  abrupt-4xCO2 (AerChemMIP:3,CFMIP:3,CMIP:3,DAMIP:3,FAFMIP:3,GeoMIP:3,RFMIP:3), amip (VIACSAB:2,AerChemMIP:3,CFMIP:3,CMIP:3,DAMIP:3,GMMIP:3,HighResMIP:3,RFMIP:3), 1pctCO2 (AerChemMIP:3,CFMIP:3,CMIP:3,DAMIP:3,FAFMIP:3,RFMIP:3), historical (VIACSAB:2,VIACSAB:2,AerChemMIP:3,CFMIP:3,CMIP:3,DAMIP:3,GeoMIP:3,HighResMIP:3,LUMIP:3,RFMIP:3,VolMIP:3), piControl (VIACSAB:2,AerChemMIP:3,CFMIP:3,CMIP:3,DAMIP:3,FAFMIP:3,GeoMIP:3,HighResMIP:3,RFMIP:3,VolMIP:3)"
  },
  "cfc12global": {
    "CCCma TS var name": null,
    "CCCma diag file": null,
    "CCCma check": "cfc11 has combined cfcs.",
    "CCCma comment": "input files, CF12, Charles,Vivek. Larry",
    "priority": 2.0,
    "MIPs (requesting)": "  AerChemMIP(3,3,3,3,3), CFMIP(3,3,3,3,3), CMIP(3,3,3,3,3), DAMIP(3,3,3,3,3), FAFMIP(3,3,3), GeoMIP(3,3,3), GMMIP(3), HighResMIP(3,3,3), LUMIP(3), RFMIP(3,3,3,3,3), VIACSAB(2,2,2,2), VolMIP(3,3)",
    "experiments": "  abrupt-4xCO2 (AerChemMIP:3,CFMIP:3,CMIP:3,DAMIP:3,FAFMIP:3,GeoMIP:3,RFMIP:3), amip (VIACSAB:2,AerChemMIP:3,CFMIP:3,CMIP:3,DAMIP:3,GMMIP:3,HighResMIP:3,RFMIP:3), 1pctCO2 (AerChemMIP:3,CFMIP:3,CMIP:3,DAMIP:3,FAFMIP:3,RFMIP:3), historical (VIACSAB:2,VIACSAB:2,AerChemMIP:3,CFMIP:3,CMIP:3,DAMIP:3,GeoMIP:3,HighResMIP:3,LUMIP:3,RFMIP:3,VolMIP:3), piControl (VIACSAB:2,AerChemMIP:3,CFMIP:3,CMIP:3,DAMIP:3,FAFMIP:3,GeoMIP:3,HighResMIP:3,RFMIP:3,VolMIP:3)"
  },
  "ch4": {
    "CCCma TS var name": null,
    "CCCma diag file": null,
    "CCCma check": "Don't need to provide. Globally invariant.",
    "CCCma comment": "IBUF(7)=10, only one value in record",
    "MIPs (requesting)": "  AerChemMIP(1,1,1,1,1), CFMIP(1,1,1,1,1), CMIP(1,1,1,1,1,1), DAMIP(1,1,1,1,1), FAFMIP(1,1,1), GeoMIP(1,1,1), GMMIP(1), HighResMIP(1,1,1), LUMIP(1), PMIP(1,1,1,1,1), RFMIP(1,1,1,1,1), VolMIP(1,1)",
    "experiments": "  abrupt-4xCO2 (AerChemMIP:1,CFMIP:1,CMIP:1,CMIP:1,DAMIP:1,FAFMIP:1,GeoMIP:1,PMIP:1,RFMIP:1), amip (AerChemMIP:1,CFMIP:1,CMIP:1,DAMIP:1,GMMIP:1,HighResMIP:1,PMIP:1,RFMIP:1), 1pctCO2 (AerChemMIP:1,CFMIP:1,CMIP:1,DAMIP:1,FAFMIP:1,PMIP:1,RFMIP:1), historical (AerChemMIP:1,CFMIP:1,CMIP:1,DAMIP:1,GeoMIP:1,HighResMIP:1,LUMIP:1,PMIP:1,RFMIP:1,VolMIP:1), piControl (AerChemMIP:1,CFMIP:1,CMIP:1,DAMIP:1,FAFMIP:1,GeoMIP:1,HighResMIP:1,PMIP:1,RFMIP:1,VolMIP:1)"
  },
  "ch4Clim": {
    "CCCma TS var name": null,
    "CCCma diag file": null,
    "CCCma check": "Don't need to provide. Globally invariant.",
    "MIPs (requesting)": "  AerChemMIP(1,1,1,1,1), CFMIP(1,1,1,1,1), CMIP(1,1,1,1,1), DAMIP(1,1,1,1,1), FAFMIP(1,1,1), GeoMIP(1,1,1), GMMIP(1), HighResMIP(1,1,1), LUMIP(1), PMIP(1,1,1,1,1), RFMIP(1,1,1,1,1), VolMIP(1,1)",
    "experiments": "  abrupt-4xCO2 (AerChemMIP:1,CFMIP:1,CMIP:1,DAMIP:1,FAFMIP:1,GeoMIP:1,PMIP:1,RFMIP:1), amip (AerChemMIP:1,CFMIP:1,CMIP:1,DAMIP:1,GMMIP:1,HighResMIP:1,PMIP:1,RFMIP:1), 1pctCO2 (AerChemMIP:1,CFMIP:1,CMIP:1,DAMIP:1,FAFMIP:1,PMIP:1,RFMIP:1), historical (AerChemMIP:1,CFMIP:1,CMIP:1,DAMIP:1,GeoMIP:1,HighResMIP:1,LUMIP:1,PMIP:1,RFMIP:1,VolMIP:1), piControl (AerChemMIP:1,CFMIP:1,CMIP:1,DAMIP:1,FAFMIP:1,GeoMIP:1,HighResMIP:1,PMIP:1,RFMIP:1,VolMIP:1)"
  },
  "ch4global": {
    "CCCma TS var name": null,
    "CCCma diag file": null,
    "CCCma units": "Mole fraction (dimensionless)",
    "CCCma hist file": "gs",
    "CCCma hist var names": "CH4",
    "CCCma hist var frequency": "ISDAY",
    "CCCma check": "Done but units are PPV and must be converted.",
    "MIPs (requesting)": "  AerChemMIP(1,1,1,1,1), CFMIP(1,1,1,1,1), CMIP(1,1,1,1,1), DAMIP(1,1,1,1,1), FAFMIP(1,1,1), GeoMIP(1,1,1), GMMIP(1), HighResMIP(1,1,1), LUMIP(1), PMIP(1,1,1,1,1), RFMIP(1,1,1,1,1), VolMIP(1,1)",
    "experiments": "  abrupt-4xCO2 (AerChemMIP:1,CFMIP:1,CMIP:1,DAMIP:1,FAFMIP:1,GeoMIP:1,PMIP:1,RFMIP:1), amip (AerChemMIP:1,CFMIP:1,CMIP:1,DAMIP:1,GMMIP:1,HighResMIP:1,PMIP:1,RFMIP:1), 1pctCO2 (AerChemMIP:1,CFMIP:1,CMIP:1,DAMIP:1,FAFMIP:1,PMIP:1,RFMIP:1), historical (AerChemMIP:1,CFMIP:1,CMIP:1,DAMIP:1,GeoMIP:1,HighResMIP:1,LUMIP:1,PMIP:1,RFMIP:1,VolMIP:1), piControl (AerChemMIP:1,CFMIP:1,CMIP:1,DAMIP:1,FAFMIP:1,GeoMIP:1,HighResMIP:1,PMIP:1,RFMIP:1,VolMIP:1)"
  },
  "ch4globalClim": {
    "CCCma TS var name": null,
    "CCCma diag file": null,
    "CCCma check": "Don't need to provide?",
    "MIPs (requesting)": "  AerChemMIP(1,1,1,1,1), CFMIP(1,1,1,1,1), CMIP(1,1,1,1,1), DAMIP(1,1,1,1,1), FAFMIP(1,1,1), GeoMIP(1,1,1), GMMIP(1), HighResMIP(1,1,1), LUMIP(1), PMIP(1,1,1,1,1), RFMIP(1,1,1,1,1), VolMIP(1,1)",
    "experiments": "  abrupt-4xCO2 (AerChemMIP:1,CFMIP:1,CMIP:1,DAMIP:1,FAFMIP:1,GeoMIP:1,PMIP:1,RFMIP:1), amip (AerChemMIP:1,CFMIP:1,CMIP:1,DAMIP:1,GMMIP:1,HighResMIP:1,PMIP:1,RFMIP:1), 1pctCO2 (AerChemMIP:1,CFMIP:1,CMIP:1,DAMIP:1,FAFMIP:1,PMIP:1,RFMIP:1), historical (AerChemMIP:1,CFMIP:1,CMIP:1,DAMIP:1,GeoMIP:1,HighResMIP:1,LUMIP:1,PMIP:1,RFMIP:1,VolMIP:1), piControl (AerChemMIP:1,CFMIP:1,CMIP:1,DAMIP:1,FAFMIP:1,GeoMIP:1,HighResMIP:1,PMIP:1,RFMIP:1,VolMIP:1)"
  },
  "ci": {
    "CCCma TS var name": "TCDCB",
    "CCCma diag file": "gp",
    "CCCma units": "-",
    "CCCma hist file": "gs",
    "CCCma hist var names": "CDCB",
    "CCCma hist var frequency": "ISRAD",
    "CCCma check": "Done.",
    "CCCma comment": "%df xtraconv",
    "MIPs (requesting)": "  AerChemMIP(1,1,1,1,1), CFMIP(1,1,1,1,1), CMIP(1,1,1,1,1), DAMIP(1,1,1,1,1), FAFMIP(1,1,1), GeoMIP(1,1,1), GMMIP(1), HighResMIP(1,1,1), ISMIP6(1,1,1,1), LUMIP(1), PMIP(1,1,1,1,1), RFMIP(1,1,1,1,1), VIACSAB(1,1,2,2,2,2), VolMIP(1,1)",
    "experiments": "  abrupt-4xCO2 (AerChemMIP:1,CFMIP:1,CMIP:1,DAMIP:1,FAFMIP:1,GeoMIP:1,PMIP:1,RFMIP:1), amip (AerChemMIP:1,CFMIP:1,CMIP:1,DAMIP:1,GMMIP:1,HighResMIP:1,ISMIP6:1,PMIP:1,RFMIP:1,VIACSAB:1,VIACSAB:2), 1pctCO2 (AerChemMIP:1,CFMIP:1,CMIP:1,DAMIP:1,FAFMIP:1,ISMIP6:1,PMIP:1,RFMIP:1), historical (AerChemMIP:1,CFMIP:1,CMIP:1,DAMIP:1,GeoMIP:1,HighResMIP:1,ISMIP6:1,LUMIP:1,PMIP:1,RFMIP:1,VIACSAB:1,VolMIP:1,VIACSAB:2,VIACSAB:2), piControl (AerChemMIP:1,CFMIP:1,CMIP:1,DAMIP:1,FAFMIP:1,GeoMIP:1,HighResMIP:1,ISMIP6:1,PMIP:1,RFMIP:1,VolMIP:1,VIACSAB:2)"
  },
  "cl": {
    "CCCma TS var name": "SCLD",
    "CCCma diag file": "gp",
    "CCCma optional deck": "mltby100",
    "CCCma units": "-",
    "CCCma hist file": "gs",
    "CCCma hist var names": "CLD",
    "CCCma hist var frequency": "ISGG",
    "CCCma check": "Done.",
    "CCCma comment": "SCLD*100",
    "CCCma target vertical grid": "ILEV",
    "MIPs (requesting)": "  AerChemMIP(1,1,1,1,1), CDRMIP(3,3,3,3,3), CFMIP(1,1,1,1,1), CMIP(1,1,1,1,1), DAMIP(1,1,1,1,1,1,1), FAFMIP(1,1,1), GeoMIP(1,1,1), GMMIP(1), HighResMIP(1,1,1,2,2), LUMIP(1), PMIP(1,1,1,1,1), RFMIP(1,1,1,1,1), VIACSAB(2,2,2,2), VolMIP(1,1)",
    "experiments": "  abrupt-4xCO2 (AerChemMIP:1,CFMIP:1,CMIP:1,DAMIP:1,FAFMIP:1,GeoMIP:1,PMIP:1,RFMIP:1,CDRMIP:3), amip (AerChemMIP:1,CFMIP:1,CMIP:1,DAMIP:1,GMMIP:1,HighResMIP:1,PMIP:1,RFMIP:1,HighResMIP:2,VIACSAB:2,CDRMIP:3), 1pctCO2 (AerChemMIP:1,CFMIP:1,CMIP:1,DAMIP:1,FAFMIP:1,PMIP:1,RFMIP:1,CDRMIP:3), historical (AerChemMIP:1,CFMIP:1,CMIP:1,DAMIP:1,DAMIP:1,GeoMIP:1,HighResMIP:1,LUMIP:1,PMIP:1,RFMIP:1,VolMIP:1,VIACSAB:2,VIACSAB:2,CDRMIP:3), piControl (AerChemMIP:1,CFMIP:1,CMIP:1,DAMIP:1,DAMIP:1,FAFMIP:1,GeoMIP:1,HighResMIP:1,PMIP:1,RFMIP:1,VolMIP:1,HighResMIP:2,VIACSAB:2,CDRMIP:3)"
  },
  "cli": {
    "CCCma TS var name": "CIC",
    "CCCma diag file": "gp",
    "CCCma units": "Kg/Kg",
    "CCCma hist file": "gs",
    "CCCma hist var names": "CIC",
    "CCCma hist var frequency": "ISGG",
    "CCCma target vertical grid": "ILEV",
    "MIPs (requesting)": "  AerChemMIP(1,1,1,1,1), CFMIP(1,1,1,1,1), CMIP(1,1,1,1,1), DAMIP(1,1,1,1,1,1,1), FAFMIP(1,1,1), GeoMIP(1,1,1), GMMIP(1), HighResMIP(1,1,1), LUMIP(1), RFMIP(1,1,1,1,1), VIACSAB(2,2,2,2), VolMIP(1,1)",
    "experiments": "  abrupt-4xCO2 (AerChemMIP:1,CFMIP:1,CMIP:1,DAMIP:1,FAFMIP:1,GeoMIP:1,RFMIP:1), amip (AerChemMIP:1,CFMIP:1,CMIP:1,DAMIP:1,GMMIP:1,HighResMIP:1,RFMIP:1,VIACSAB:2), 1pctCO2 (AerChemMIP:1,CFMIP:1,CMIP:1,DAMIP:1,FAFMIP:1,RFMIP:1), historical (AerChemMIP:1,CFMIP:1,CMIP:1,DAMIP:1,DAMIP:1,GeoMIP:1,HighResMIP:1,LUMIP:1,RFMIP:1,VolMIP:1,VIACSAB:2,VIACSAB:2), piControl (AerChemMIP:1,CFMIP:1,CMIP:1,DAMIP:1,DAMIP:1,FAFMIP:1,GeoMIP:1,HighResMIP:1,RFMIP:1,VolMIP:1,VIACSAB:2)"
  },
  "clivi": {
    "CCCma TS var name": "CICT",
    "CCCma diag file": "gp",
    "CCCma units": "Kg/m2",
    "CCCma hist file": "gs",
    "CCCma hist var names": "CICT",
    "CCCma hist var frequency": "ISRAD",
    "CCCma check": "Done.",
    "MIPs (requesting)": "  AerChemMIP(1,1,1,1,1), CFMIP(1,1,1,1,1), CMIP(1,1,1,1,1,1), DAMIP(1,1,1,1,1), FAFMIP(1,1,1), GeoMIP(1,1,1), GMMIP(1), HighResMIP(1,1,1), ISMIP6(1,1,1,1), LUMIP(1), PMIP(1,1,1,1,1), RFMIP(1,1,1,1,1), VolMIP(1,1)",
    "experiments": "  abrupt-4xCO2 (AerChemMIP:1,CFMIP:1,CMIP:1,CMIP:1,DAMIP:1,FAFMIP:1,GeoMIP:1,PMIP:1,RFMIP:1), amip (AerChemMIP:1,CFMIP:1,CMIP:1,DAMIP:1,GMMIP:1,HighResMIP:1,ISMIP6:1,PMIP:1,RFMIP:1), 1pctCO2 (AerChemMIP:1,CFMIP:1,CMIP:1,DAMIP:1,FAFMIP:1,ISMIP6:1,PMIP:1,RFMIP:1), historical (AerChemMIP:1,CFMIP:1,CMIP:1,DAMIP:1,GeoMIP:1,HighResMIP:1,ISMIP6:1,LUMIP:1,PMIP:1,RFMIP:1,VolMIP:1), piControl (AerChemMIP:1,CFMIP:1,CMIP:1,DAMIP:1,FAFMIP:1,GeoMIP:1,HighResMIP:1,ISMIP6:1,PMIP:1,RFMIP:1,VolMIP:1)"
  },
  "clt": {
    "CCCma TS var name": "CLDT",
    "CCCma diag file": "gp",
    "CCCma optional deck": "mltby100",
    "CCCma units": "??",
    "CCCma hist file": "gs",
    "CCCma hist var names": "CLDT",
    "CCCma hist var frequency": "ISRAD",
    "MIPs (requesting)": "  AerChemMIP(1,1,1,1,1), CFMIP(1,1,1,1,1), CMIP(1,1,1,1,1,1), DAMIP(1,1,1,1,1), DCPP(1), FAFMIP(1,1,1), GeoMIP(1,1,1), GMMIP(1), HighResMIP(1,1,1), ISMIP6(1,1,1,1), LUMIP(1), PAMIP(1), PMIP(1,1,1,1,1), RFMIP(1,1,1,1,1), VIACSAB(1,1,1,1,1,2,2,2), VolMIP(1,1)",
    "experiments": "  abrupt-4xCO2 (AerChemMIP:1,CFMIP:1,CMIP:1,CMIP:1,DAMIP:1,FAFMIP:1,GeoMIP:1,PMIP:1,RFMIP:1), amip (AerChemMIP:1,CFMIP:1,CMIP:1,DAMIP:1,GMMIP:1,HighResMIP:1,ISMIP6:1,PMIP:1,RFMIP:1,VIACSAB:1,VIACSAB:2), 1pctCO2 (AerChemMIP:1,CFMIP:1,CMIP:1,DAMIP:1,FAFMIP:1,ISMIP6:1,PMIP:1,RFMIP:1,VIACSAB:1,VIACSAB:2), historical (AerChemMIP:1,CFMIP:1,CMIP:1,DAMIP:1,DCPP:1,GeoMIP:1,HighResMIP:1,ISMIP6:1,LUMIP:1,PAMIP:1,PMIP:1,RFMIP:1,VIACSAB:1,VIACSAB:1,VolMIP:1,VIACSAB:2), piControl (AerChemMIP:1,CFMIP:1,CMIP:1,DAMIP:1,FAFMIP:1,GeoMIP:1,HighResMIP:1,ISMIP6:1,PMIP:1,RFMIP:1,VIACSAB:1,VolMIP:1)"
  },
  "clw": {
    "CCCma TS var name": "CLW",
    "CCCma diag file": "gp",
    "CCCma units": "Kg/Kg",
    "CCCma hist file": "gs",
    "CCCma hist var names": "CLW",
    "CCCma hist var frequency": "ISGG",
    "MIPs (requesting)": "  AerChemMIP(1,1,1,1,1), CFMIP(1,1,1,1,1), CMIP(1,1,1,1,1), DAMIP(1,1,1,1,1,1,1), FAFMIP(1,1,1), GeoMIP(1,1,1), GMMIP(1), HighResMIP(1,1,1), LUMIP(1), PMIP(1,1,1,1,1), RFMIP(1,1,1,1,1), VIACSAB(2,2,2,2), VolMIP(1,1)",
    "experiments": "  abrupt-4xCO2 (AerChemMIP:1,CFMIP:1,CMIP:1,DAMIP:1,FAFMIP:1,GeoMIP:1,PMIP:1,RFMIP:1), amip (AerChemMIP:1,CFMIP:1,CMIP:1,DAMIP:1,GMMIP:1,HighResMIP:1,PMIP:1,RFMIP:1,VIACSAB:2), 1pctCO2 (AerChemMIP:1,CFMIP:1,CMIP:1,DAMIP:1,FAFMIP:1,PMIP:1,RFMIP:1), historical (AerChemMIP:1,CFMIP:1,CMIP:1,DAMIP:1,DAMIP:1,GeoMIP:1,HighResMIP:1,LUMIP:1,PMIP:1,RFMIP:1,VolMIP:1,VIACSAB:2,VIACSAB:2), piControl (AerChemMIP:1,CFMIP:1,CMIP:1,DAMIP:1,DAMIP:1,FAFMIP:1,GeoMIP:1,HighResMIP:1,PMIP:1,RFMIP:1,VolMIP:1,VIACSAB:2)"
  },
  "clwvi": {
    "CCCma TS var name": "CLWT CICT",
    "CCCma diag file": "gp",
    "CCCma optional deck": "addtwo",
    "CCCma units": "Kg/m2",
    "CCCma hist file": "gs",
    "CCCma hist var names": "CLWT CICT",
    "CCCma hist var frequency": "ISRAD",
    "CCCma check": "Done.",
    "MIPs (requesting)": "  AerChemMIP(1,1,1,1,1), CFMIP(1,1,1,1,1), CMIP(1,1,1,1,1,1), DAMIP(1,1,1,1,1), FAFMIP(1,1,1), GeoMIP(1,1,1), GMMIP(1), HighResMIP(1,1,1), ISMIP6(1,1,1,1), LUMIP(1), PMIP(1,1,1,1,1), RFMIP(1,1,1,1,1), VolMIP(1,1)",
    "experiments": "  abrupt-4xCO2 (AerChemMIP:1,CFMIP:1,CMIP:1,CMIP:1,DAMIP:1,FAFMIP:1,GeoMIP:1,PMIP:1,RFMIP:1), amip (AerChemMIP:1,CFMIP:1,CMIP:1,DAMIP:1,GMMIP:1,HighResMIP:1,ISMIP6:1,PMIP:1,RFMIP:1), 1pctCO2 (AerChemMIP:1,CFMIP:1,CMIP:1,DAMIP:1,FAFMIP:1,ISMIP6:1,PMIP:1,RFMIP:1), historical (AerChemMIP:1,CFMIP:1,CMIP:1,DAMIP:1,GeoMIP:1,HighResMIP:1,ISMIP6:1,LUMIP:1,PMIP:1,RFMIP:1,VolMIP:1), piControl (AerChemMIP:1,CFMIP:1,CMIP:1,DAMIP:1,FAFMIP:1,GeoMIP:1,HighResMIP:1,ISMIP6:1,PMIP:1,RFMIP:1,VolMIP:1)"
  },
  "co2": {
    "CCCma TS var name": "CO2",
    "CCCma diag file": "gp",
    "CCCma optional deck": "co2toppmv",
    "CCCma hist file": "ss",
    "CCCma hist var names": "CO2",
    "CCCma hist var frequency": "spectral at ISTR",
    "CCCma check": "See notes at end. Deck xstats5 seems to produce MMR on pressure levels, then must be scaled as in notes. Also, we should NOT be committing to ppmv, rather to ppv (ie no multiplication by 1.E6).",
    "CCCma comment": "CO2*28.970/44.011*1E6, may need revision in xstats5.dk, mass concentration, MMR*RHO, needed conversion to right units, ML, Charles,Knut",
    "MIPs (requesting)": "  AerChemMIP(1,1,1,1,1), CFMIP(1,1,1,1,1), CMIP(1,1,1,1,1,1), DAMIP(1,1,1,1,1), FAFMIP(1,1,1), GeoMIP(1,1,1), GMMIP(1), HighResMIP(1,1,1), LUMIP(1), PMIP(1,1,1,1,1), RFMIP(1,1,1,1,1), VolMIP(1,1)",
    "experiments": "  abrupt-4xCO2 (AerChemMIP:1,CFMIP:1,CMIP:1,CMIP:1,DAMIP:1,FAFMIP:1,GeoMIP:1,PMIP:1,RFMIP:1), amip (AerChemMIP:1,CFMIP:1,CMIP:1,DAMIP:1,GMMIP:1,HighResMIP:1,PMIP:1,RFMIP:1), 1pctCO2 (AerChemMIP:1,CFMIP:1,CMIP:1,DAMIP:1,FAFMIP:1,PMIP:1,RFMIP:1), historical (AerChemMIP:1,CFMIP:1,CMIP:1,DAMIP:1,GeoMIP:1,HighResMIP:1,LUMIP:1,PMIP:1,RFMIP:1,VolMIP:1), piControl (AerChemMIP:1,CFMIP:1,CMIP:1,DAMIP:1,FAFMIP:1,GeoMIP:1,HighResMIP:1,PMIP:1,RFMIP:1,VolMIP:1)"
  },
  "co2Clim": {
    "CCCma TS var name": null,
    "CCCma diag file": null,
    "CCCma check": "Calculate diagnostically.",
    "CCCma comment": "always report the above quantity, even for PI control runs",
    "MIPs (requesting)": "  AerChemMIP(1,1,1,1,1), CFMIP(1,1,1,1,1), CMIP(1,1,1,1,1), DAMIP(1,1,1,1,1), FAFMIP(1,1,1), GeoMIP(1,1,1), GMMIP(1), HighResMIP(1,1,1), LUMIP(1), PMIP(1,1,1,1,1), RFMIP(1,1,1,1,1), VolMIP(1,1)",
    "experiments": "  abrupt-4xCO2 (AerChemMIP:1,CFMIP:1,CMIP:1,DAMIP:1,FAFMIP:1,GeoMIP:1,PMIP:1,RFMIP:1), amip (AerChemMIP:1,CFMIP:1,CMIP:1,DAMIP:1,GMMIP:1,HighResMIP:1,PMIP:1,RFMIP:1), 1pctCO2 (AerChemMIP:1,CFMIP:1,CMIP:1,DAMIP:1,FAFMIP:1,PMIP:1,RFMIP:1), historical (AerChemMIP:1,CFMIP:1,CMIP:1,DAMIP:1,GeoMIP:1,HighResMIP:1,LUMIP:1,PMIP:1,RFMIP:1,VolMIP:1), piControl (AerChemMIP:1,CFMIP:1,CMIP:1,DAMIP:1,FAFMIP:1,GeoMIP:1,HighResMIP:1,PMIP:1,RFMIP:1,VolMIP:1)"
  },
  "co2mass": {
    "CCCma TS var name": "VI16",
    "CCCma diag file": "gp",
    "CCCma optional deck": "glbint",
    "CCCma check": "Calculate diagnostically.",
    "CCCma comment": "VI16*510099699E06, should be ~610E12kg for 288ppm",
    "MIPs (requesting)": "  AerChemMIP(1,1,1,1,1), C4MIP(1,1), CDRMIP(1,1,1,1,1), CFMIP(1,1,1,1,1), CMIP(1,1,1,1,1), DAMIP(1,1,1,1,1), FAFMIP(1,1,1), GeoMIP(1,1,1), GMMIP(1), HighResMIP(1,1,1), LUMIP(1), PMIP(1,1,1,1,1), RFMIP(1,1,1,1,1), VolMIP(1,1)",
    "experiments": "  abrupt-4xCO2 (AerChemMIP:1,CDRMIP:1,CFMIP:1,CMIP:1,DAMIP:1,FAFMIP:1,GeoMIP:1,PMIP:1,RFMIP:1), amip (AerChemMIP:1,CDRMIP:1,CFMIP:1,CMIP:1,DAMIP:1,GMMIP:1,HighResMIP:1,PMIP:1,RFMIP:1), 1pctCO2 (AerChemMIP:1,CDRMIP:1,CFMIP:1,CMIP:1,DAMIP:1,FAFMIP:1,PMIP:1,RFMIP:1), historical (AerChemMIP:1,C4MIP:1,CDRMIP:1,CFMIP:1,CMIP:1,DAMIP:1,GeoMIP:1,HighResMIP:1,LUMIP:1,PMIP:1,RFMIP:1,VolMIP:1), piControl (AerChemMIP:1,C4MIP:1,CDRMIP:1,CFMIP:1,CMIP:1,DAMIP:1,FAFMIP:1,GeoMIP:1,HighResMIP:1,PMIP:1,RFMIP:1,VolMIP:1)"
  },
  "co2massClim": {
    "CCCma TS var name": null,
    "CCCma diag file": null,
    "CCCma check": "calculate diagnostically.",
    "CCCma comment": "always report the above quantity, even for PI control runs",
    "MIPs (requesting)": "  AerChemMIP(1,1,1,1,1), CFMIP(1,1,1,1,1), CMIP(1,1,1,1,1), DAMIP(1,1,1,1,1), FAFMIP(1,1,1), GeoMIP(1,1,1), GMMIP(1), HighResMIP(1,1,1), LUMIP(1), PMIP(1,1,1,1,1), RFMIP(1,1,1,1,1), VolMIP(1,1)",
    "experiments": "  abrupt-4xCO2 (AerChemMIP:1,CFMIP:1,CMIP:1,DAMIP:1,FAFMIP:1,GeoMIP:1,PMIP:1,RFMIP:1), amip (AerChemMIP:1,CFMIP:1,CMIP:1,DAMIP:1,GMMIP:1,HighResMIP:1,PMIP:1,RFMIP:1), 1pctCO2 (AerChemMIP:1,CFMIP:1,CMIP:1,DAMIP:1,FAFMIP:1,PMIP:1,RFMIP:1), historical (AerChemMIP:1,CFMIP:1,CMIP:1,DAMIP:1,GeoMIP:1,HighResMIP:1,LUMIP:1,PMIP:1,RFMIP:1,VolMIP:1), piControl (AerChemMIP:1,CFMIP:1,CMIP:1,DAMIP:1,FAFMIP:1,GeoMIP:1,HighResMIP:1,PMIP:1,RFMIP:1,VolMIP:1)"
  },
  "evspsbl": {
    "CCCma TS var name": "QFS",
    "CCCma diag file": "gp",
    "CCCma units": "kg m-2 s-1",
    "CCCma hist file": "gs",
    "CCCma hist var names": "QFS",
    "CCCma hist var frequency": "ISRAD",
    "CCCma check": "Done.",
    "MIPs (requesting)": "  AerChemMIP(1,1,1,1,1), CDRMIP(2,2,2,2,2), CFMIP(1,1,1,1,1), CMIP(1,1,1,1,1,1), DAMIP(1,1,1,1,1), DCPP(1), FAFMIP(1,1,1), GeoMIP(1,1,1), GMMIP(1), HighResMIP(1,1,1), ISMIP6(1,1,1,1), LUMIP(1), PAMIP(1), PMIP(1,1,1,1,1), RFMIP(1,1,1,1,1), VIACSAB(1,1,1,1,1,2), VolMIP(1,1)",
    "experiments": "  abrupt-4xCO2 (AerChemMIP:1,CFMIP:1,CMIP:1,CMIP:1,DAMIP:1,FAFMIP:1,GeoMIP:1,PMIP:1,RFMIP:1,CDRMIP:2), amip (AerChemMIP:1,CFMIP:1,CMIP:1,DAMIP:1,GMMIP:1,HighResMIP:1,ISMIP6:1,PMIP:1,RFMIP:1,VIACSAB:1,CDRMIP:2), 1pctCO2 (AerChemMIP:1,CFMIP:1,CMIP:1,DAMIP:1,FAFMIP:1,ISMIP6:1,PMIP:1,RFMIP:1,VIACSAB:1,CDRMIP:2), historical (AerChemMIP:1,CFMIP:1,CMIP:1,DAMIP:1,DCPP:1,GeoMIP:1,HighResMIP:1,ISMIP6:1,LUMIP:1,PAMIP:1,PMIP:1,RFMIP:1,VIACSAB:1,VIACSAB:1,VolMIP:1,CDRMIP:2,VIACSAB:2), piControl (AerChemMIP:1,CFMIP:1,CMIP:1,DAMIP:1,FAFMIP:1,GeoMIP:1,HighResMIP:1,ISMIP6:1,PMIP:1,RFMIP:1,VIACSAB:1,VolMIP:1,CDRMIP:2)"
  },
  "fco2antt": {
    "CCCma TS var name": null,
    "CCCma diag file": null,
    "CCCma units": "kg m-2 s-1",
    "CCCma check": "Vivek says N/A. We can't do this flux properly because of CTEM's structure and because this flux includes land use change emissions.",
    "CCCma comment": "Vivek says don't do this. See note in column C.",
    "MIPs (requesting)": "  AerChemMIP(1,1,1,1,1), CMIP(1,1,1,1,1), DAMIP(1,1,1,1,1), FAFMIP(1,1,1), GeoMIP(1,1,1), GMMIP(1), HighResMIP(1,1,1), LUMIP(1), RFMIP(1,1,1,1,1), VIACSAB(1,1,1,1), VolMIP(1,1)",
    "experiments": "  abrupt-4xCO2 (AerChemMIP:1,CMIP:1,DAMIP:1,FAFMIP:1,GeoMIP:1,RFMIP:1), amip (AerChemMIP:1,CMIP:1,DAMIP:1,GMMIP:1,HighResMIP:1,RFMIP:1,VIACSAB:1), 1pctCO2 (AerChemMIP:1,CMIP:1,DAMIP:1,FAFMIP:1,RFMIP:1), historical (AerChemMIP:1,CMIP:1,DAMIP:1,GeoMIP:1,HighResMIP:1,LUMIP:1,RFMIP:1,VIACSAB:1,VIACSAB:1,VolMIP:1), piControl (AerChemMIP:1,CMIP:1,DAMIP:1,FAFMIP:1,GeoMIP:1,HighResMIP:1,RFMIP:1,VIACSAB:1,VolMIP:1)"
  },
  "fco2fos": {
    "CCCma TS var name": null,
    "CCCma diag file": null,
    "CCCma units": "kg m-2 s-1",
    "CCCma hist var names": "ECO2",
    "CCCma hist var frequency": "ISBEG",
    "CCCma check": "Now in AGCM instead of coupler, but no diagnostic deck?",
    "CCCma comment": "ECO2*12.011/44.011 check formula. Yes this seems right. Vivek.",
    "MIPs (requesting)": "  AerChemMIP(1,1,1,1,1), CMIP(1,1,1,1,1), DAMIP(1,1,1,1,1), FAFMIP(1,1,1), GeoMIP(1,1,1), GMMIP(1), HighResMIP(1,1,1), LUMIP(1), RFMIP(1,1,1,1,1), VIACSAB(1,1,1,1), VolMIP(1,1)",
    "experiments": "  abrupt-4xCO2 (AerChemMIP:1,CMIP:1,DAMIP:1,FAFMIP:1,GeoMIP:1,RFMIP:1), amip (AerChemMIP:1,CMIP:1,DAMIP:1,GMMIP:1,HighResMIP:1,RFMIP:1,VIACSAB:1), 1pctCO2 (AerChemMIP:1,CMIP:1,DAMIP:1,FAFMIP:1,RFMIP:1), historical (AerChemMIP:1,CMIP:1,DAMIP:1,GeoMIP:1,HighResMIP:1,LUMIP:1,RFMIP:1,VIACSAB:1,VIACSAB:1,VolMIP:1), piControl (AerChemMIP:1,CMIP:1,DAMIP:1,FAFMIP:1,GeoMIP:1,HighResMIP:1,RFMIP:1,VIACSAB:1,VolMIP:1)"
  },
  "fco2nat": {
    "CCCma TS var name": null,
    "CCCma diag file": null,
    "CCCma optional deck": "co2toc2",
    "CCCma units": "kg m-2 s-1",
    "CCCma check": "XS16-ECO2. XS16 is tainted by land use change emissions so doing this won't give natural fluxes over land. Decide later to do this or not.Vivek",
    "CCCma comment": "(XS16-ECO2)*12.011/44.011, Vivek A.,check formula. Yes this seems correct. Vivek.",
    "MIPs (requesting)": "  AerChemMIP(1,1,1,1,1), CMIP(1,1,1,1,1), DAMIP(1,1,1,1,1), FAFMIP(1,1,1), GeoMIP(1,1,1), GMMIP(1), HighResMIP(1,1,1), LUMIP(1), RFMIP(1,1,1,1,1), VIACSAB(1,1,1,1), VolMIP(1,1)",
    "experiments": "  abrupt-4xCO2 (AerChemMIP:1,CMIP:1,DAMIP:1,FAFMIP:1,GeoMIP:1,RFMIP:1), amip (AerChemMIP:1,CMIP:1,DAMIP:1,GMMIP:1,HighResMIP:1,RFMIP:1,VIACSAB:1), 1pctCO2 (AerChemMIP:1,CMIP:1,DAMIP:1,FAFMIP:1,RFMIP:1), historical (AerChemMIP:1,CMIP:1,DAMIP:1,GeoMIP:1,HighResMIP:1,LUMIP:1,RFMIP:1,VIACSAB:1,VIACSAB:1,VolMIP:1), piControl (AerChemMIP:1,CMIP:1,DAMIP:1,FAFMIP:1,GeoMIP:1,HighResMIP:1,RFMIP:1,VIACSAB:1,VolMIP:1)"
  },
  "hcfc22global": {
    "CCCma TS var name": null,
    "CCCma diag file": null,
    "CCCma check": "N/A",
    "priority": 2.0,
    "MIPs (requesting)": "  AerChemMIP(3,3,3,3,3), CFMIP(3,3,3,3,3), CMIP(3,3,3,3,3), DAMIP(3,3,3,3,3), FAFMIP(3,3,3), GeoMIP(3,3,3), GMMIP(3), HighResMIP(3,3,3), LUMIP(3), RFMIP(3,3,3,3,3), VIACSAB(2,2,2,2), VolMIP(3,3)",
    "experiments": "  abrupt-4xCO2 (AerChemMIP:3,CFMIP:3,CMIP:3,DAMIP:3,FAFMIP:3,GeoMIP:3,RFMIP:3), amip (VIACSAB:2,AerChemMIP:3,CFMIP:3,CMIP:3,DAMIP:3,GMMIP:3,HighResMIP:3,RFMIP:3), 1pctCO2 (AerChemMIP:3,CFMIP:3,CMIP:3,DAMIP:3,FAFMIP:3,RFMIP:3), historical (VIACSAB:2,VIACSAB:2,AerChemMIP:3,CFMIP:3,CMIP:3,DAMIP:3,GeoMIP:3,HighResMIP:3,LUMIP:3,RFMIP:3,VolMIP:3), piControl (VIACSAB:2,AerChemMIP:3,CFMIP:3,CMIP:3,DAMIP:3,FAFMIP:3,GeoMIP:3,HighResMIP:3,RFMIP:3,VolMIP:3)"
  },
  "hfls": {
    "CCCma TS var name": "HFL",
    "CCCma diag file": "gp",
    "CCCma units": "W m-2",
    "CCCma hist file": "gs",
    "CCCma hist var names": "HFL",
    "CCCma hist var frequency": "ISRAD",
    "CCCma check": "Done.",
    "MIPs (requesting)": "  AerChemMIP(1,1,1,1,1), CDRMIP(3,3,3,3,3), CFMIP(1,1,1,1,1), CMIP(1,1,1,1,1,1), DAMIP(1,1,1,1,1), DCPP(1), FAFMIP(1,1,1), GeoMIP(1,1,1), GMMIP(1), HighResMIP(1,1,1), ISMIP6(1,1,1,1), LUMIP(1), PAMIP(1), PMIP(1,1,1,1,1), RFMIP(1,1,1,1,1), VIACSAB(1,1,1,1,1), VolMIP(1,1)",
    "experiments": "  abrupt-4xCO2 (AerChemMIP:1,CFMIP:1,CMIP:1,CMIP:1,DAMIP:1,FAFMIP:1,GeoMIP:1,PMIP:1,RFMIP:1,CDRMIP:3), amip (AerChemMIP:1,CFMIP:1,CMIP:1,DAMIP:1,GMMIP:1,HighResMIP:1,ISMIP6:1,PMIP:1,RFMIP:1,VIACSAB:1,CDRMIP:3), 1pctCO2 (AerChemMIP:1,CFMIP:1,CMIP:1,DAMIP:1,FAFMIP:1,ISMIP6:1,PMIP:1,RFMIP:1,VIACSAB:1,CDRMIP:3), historical (AerChemMIP:1,CFMIP:1,CMIP:1,DAMIP:1,DCPP:1,GeoMIP:1,HighResMIP:1,ISMIP6:1,LUMIP:1,PAMIP:1,PMIP:1,RFMIP:1,VIACSAB:1,VIACSAB:1,VolMIP:1,CDRMIP:3), piControl (AerChemMIP:1,CFMIP:1,CMIP:1,DAMIP:1,FAFMIP:1,GeoMIP:1,HighResMIP:1,ISMIP6:1,PMIP:1,RFMIP:1,VIACSAB:1,VolMIP:1,CDRMIP:3)"
  },
  "hfss": {
    "CCCma TS var name": "HFS",
    "CCCma diag file": "gp",
    "CCCma units": "W m-2",
    "CCCma hist file": "gs",
    "CCCma hist var names": "HFS",
    "CCCma hist var frequency": "ISRAD",
    "CCCma check": "Done.",
    "MIPs (requesting)": "  AerChemMIP(1,1,1,1,1), CDRMIP(3,3,3,3,3), CFMIP(1,1,1,1,1), CMIP(1,1,1,1,1,1), DAMIP(1,1,1,1,1), DCPP(1), FAFMIP(1,1,1), GeoMIP(1,1,1), GMMIP(1), HighResMIP(1,1,1), ISMIP6(1,1,1,1), LUMIP(1), PAMIP(1), PMIP(1,1,1,1,1), RFMIP(1,1,1,1,1), VIACSAB(1,1,1,1,1), VolMIP(1,1)",
    "experiments": "  abrupt-4xCO2 (AerChemMIP:1,CFMIP:1,CMIP:1,CMIP:1,DAMIP:1,FAFMIP:1,GeoMIP:1,PMIP:1,RFMIP:1,CDRMIP:3), amip (AerChemMIP:1,CFMIP:1,CMIP:1,DAMIP:1,GMMIP:1,HighResMIP:1,ISMIP6:1,PMIP:1,RFMIP:1,VIACSAB:1,CDRMIP:3), 1pctCO2 (AerChemMIP:1,CFMIP:1,CMIP:1,DAMIP:1,FAFMIP:1,ISMIP6:1,PMIP:1,RFMIP:1,VIACSAB:1,CDRMIP:3), historical (AerChemMIP:1,CFMIP:1,CMIP:1,DAMIP:1,DCPP:1,GeoMIP:1,HighResMIP:1,ISMIP6:1,LUMIP:1,PAMIP:1,PMIP:1,RFMIP:1,VIACSAB:1,VIACSAB:1,VolMIP:1,CDRMIP:3), piControl (AerChemMIP:1,CFMIP:1,CMIP:1,DAMIP:1,FAFMIP:1,GeoMIP:1,HighResMIP:1,ISMIP6:1,PMIP:1,RFMIP:1,VIACSAB:1,VolMIP:1,CDRMIP:3)"
  },
  "hur": {
    "CCCma TS var name": "RH",
    "CCCma diag file": "gp",
    "CCCma optional deck": "mltby100",
    "CCCma units": "-",
    "CCCma check": "Done.",
    "MIPs (requesting)": "  AerChemMIP(1,1,1,1,1), CDRMIP(3,3,3,3,3), CFMIP(1,1,1,1,1), CMIP(1,1,1,1,1,1), DAMIP(1,1,1,1,1), FAFMIP(1,1,1), GeoMIP(1,1,1), GMMIP(1), HighResMIP(1,1,1), LUMIP(1), PMIP(1,1,1,1,1), RFMIP(1,1,1,1,1), VIACSAB(1,1,1,1,2), VolMIP(1,1)",
    "experiments": "  abrupt-4xCO2 (AerChemMIP:1,CFMIP:1,CMIP:1,CMIP:1,DAMIP:1,FAFMIP:1,GeoMIP:1,PMIP:1,RFMIP:1,CDRMIP:3), amip (AerChemMIP:1,CFMIP:1,CMIP:1,DAMIP:1,GMMIP:1,HighResMIP:1,PMIP:1,RFMIP:1,VIACSAB:1,CDRMIP:3), 1pctCO2 (AerChemMIP:1,CFMIP:1,CMIP:1,DAMIP:1,FAFMIP:1,PMIP:1,RFMIP:1,CDRMIP:3), historical (AerChemMIP:1,CFMIP:1,CMIP:1,DAMIP:1,GeoMIP:1,HighResMIP:1,LUMIP:1,PMIP:1,RFMIP:1,VIACSAB:1,VIACSAB:1,VolMIP:1,VIACSAB:2,CDRMIP:3), piControl (AerChemMIP:1,CFMIP:1,CMIP:1,DAMIP:1,FAFMIP:1,GeoMIP:1,HighResMIP:1,PMIP:1,RFMIP:1,VIACSAB:1,VolMIP:1,CDRMIP:3)"
  },
  "hurs": {
    "CCCma TS var name": "SRH",
    "CCCma diag file": "gp",
    "CCCma optional deck": "mltby100",
    "CCCma units": "-",
    "CCCma hist file": "gs",
    "CCCma hist var names": "SRH",
    "CCCma hist var frequency": "ISRAD",
    "CCCma check": "Done.",
    "CCCma comment": "SRH*100",
    "MIPs (requesting)": "  AerChemMIP(1,1,1,1,1), CFMIP(1,1,1,1,1), CMIP(1,1,1,1,1), DAMIP(1,1,1,1,1), FAFMIP(1,1,1), GeoMIP(1,1,1), GMMIP(1), HighResMIP(1,1,1), ISMIP6(1,1,1,1), LUMIP(1), PMIP(1,1,1,1,1), RFMIP(1,1,1,1,1), VIACSAB(1,1,1,1,1,2), VolMIP(1,1)",
    "experiments": "  abrupt-4xCO2 (AerChemMIP:1,CFMIP:1,CMIP:1,DAMIP:1,FAFMIP:1,GeoMIP:1,PMIP:1,RFMIP:1), amip (AerChemMIP:1,CFMIP:1,CMIP:1,DAMIP:1,GMMIP:1,HighResMIP:1,ISMIP6:1,PMIP:1,RFMIP:1,VIACSAB:1), 1pctCO2 (AerChemMIP:1,CFMIP:1,CMIP:1,DAMIP:1,FAFMIP:1,ISMIP6:1,PMIP:1,RFMIP:1,VIACSAB:1), historical (AerChemMIP:1,CFMIP:1,CMIP:1,DAMIP:1,GeoMIP:1,HighResMIP:1,ISMIP6:1,LUMIP:1,PMIP:1,RFMIP:1,VIACSAB:1,VIACSAB:1,VolMIP:1,VIACSAB:2), piControl (AerChemMIP:1,CFMIP:1,CMIP:1,DAMIP:1,FAFMIP:1,GeoMIP:1,HighResMIP:1,ISMIP6:1,PMIP:1,RFMIP:1,VIACSAB:1,VolMIP:1)"
  },
  "hus": {
    "CCCma TS var name": "Q",
    "CCCma diag file": "gp",
    "CCCma units": "-",
    "CCCma hist file": "ss (but this is hybrid variable!)",
    "CCCma hist var names": "ES",
    "CCCma hist var frequency": "spectral at ISSP",
    "CCCma check": "Done.",
    "MIPs (requesting)": "  AerChemMIP(1,1,1,1,1), CDRMIP(3,3,3,3,3), CFMIP(1,1,1,1,1), CMIP(1,1,1,1,1,1), DAMIP(1,1,1,1,1), DCPP(2), FAFMIP(1,1,1), GeoMIP(1,1,1), GMMIP(1), HighResMIP(1,1,1), LUMIP(1), PAMIP(2), PMIP(1,1,1,1,1), RFMIP(1,1,1,1,1), VIACSAB(1,1,1,1), VolMIP(1,1)",
    "experiments": "  abrupt-4xCO2 (AerChemMIP:1,CFMIP:1,CMIP:1,CMIP:1,DAMIP:1,FAFMIP:1,GeoMIP:1,PMIP:1,RFMIP:1,CDRMIP:3), amip (AerChemMIP:1,CFMIP:1,CMIP:1,DAMIP:1,GMMIP:1,HighResMIP:1,PMIP:1,RFMIP:1,VIACSAB:1,CDRMIP:3), 1pctCO2 (AerChemMIP:1,CFMIP:1,CMIP:1,DAMIP:1,FAFMIP:1,PMIP:1,RFMIP:1,CDRMIP:3), historical (AerChemMIP:1,CFMIP:1,CMIP:1,DAMIP:1,GeoMIP:1,HighResMIP:1,LUMIP:1,PMIP:1,RFMIP:1,VIACSAB:1,VIACSAB:1,VolMIP:1,DCPP:2,PAMIP:2,CDRMIP:3), piControl (AerChemMIP:1,CFMIP:1,CMIP:1,DAMIP:1,FAFMIP:1,GeoMIP:1,HighResMIP:1,PMIP:1,RFMIP:1,VIACSAB:1,VolMIP:1,CDRMIP:3)"
  },
  "huss": {
    "CCCma TS var name": "SQ",
    "CCCma diag file": "gp",
    "CCCma units": "-",
    "CCCma hist file": "gs",
    "CCCma hist var names": "SQ",
    "CCCma hist var frequency": "ISRAD",
    "CCCma check": "Done.",
    "MIPs (requesting)": "  AerChemMIP(1,1,1,1,1), CFMIP(1,1,1,1,1), CMIP(1,1,1,1,1), DAMIP(1,1,1,1,1), DCPP(1), FAFMIP(1,1,1), GeoMIP(1,1,1), GMMIP(1), HighResMIP(1,1,1), ISMIP6(1,1,1,1), LUMIP(1), PAMIP(1), PMIP(1,1,1,1,1), RFMIP(1,1,1,1,1), VIACSAB(1,1,1,1,1,2), VolMIP(1,1)",
    "experiments": "  abrupt-4xCO2 (AerChemMIP:1,CFMIP:1,CMIP:1,DAMIP:1,FAFMIP:1,GeoMIP:1,PMIP:1,RFMIP:1), amip (AerChemMIP:1,CFMIP:1,CMIP:1,DAMIP:1,GMMIP:1,HighResMIP:1,ISMIP6:1,PMIP:1,RFMIP:1,VIACSAB:1), 1pctCO2 (AerChemMIP:1,CFMIP:1,CMIP:1,DAMIP:1,FAFMIP:1,ISMIP6:1,PMIP:1,RFMIP:1,VIACSAB:1), historical (AerChemMIP:1,CFMIP:1,CMIP:1,DAMIP:1,DCPP:1,GeoMIP:1,HighResMIP:1,ISMIP6:1,LUMIP:1,PAMIP:1,PMIP:1,RFMIP:1,VIACSAB:1,VIACSAB:1,VolMIP:1,VIACSAB:2), piControl (AerChemMIP:1,CFMIP:1,CMIP:1,DAMIP:1,FAFMIP:1,GeoMIP:1,HighResMIP:1,ISMIP6:1,PMIP:1,RFMIP:1,VIACSAB:1,VolMIP:1)"
  },
  "mc": {
    "CCCma TS var name": "TDMCU TDMCD ",
    "CCCma diag file": "gp",
    "CCCma optional deck": "addtwo",
    "CCCma hist file": "gs",
    "CCCma hist var names": "DMC",
    "CCCma hist var frequency": "ISRAD",
    "CCCma check": "Done. But change other columns?",
    "CCCma comment": "TDMCU+TDMCD %df xtraconv,",
    "MIPs (requesting)": "  AerChemMIP(1,1,1,1,1), CFMIP(1,1,1,1,1), CMIP(1,1,1,1,1), DAMIP(1,1,1,1,1), FAFMIP(1,1,1), GeoMIP(1,1,1), GMMIP(1), HighResMIP(1,1,1), LUMIP(1), RFMIP(1,1,1,1,1), VIACSAB(2), VolMIP(1,1)",
    "experiments": "  abrupt-4xCO2 (AerChemMIP:1,CFMIP:1,CMIP:1,DAMIP:1,FAFMIP:1,GeoMIP:1,RFMIP:1), amip (AerChemMIP:1,CFMIP:1,CMIP:1,DAMIP:1,GMMIP:1,HighResMIP:1,RFMIP:1), 1pctCO2 (AerChemMIP:1,CFMIP:1,CMIP:1,DAMIP:1,FAFMIP:1,RFMIP:1), historical (AerChemMIP:1,CFMIP:1,CMIP:1,DAMIP:1,GeoMIP:1,HighResMIP:1,LUMIP:1,RFMIP:1,VolMIP:1,VIACSAB:2), piControl (AerChemMIP:1,CFMIP:1,CMIP:1,DAMIP:1,FAFMIP:1,GeoMIP:1,HighResMIP:1,RFMIP:1,VolMIP:1)"
  },
  "n2o": {
    "CCCma TS var name": null,
    "CCCma diag file": null,
    "CCCma check": "Don't need to provide. Globally invariant.",
    "CCCma comment": "IBUF(7)=10, only one value in record",
    "MIPs (requesting)": "  AerChemMIP(1,1,1,1,1), CFMIP(1,1,1,1,1), CMIP(1,1,1,1,1), DAMIP(1,1,1,1,1), FAFMIP(1,1,1), GeoMIP(1,1,1), GMMIP(1), HighResMIP(1,1,1), LUMIP(1), PMIP(1,1,1,1,1), RFMIP(1,1,1,1,1), VolMIP(1,1)",
    "experiments": "  abrupt-4xCO2 (AerChemMIP:1,CFMIP:1,CMIP:1,DAMIP:1,FAFMIP:1,GeoMIP:1,PMIP:1,RFMIP:1), amip (AerChemMIP:1,CFMIP:1,CMIP:1,DAMIP:1,GMMIP:1,HighResMIP:1,PMIP:1,RFMIP:1), 1pctCO2 (AerChemMIP:1,CFMIP:1,CMIP:1,DAMIP:1,FAFMIP:1,PMIP:1,RFMIP:1), historical (AerChemMIP:1,CFMIP:1,CMIP:1,DAMIP:1,GeoMIP:1,HighResMIP:1,LUMIP:1,PMIP:1,RFMIP:1,VolMIP:1), piControl (AerChemMIP:1,CFMIP:1,CMIP:1,DAMIP:1,FAFMIP:1,GeoMIP:1,HighResMIP:1,PMIP:1,RFMIP:1,VolMIP:1)"
  },
  "n2oClim": {
    "CCCma TS var name": null,
    "CCCma diag file": null,
    "CCCma check": "Don't need to provide? Globally invariant.",
    "MIPs (requesting)": "  AerChemMIP(1,1,1,1,1), CFMIP(1,1,1,1,1), CMIP(1,1,1,1,1), DAMIP(1,1,1,1,1), FAFMIP(1,1,1), GeoMIP(1,1,1), GMMIP(1), HighResMIP(1,1,1), LUMIP(1), PMIP(1,1,1,1,1), RFMIP(1,1,1,1,1), VolMIP(1,1)",
    "experiments": "  abrupt-4xCO2 (AerChemMIP:1,CFMIP:1,CMIP:1,DAMIP:1,FAFMIP:1,GeoMIP:1,PMIP:1,RFMIP:1), amip (AerChemMIP:1,CFMIP:1,CMIP:1,DAMIP:1,GMMIP:1,HighResMIP:1,PMIP:1,RFMIP:1), 1pctCO2 (AerChemMIP:1,CFMIP:1,CMIP:1,DAMIP:1,FAFMIP:1,PMIP:1,RFMIP:1), historical (AerChemMIP:1,CFMIP:1,CMIP:1,DAMIP:1,GeoMIP:1,HighResMIP:1,LUMIP:1,PMIP:1,RFMIP:1,VolMIP:1), piControl (AerChemMIP:1,CFMIP:1,CMIP:1,DAMIP:1,FAFMIP:1,GeoMIP:1,HighResMIP:1,PMIP:1,RFMIP:1,VolMIP:1)"
  },
  "n2oglobal": {
    "CCCma TS var name": null,
    "CCCma diag file": null,
    "CCCma units": "Mole fraction (dimensionless)",
    "CCCma hist file": "gs",
    "CCCma hist var names": "N2O",
    "CCCma hist var frequency": "ISDAY",
    "CCCma check": "Done but units are PPV and must be converted.",
    "MIPs (requesting)": "  AerChemMIP(1,1,1,1,1), CFMIP(1,1,1,1,1), CMIP(1,1,1,1,1), DAMIP(1,1,1,1,1), FAFMIP(1,1,1), GeoMIP(1,1,1), GMMIP(1), HighResMIP(1,1,1), LUMIP(1), PMIP(1,1,1,1,1), RFMIP(1,1,1,1,1), VolMIP(1,1)",
    "experiments": "  abrupt-4xCO2 (AerChemMIP:1,CFMIP:1,CMIP:1,DAMIP:1,FAFMIP:1,GeoMIP:1,PMIP:1,RFMIP:1), amip (AerChemMIP:1,CFMIP:1,CMIP:1,DAMIP:1,GMMIP:1,HighResMIP:1,PMIP:1,RFMIP:1), 1pctCO2 (AerChemMIP:1,CFMIP:1,CMIP:1,DAMIP:1,FAFMIP:1,PMIP:1,RFMIP:1), historical (AerChemMIP:1,CFMIP:1,CMIP:1,DAMIP:1,GeoMIP:1,HighResMIP:1,LUMIP:1,PMIP:1,RFMIP:1,VolMIP:1), piControl (AerChemMIP:1,CFMIP:1,CMIP:1,DAMIP:1,FAFMIP:1,GeoMIP:1,HighResMIP:1,PMIP:1,RFMIP:1,VolMIP:1)"
  },
  "n2oglobalClim": {
    "CCCma TS var name": null,
    "CCCma diag file": null,
    "CCCma check": "Don't need to provide? ",
    "MIPs (requesting)": "  AerChemMIP(1,1,1,1,1), CFMIP(1,1,1,1,1), CMIP(1,1,1,1,1), DAMIP(1,1,1,1,1), FAFMIP(1,1,1), GeoMIP(1,1,1), GMMIP(1), HighResMIP(1,1,1), LUMIP(1), PMIP(1,1,1,1,1), RFMIP(1,1,1,1,1), VolMIP(1,1)",
    "experiments": "  abrupt-4xCO2 (AerChemMIP:1,CFMIP:1,CMIP:1,DAMIP:1,FAFMIP:1,GeoMIP:1,PMIP:1,RFMIP:1), amip (AerChemMIP:1,CFMIP:1,CMIP:1,DAMIP:1,GMMIP:1,HighResMIP:1,PMIP:1,RFMIP:1), 1pctCO2 (AerChemMIP:1,CFMIP:1,CMIP:1,DAMIP:1,FAFMIP:1,PMIP:1,RFMIP:1), historical (AerChemMIP:1,CFMIP:1,CMIP:1,DAMIP:1,GeoMIP:1,HighResMIP:1,LUMIP:1,PMIP:1,RFMIP:1,VolMIP:1), piControl (AerChemMIP:1,CFMIP:1,CMIP:1,DAMIP:1,FAFMIP:1,GeoMIP:1,HighResMIP:1,PMIP:1,RFMIP:1,VolMIP:1)"
  },
  "o3": {
    "CCCma TS var name": null,
    "CCCma diag file": null,
    "CCCma check": "Produce from original ozone forcing files which are on pressure levels (the \"right\" pressure levels?). This is radiative ozone on pressure levels. OZPAK is not saved in the model or done in the diagnostics and even so, is on LEVOZ  levels, not model levels. The physics has a work array on model levels, call OZPHS.",
    "MIPs (requesting)": "  AerChemMIP(1,1,1,1,1), CFMIP(1,1,1,1,1), CMIP(1,1,1,1,1,1), DAMIP(1,1,1,1,1), FAFMIP(1,1,1), GeoMIP(1,1,1), GMMIP(1), HighResMIP(1,1,1), LUMIP(1), RFMIP(1,1,1,1,1), VolMIP(1,1)",
    "experiments": "  abrupt-4xCO2 (AerChemMIP:1,CFMIP:1,CMIP:1,CMIP:1,DAMIP:1,FAFMIP:1,GeoMIP:1,RFMIP:1), amip (AerChemMIP:1,CFMIP:1,CMIP:1,DAMIP:1,GMMIP:1,HighResMIP:1,RFMIP:1), 1pctCO2 (AerChemMIP:1,CFMIP:1,CMIP:1,DAMIP:1,FAFMIP:1,RFMIP:1), historical (AerChemMIP:1,CFMIP:1,CMIP:1,DAMIP:1,GeoMIP:1,HighResMIP:1,LUMIP:1,RFMIP:1,VolMIP:1), piControl (AerChemMIP:1,CFMIP:1,CMIP:1,DAMIP:1,FAFMIP:1,GeoMIP:1,HighResMIP:1,RFMIP:1,VolMIP:1)"
  },
  "o3Clim": {
    "CCCma TS var name": null,
    "CCCma diag file": null,
    "CCCma check": "Derive from 37. They are the same for PI.",
    "MIPs (requesting)": "  AerChemMIP(1,1,1,1,1), CFMIP(1,1,1,1,1), CMIP(1,1,1,1,1), DAMIP(1,1,1,1,1), FAFMIP(1,1,1), GeoMIP(1,1,1), GMMIP(1), HighResMIP(1,1,1), LUMIP(1), RFMIP(1,1,1,1,1), VolMIP(1,1)",
    "experiments": "  abrupt-4xCO2 (AerChemMIP:1,CFMIP:1,CMIP:1,DAMIP:1,FAFMIP:1,GeoMIP:1,RFMIP:1), amip (AerChemMIP:1,CFMIP:1,CMIP:1,DAMIP:1,GMMIP:1,HighResMIP:1,RFMIP:1), 1pctCO2 (AerChemMIP:1,CFMIP:1,CMIP:1,DAMIP:1,FAFMIP:1,RFMIP:1), historical (AerChemMIP:1,CFMIP:1,CMIP:1,DAMIP:1,GeoMIP:1,HighResMIP:1,LUMIP:1,RFMIP:1,VolMIP:1), piControl (AerChemMIP:1,CFMIP:1,CMIP:1,DAMIP:1,FAFMIP:1,GeoMIP:1,HighResMIP:1,RFMIP:1,VolMIP:1)"
  },
  "pfull": {
    "CCCma TS var name": null,
    "CCCma diag file": null,
    "CCCma check": "To be provided diagnostically as before.",
    "MIPs (requesting)": "  AerChemMIP(1,1,1,1,1), CFMIP(1,1,1,1,1), CMIP(1,1,1,1,1), DAMIP(1,1,1,1,1), FAFMIP(1,1,1), GeoMIP(1,1,1), GMMIP(1), HighResMIP(1,1,1), LUMIP(1), RFMIP(1,1,1,1,1), VIACSAB(1,1,1,1), VolMIP(1,1)",
    "experiments": "  abrupt-4xCO2 (AerChemMIP:1,CFMIP:1,CMIP:1,DAMIP:1,FAFMIP:1,GeoMIP:1,RFMIP:1), amip (AerChemMIP:1,CFMIP:1,CMIP:1,DAMIP:1,GMMIP:1,HighResMIP:1,RFMIP:1,VIACSAB:1), 1pctCO2 (AerChemMIP:1,CFMIP:1,CMIP:1,DAMIP:1,FAFMIP:1,RFMIP:1), historical (AerChemMIP:1,CFMIP:1,CMIP:1,DAMIP:1,GeoMIP:1,HighResMIP:1,LUMIP:1,RFMIP:1,VIACSAB:1,VIACSAB:1,VolMIP:1), piControl (AerChemMIP:1,CFMIP:1,CMIP:1,DAMIP:1,FAFMIP:1,GeoMIP:1,HighResMIP:1,RFMIP:1,VIACSAB:1,VolMIP:1)"
  },
  "phalf": {
    "CCCma TS var name": null,
    "CCCma diag file": null,
    "CCCma check": "To be provided diagnostically as before.",
    "MIPs (requesting)": "  AerChemMIP(1,1,1,1,1), CFMIP(1,1,1,1,1), CMIP(1,1,1,1,1), DAMIP(1,1,1,1,1), FAFMIP(1,1,1), GeoMIP(1,1,1), GMMIP(1), HighResMIP(1,1,1), LUMIP(1), RFMIP(1,1,1,1,1), VIACSAB(2,2,2,2), VolMIP(1,1)",
    "experiments": "  abrupt-4xCO2 (AerChemMIP:1,CFMIP:1,CMIP:1,DAMIP:1,FAFMIP:1,GeoMIP:1,RFMIP:1), amip (AerChemMIP:1,CFMIP:1,CMIP:1,DAMIP:1,GMMIP:1,HighResMIP:1,RFMIP:1,VIACSAB:2), 1pctCO2 (AerChemMIP:1,CFMIP:1,CMIP:1,DAMIP:1,FAFMIP:1,RFMIP:1), historical (AerChemMIP:1,CFMIP:1,CMIP:1,DAMIP:1,GeoMIP:1,HighResMIP:1,LUMIP:1,RFMIP:1,VolMIP:1,VIACSAB:2,VIACSAB:2), piControl (AerChemMIP:1,CFMIP:1,CMIP:1,DAMIP:1,FAFMIP:1,GeoMIP:1,HighResMIP:1,RFMIP:1,VolMIP:1,VIACSAB:2)"
  },
  "pr": {
    "CCCma TS var name": "PCP",
    "CCCma diag file": "gp",
    "CCCma units": "kg m-2 s-1",
    "CCCma hist file": "gs",
    "CCCma hist var names": "PCP",
    "CCCma hist var frequency": "ISRAD",
    "CCCma check": "Done.",
    "MIPs (requesting)": "  AerChemMIP(1,1,1,1,1), CDRMIP(2,2,2,2,2), CFMIP(1,1,1,1,1), CMIP(1,1,1,1,1,1), DAMIP(1,1,1,1,1), DCPP(1), FAFMIP(1,1,1), GeoMIP(1,1,1), GMMIP(1), HighResMIP(1,1,1), ISMIP6(1,1,1,1), LUMIP(1), PAMIP(1), PMIP(1,1,1,1,1), RFMIP(1,1,1,1,1), VIACSAB(1,1,1,1,1), VolMIP(1,1)",
    "experiments": "  abrupt-4xCO2 (AerChemMIP:1,CFMIP:1,CMIP:1,CMIP:1,DAMIP:1,FAFMIP:1,GeoMIP:1,PMIP:1,RFMIP:1,CDRMIP:2), amip (AerChemMIP:1,CFMIP:1,CMIP:1,DAMIP:1,GMMIP:1,HighResMIP:1,ISMIP6:1,PMIP:1,RFMIP:1,VIACSAB:1,CDRMIP:2), 1pctCO2 (AerChemMIP:1,CFMIP:1,CMIP:1,DAMIP:1,FAFMIP:1,ISMIP6:1,PMIP:1,RFMIP:1,VIACSAB:1,CDRMIP:2), historical (AerChemMIP:1,CFMIP:1,CMIP:1,DAMIP:1,DCPP:1,GeoMIP:1,HighResMIP:1,ISMIP6:1,LUMIP:1,PAMIP:1,PMIP:1,RFMIP:1,VIACSAB:1,VIACSAB:1,VolMIP:1,CDRMIP:2), piControl (AerChemMIP:1,CFMIP:1,CMIP:1,DAMIP:1,FAFMIP:1,GeoMIP:1,HighResMIP:1,ISMIP6:1,PMIP:1,RFMIP:1,VIACSAB:1,VolMIP:1,CDRMIP:2)"
  },
  "prc": {
    "CCCma TS var name": "PCPC",
    "CCCma diag file": "gp",
    "CCCma units": "kg m-2 s-1",
    "CCCma hist file": "gs",
    "CCCma hist var names": "PCPC",
    "CCCma hist var frequency": "ISRAD",
    "CCCma check": "Done.",
    "CCCma comment": "this inlcudes shallow conv. precip.",
    "MIPs (requesting)": "  AerChemMIP(1,1,1,1,1), CFMIP(1,1,1,1,1), CMIP(1,1,1,1,1), DAMIP(1,1,1,1,1), FAFMIP(1,1,1), GeoMIP(1,1,1), GMMIP(1), HighResMIP(1,1,1), ISMIP6(1,1,1,1), LUMIP(1), PMIP(1,1,1,1,1), RFMIP(1,1,1,1,1), VIACSAB(1,1,1,1,1,2), VolMIP(1,1)",
    "experiments": "  abrupt-4xCO2 (AerChemMIP:1,CFMIP:1,CMIP:1,DAMIP:1,FAFMIP:1,GeoMIP:1,PMIP:1,RFMIP:1), amip (AerChemMIP:1,CFMIP:1,CMIP:1,DAMIP:1,GMMIP:1,HighResMIP:1,ISMIP6:1,PMIP:1,RFMIP:1,VIACSAB:1), 1pctCO2 (AerChemMIP:1,CFMIP:1,CMIP:1,DAMIP:1,FAFMIP:1,ISMIP6:1,PMIP:1,RFMIP:1,VIACSAB:1), historical (AerChemMIP:1,CFMIP:1,CMIP:1,DAMIP:1,GeoMIP:1,HighResMIP:1,ISMIP6:1,LUMIP:1,PMIP:1,RFMIP:1,VIACSAB:1,VIACSAB:1,VolMIP:1,VIACSAB:2), piControl (AerChemMIP:1,CFMIP:1,CMIP:1,DAMIP:1,FAFMIP:1,GeoMIP:1,HighResMIP:1,ISMIP6:1,PMIP:1,RFMIP:1,VIACSAB:1,VolMIP:1)"
  },
  "prsn": {
    "CCCma TS var name": "PCPN",
    "CCCma diag file": "gp",
    "CCCma units": "kg m-2 s-1",
    "CCCma hist file": "gs",
    "CCCma hist var names": "PCPN",
    "CCCma hist var frequency": "ISRAD",
    "CCCma check": "Done.",
    "MIPs (requesting)": "  AerChemMIP(1,1,1,1,1), CFMIP(1,1,1,1,1), CMIP(1,1,1,1,1,1), DAMIP(1,1,1,1,1), DCPP(3), FAFMIP(1,1,1), GeoMIP(1,1,1), GMMIP(1), HighResMIP(1,1,1), ISMIP6(1,1,1,1), LUMIP(1), PAMIP(3), PMIP(1,1,1,1,1), RFMIP(1,1,1,1,1), VIACSAB(1,1,1,2,2,2,2), VolMIP(1,1)",
    "experiments": "  abrupt-4xCO2 (AerChemMIP:1,CFMIP:1,CMIP:1,CMIP:1,DAMIP:1,FAFMIP:1,GeoMIP:1,PMIP:1,RFMIP:1), amip (AerChemMIP:1,CFMIP:1,CMIP:1,DAMIP:1,GMMIP:1,HighResMIP:1,ISMIP6:1,PMIP:1,RFMIP:1,VIACSAB:1,VIACSAB:2), 1pctCO2 (AerChemMIP:1,CFMIP:1,CMIP:1,DAMIP:1,FAFMIP:1,ISMIP6:1,PMIP:1,RFMIP:1,VIACSAB:1), historical (AerChemMIP:1,CFMIP:1,CMIP:1,DAMIP:1,GeoMIP:1,HighResMIP:1,ISMIP6:1,LUMIP:1,PMIP:1,RFMIP:1,VIACSAB:1,VolMIP:1,VIACSAB:2,VIACSAB:2,DCPP:3,PAMIP:3), piControl (AerChemMIP:1,CFMIP:1,CMIP:1,DAMIP:1,FAFMIP:1,GeoMIP:1,HighResMIP:1,ISMIP6:1,PMIP:1,RFMIP:1,VolMIP:1,VIACSAB:2)"
  },
  "prw": {
    "CCCma TS var name": "PWAT",
    "CCCma diag file": "gp",
    "CCCma units": "kg m-2",
    "CCCma hist file": "gs",
    "CCCma hist var names": "PWAT",
    "CCCma hist var frequency": "ISRAD",
    "CCCma check": "Done.",
    "MIPs (requesting)": "  AerChemMIP(1,1,1,1,1), CFMIP(1,1,1,1,1), CMIP(1,1,1,1,1,1), DAMIP(1,1,1,1,1), FAFMIP(1,1,1), GeoMIP(1,1,1), GMMIP(1), HighResMIP(1,1,1), ISMIP6(1,1,1,1), LUMIP(1), PMIP(1,1,1,1,1), RFMIP(1,1,1,1,1), VIACSAB(2,2,2,2), VolMIP(1,1)",
    "experiments": "  abrupt-4xCO2 (AerChemMIP:1,CFMIP:1,CMIP:1,CMIP:1,DAMIP:1,FAFMIP:1,GeoMIP:1,PMIP:1,RFMIP:1), amip (AerChemMIP:1,CFMIP:1,CMIP:1,DAMIP:1,GMMIP:1,HighResMIP:1,ISMIP6:1,PMIP:1,RFMIP:1,VIACSAB:2), 1pctCO2 (AerChemMIP:1,CFMIP:1,CMIP:1,DAMIP:1,FAFMIP:1,ISMIP6:1,PMIP:1,RFMIP:1), historical (AerChemMIP:1,CFMIP:1,CMIP:1,DAMIP:1,GeoMIP:1,HighResMIP:1,ISMIP6:1,LUMIP:1,PMIP:1,RFMIP:1,VolMIP:1,VIACSAB:2,VIACSAB:2), piControl (AerChemMIP:1,CFMIP:1,CMIP:1,DAMIP:1,FAFMIP:1,GeoMIP:1,HighResMIP:1,ISMIP6:1,PMIP:1,RFMIP:1,VolMIP:1,VIACSAB:2)"
  },
  "ps": {
    "CCCma TS var name": "PS",
    "CCCma diag file": "gp",
    "CCCma optional deck": "mltby100",
    "CCCma units": "mb",
    "CCCma hist file": "ss",
    "CCCma hist var names": "LNSP",
    "CCCma hist var frequency": "Spectral at ISSP",
    "CCCma check": "Done.",
    "CCCma comment": "PS*100",
    "MIPs (requesting)": "  AerChemMIP(1,1,1,1,1), CFMIP(1,1,1,1,1), CMIP(1,1,1,1,1,1), DAMIP(1,1,1,1,1), DCPP(2), FAFMIP(1,1,1), GeoMIP(1,1,1), GMMIP(1), HighResMIP(1,1,1), LUMIP(1), PAMIP(2), PMIP(1,1,1,1,1), RFMIP(1,1,1,1,1), VIACSAB(1,1,1,2,2,2,2), VolMIP(1,1)",
    "experiments": "  abrupt-4xCO2 (AerChemMIP:1,CFMIP:1,CMIP:1,CMIP:1,DAMIP:1,FAFMIP:1,GeoMIP:1,PMIP:1,RFMIP:1), amip (AerChemMIP:1,CFMIP:1,CMIP:1,DAMIP:1,GMMIP:1,HighResMIP:1,PMIP:1,RFMIP:1,VIACSAB:1,VIACSAB:2), 1pctCO2 (AerChemMIP:1,CFMIP:1,CMIP:1,DAMIP:1,FAFMIP:1,PMIP:1,RFMIP:1,VIACSAB:1), historical (AerChemMIP:1,CFMIP:1,CMIP:1,DAMIP:1,GeoMIP:1,HighResMIP:1,LUMIP:1,PMIP:1,RFMIP:1,VIACSAB:1,VolMIP:1,DCPP:2,PAMIP:2,VIACSAB:2,VIACSAB:2), piControl (AerChemMIP:1,CFMIP:1,CMIP:1,DAMIP:1,FAFMIP:1,GeoMIP:1,HighResMIP:1,PMIP:1,RFMIP:1,VolMIP:1,VIACSAB:2)"
  },
  "psl": {
    "CCCma TS var name": "PMSL",
    "CCCma diag file": "gp",
    "CCCma optional deck": "mltby100",
    "CCCma units": "mb",
    "CCCma hist file": "ss",
    "CCCma hist var names": "PHIS LNSP TEMP",
    "CCCma hist var frequency": "Spectral at ISSP",
    "CCCma check": "Done.",
    "CCCma comment": "PMSL*100",
    "MIPs (requesting)": "  AerChemMIP(1,1,1,1,1), CDRMIP(3,3,3,3,3), CFMIP(1,1,1,1,1), CMIP(1,1,1,1,1,1), DAMIP(1,1,1,1,1), DCPP(1), FAFMIP(1,1,1), GeoMIP(1,1,1), GMMIP(1), HighResMIP(1,1,1), LUMIP(1), PAMIP(1), PMIP(1,1,1,1,1), RFMIP(1,1,1,1,1), VIACSAB(1,1,1,1,1), VolMIP(1,1)",
    "experiments": "  abrupt-4xCO2 (AerChemMIP:1,CFMIP:1,CMIP:1,CMIP:1,DAMIP:1,FAFMIP:1,GeoMIP:1,PMIP:1,RFMIP:1,CDRMIP:3), amip (AerChemMIP:1,CFMIP:1,CMIP:1,DAMIP:1,GMMIP:1,HighResMIP:1,PMIP:1,RFMIP:1,VIACSAB:1,CDRMIP:3), 1pctCO2 (AerChemMIP:1,CFMIP:1,CMIP:1,DAMIP:1,FAFMIP:1,PMIP:1,RFMIP:1,VIACSAB:1,CDRMIP:3), historical (AerChemMIP:1,CFMIP:1,CMIP:1,DAMIP:1,DCPP:1,GeoMIP:1,HighResMIP:1,LUMIP:1,PAMIP:1,PMIP:1,RFMIP:1,VIACSAB:1,VIACSAB:1,VolMIP:1,CDRMIP:3), piControl (AerChemMIP:1,CFMIP:1,CMIP:1,DAMIP:1,FAFMIP:1,GeoMIP:1,HighResMIP:1,PMIP:1,RFMIP:1,VIACSAB:1,VolMIP:1,CDRMIP:3)"
  },
  "rlds": {
    "CCCma TS var name": "FDL",
    "CCCma diag file": "gp",
    "CCCma units": "W m-2",
    "CCCma hist file": "gs",
    "CCCma hist var names": "FDL",
    "CCCma hist var frequency": "ISRAD",
    "CCCma check": "Done.",
    "MIPs (requesting)": "  AerChemMIP(1,1,1,1,1), CFMIP(1,1,1,1,1), CMIP(1,1,1,1,1,1), DAMIP(1,1,1,1,1), DCPP(3), FAFMIP(1,1,1), GeoMIP(1,1,1), GMMIP(1), HighResMIP(1,1,1), ISMIP6(1,1,1,1), LUMIP(1), PAMIP(3), PMIP(1,1,1,1,1), RFMIP(1,1,1,1,1), VIACSAB(1,1,1,2,2,2,2), VolMIP(1,1)",
    "experiments": "  abrupt-4xCO2 (AerChemMIP:1,CFMIP:1,CMIP:1,CMIP:1,DAMIP:1,FAFMIP:1,GeoMIP:1,PMIP:1,RFMIP:1), amip (AerChemMIP:1,CFMIP:1,CMIP:1,DAMIP:1,GMMIP:1,HighResMIP:1,ISMIP6:1,PMIP:1,RFMIP:1,VIACSAB:1,VIACSAB:2), 1pctCO2 (AerChemMIP:1,CFMIP:1,CMIP:1,DAMIP:1,FAFMIP:1,ISMIP6:1,PMIP:1,RFMIP:1,VIACSAB:1), historical (AerChemMIP:1,CFMIP:1,CMIP:1,DAMIP:1,GeoMIP:1,HighResMIP:1,ISMIP6:1,LUMIP:1,PMIP:1,RFMIP:1,VIACSAB:1,VolMIP:1,VIACSAB:2,VIACSAB:2,DCPP:3,PAMIP:3), piControl (AerChemMIP:1,CFMIP:1,CMIP:1,DAMIP:1,FAFMIP:1,GeoMIP:1,HighResMIP:1,ISMIP6:1,PMIP:1,RFMIP:1,VolMIP:1,VIACSAB:2)"
  },
  "rldscs": {
    "CCCma TS var name": "FDLC",
    "CCCma diag file": "gp",
    "CCCma units": "W m-2",
    "CCCma hist file": "gs",
    "CCCma hist var names": "FDLC",
    "CCCma hist var frequency": "ISRAD",
    "CCCma check": "Done.",
    "CCCma comment": "FDLC=FLGC+FDL-FLG in gsstats2.dk but FDLC from gs in gsstats3.dk",
    "MIPs (requesting)": "  AerChemMIP(1,1,1,1,1), CFMIP(1,1,1,1,1), CMIP(1,1,1,1,1,1), DAMIP(1,1,1,1,1), FAFMIP(1,1,1), GeoMIP(1,1,1), GMMIP(1), HighResMIP(1,1,1), ISMIP6(1,1,1,1), LUMIP(1), PMIP(1,1,1,1,1), RFMIP(1,1,1,1,1), VIACSAB(1,1,1,2,2,2,2), VolMIP(1,1)",
    "experiments": "  abrupt-4xCO2 (AerChemMIP:1,CFMIP:1,CMIP:1,CMIP:1,DAMIP:1,FAFMIP:1,GeoMIP:1,PMIP:1,RFMIP:1), amip (AerChemMIP:1,CFMIP:1,CMIP:1,DAMIP:1,GMMIP:1,HighResMIP:1,ISMIP6:1,PMIP:1,RFMIP:1,VIACSAB:1,VIACSAB:2), 1pctCO2 (AerChemMIP:1,CFMIP:1,CMIP:1,DAMIP:1,FAFMIP:1,ISMIP6:1,PMIP:1,RFMIP:1,VIACSAB:1), historical (AerChemMIP:1,CFMIP:1,CMIP:1,DAMIP:1,GeoMIP:1,HighResMIP:1,ISMIP6:1,LUMIP:1,PMIP:1,RFMIP:1,VIACSAB:1,VolMIP:1,VIACSAB:2,VIACSAB:2), piControl (AerChemMIP:1,CFMIP:1,CMIP:1,DAMIP:1,FAFMIP:1,GeoMIP:1,HighResMIP:1,ISMIP6:1,PMIP:1,RFMIP:1,VolMIP:1,VIACSAB:2)"
  },
  "rlus": {
    "CCCma TS var name": "FDL FLG",
    "CCCma diag file": "gp",
    "CCCma optional deck": "subtract",
    "CCCma units": "W m-2",
    "CCCma hist file": "gs",
    "CCCma hist var names": "FDL FLG",
    "CCCma hist var frequency": "ISRAD",
    "CCCma check": "Done.",
    "CCCma comment": "FDL-FLG",
    "MIPs (requesting)": "  AerChemMIP(1,1,1,1,1), CFMIP(1,1,1,1,1), CMIP(1,1,1,1,1), DAMIP(1,1,1,1,1), FAFMIP(1,1,1), GeoMIP(1,1,1), GMMIP(1), HighResMIP(1,1,1), ISMIP6(1,1,1,1), LUMIP(1), PMIP(1,1,1,1,1), RFMIP(1,1,1,1,1), VIACSAB(1,1,1,2,2,2,2), VolMIP(1,1)",
    "experiments": "  abrupt-4xCO2 (AerChemMIP:1,CFMIP:1,CMIP:1,DAMIP:1,FAFMIP:1,GeoMIP:1,PMIP:1,RFMIP:1), amip (AerChemMIP:1,CFMIP:1,CMIP:1,DAMIP:1,GMMIP:1,HighResMIP:1,ISMIP6:1,PMIP:1,RFMIP:1,VIACSAB:1,VIACSAB:2), 1pctCO2 (AerChemMIP:1,CFMIP:1,CMIP:1,DAMIP:1,FAFMIP:1,ISMIP6:1,PMIP:1,RFMIP:1,VIACSAB:1), historical (AerChemMIP:1,CFMIP:1,CMIP:1,DAMIP:1,GeoMIP:1,HighResMIP:1,ISMIP6:1,LUMIP:1,PMIP:1,RFMIP:1,VIACSAB:1,VolMIP:1,VIACSAB:2,VIACSAB:2), piControl (AerChemMIP:1,CFMIP:1,CMIP:1,DAMIP:1,FAFMIP:1,GeoMIP:1,HighResMIP:1,ISMIP6:1,PMIP:1,RFMIP:1,VolMIP:1,VIACSAB:2)"
  },
  "rlut": {
    "CCCma TS var name": "OLR",
    "CCCma diag file": "gp",
    "CCCma units": "W m-2",
    "CCCma hist file": "gs",
    "CCCma hist var names": "OLR",
    "CCCma hist var frequency": "ISRAD",
    "CCCma check": "Done.",
    "MIPs (requesting)": "  AerChemMIP(1,1,1,1,1), CDRMIP(3,3,3,3,3), CFMIP(1,1,1,1,1), CMIP(1,1,1,1,1,1), DAMIP(1,1,1,1,1), DCPP(1), FAFMIP(1,1,1), GeoMIP(1,1,1), GMMIP(1), HighResMIP(1,1,1), ISMIP6(1,1,1,1), LUMIP(1), PAMIP(1), PMIP(1,1,1,1,1), RFMIP(1,1,1,1,1), VIACSAB(1,1,1,1), VolMIP(1,1)",
    "experiments": "  abrupt-4xCO2 (AerChemMIP:1,CFMIP:1,CMIP:1,CMIP:1,DAMIP:1,FAFMIP:1,GeoMIP:1,PMIP:1,RFMIP:1,CDRMIP:3), amip (AerChemMIP:1,CFMIP:1,CMIP:1,DAMIP:1,GMMIP:1,HighResMIP:1,ISMIP6:1,PMIP:1,RFMIP:1,VIACSAB:1,CDRMIP:3), 1pctCO2 (AerChemMIP:1,CFMIP:1,CMIP:1,DAMIP:1,FAFMIP:1,ISMIP6:1,PMIP:1,RFMIP:1,CDRMIP:3), historical (AerChemMIP:1,CFMIP:1,CMIP:1,DAMIP:1,DCPP:1,GeoMIP:1,HighResMIP:1,ISMIP6:1,LUMIP:1,PAMIP:1,PMIP:1,RFMIP:1,VIACSAB:1,VIACSAB:1,VolMIP:1,CDRMIP:3), piControl (AerChemMIP:1,CFMIP:1,CMIP:1,DAMIP:1,FAFMIP:1,GeoMIP:1,HighResMIP:1,ISMIP6:1,PMIP:1,RFMIP:1,VIACSAB:1,VolMIP:1,CDRMIP:3)"
  },
  "rlutcs": {
    "CCCma TS var name": "OLRC",
    "CCCma diag file": "gp",
    "CCCma units": "W m-2",
    "CCCma hist file": "gs",
    "CCCma hist var names": "OLRC",
    "CCCma hist var frequency": "ISRAD",
    "CCCma check": "Done.",
    "MIPs (requesting)": "  AerChemMIP(1,1,1,1,1), CDRMIP(3,3,3,3,3), CFMIP(1,1,1,1,1), CMIP(1,1,1,1,1,1), DAMIP(1,1,1,1,1), DCPP(2), FAFMIP(1,1,1), GeoMIP(1,1,1), GMMIP(1), HighResMIP(1,1,1), ISMIP6(1,1,1,1), LUMIP(1), PAMIP(2), PMIP(1,1,1,1,1), RFMIP(1,1,1,1,1), VIACSAB(2,2,2,2), VolMIP(1,1)",
    "experiments": "  abrupt-4xCO2 (AerChemMIP:1,CFMIP:1,CMIP:1,CMIP:1,DAMIP:1,FAFMIP:1,GeoMIP:1,PMIP:1,RFMIP:1,CDRMIP:3), amip (AerChemMIP:1,CFMIP:1,CMIP:1,DAMIP:1,GMMIP:1,HighResMIP:1,ISMIP6:1,PMIP:1,RFMIP:1,VIACSAB:2,CDRMIP:3), 1pctCO2 (AerChemMIP:1,CFMIP:1,CMIP:1,DAMIP:1,FAFMIP:1,ISMIP6:1,PMIP:1,RFMIP:1,CDRMIP:3), historical (AerChemMIP:1,CFMIP:1,CMIP:1,DAMIP:1,GeoMIP:1,HighResMIP:1,ISMIP6:1,LUMIP:1,PMIP:1,RFMIP:1,VolMIP:1,DCPP:2,PAMIP:2,VIACSAB:2,VIACSAB:2,CDRMIP:3), piControl (AerChemMIP:1,CFMIP:1,CMIP:1,DAMIP:1,FAFMIP:1,GeoMIP:1,HighResMIP:1,ISMIP6:1,PMIP:1,RFMIP:1,VolMIP:1,VIACSAB:2,CDRMIP:3)"
  },
  "rsds": {
    "CCCma TS var name": "FSS",
    "CCCma diag file": "gp",
    "CCCma units": "W m-2",
    "CCCma hist file": "gs",
    "CCCma hist var names": "FSS",
    "CCCma hist var frequency": "ISRAD",
    "CCCma check": "Done.",
    "MIPs (requesting)": "  AerChemMIP(1,1,1,1,1), CFMIP(1,1,1,1,1), CMIP(1,1,1,1,1,1), DAMIP(1,1,1,1,1), DCPP(1), FAFMIP(1,1,1), GeoMIP(1,1,1), GMMIP(1), HighResMIP(1,1,1), ISMIP6(1,1,1,1), LUMIP(1), PAMIP(1), PMIP(1,1,1,1,1), RFMIP(1,1,1,1,1), VIACSAB(1,1,1,2,2,2,2), VolMIP(1,1)",
    "experiments": "  abrupt-4xCO2 (AerChemMIP:1,CFMIP:1,CMIP:1,CMIP:1,DAMIP:1,FAFMIP:1,GeoMIP:1,PMIP:1,RFMIP:1), amip (AerChemMIP:1,CFMIP:1,CMIP:1,DAMIP:1,GMMIP:1,HighResMIP:1,ISMIP6:1,PMIP:1,RFMIP:1,VIACSAB:1,VIACSAB:2), 1pctCO2 (AerChemMIP:1,CFMIP:1,CMIP:1,DAMIP:1,FAFMIP:1,ISMIP6:1,PMIP:1,RFMIP:1,VIACSAB:1), historical (AerChemMIP:1,CFMIP:1,CMIP:1,DAMIP:1,DCPP:1,GeoMIP:1,HighResMIP:1,ISMIP6:1,LUMIP:1,PAMIP:1,PMIP:1,RFMIP:1,VIACSAB:1,VolMIP:1,VIACSAB:2,VIACSAB:2), piControl (AerChemMIP:1,CFMIP:1,CMIP:1,DAMIP:1,FAFMIP:1,GeoMIP:1,HighResMIP:1,ISMIP6:1,PMIP:1,RFMIP:1,VolMIP:1,VIACSAB:2)"
  },
  "rsdscs": {
    "CCCma TS var name": "FSSC",
    "CCCma diag file": "gp",
    "CCCma units": "W m-2",
    "CCCma hist file": "gs",
    "CCCma hist var names": "FSSC",
    "CCCma hist var frequency": "ISRAD",
    "CCCma check": "Done.",
    "MIPs (requesting)": "  AerChemMIP(1,1,1,1,1), CFMIP(1,1,1,1,1), CMIP(1,1,1,1,1,1), DAMIP(1,1,1,1,1), FAFMIP(1,1,1), GeoMIP(1,1,1), GMMIP(1), HighResMIP(1,1,1), ISMIP6(1,1,1,1), LUMIP(1), PMIP(1,1,1,1,1), RFMIP(1,1,1,1,1), VIACSAB(1,1,1,2,2,2,2), VolMIP(1,1)",
    "experiments": "  abrupt-4xCO2 (AerChemMIP:1,CFMIP:1,CMIP:1,CMIP:1,DAMIP:1,FAFMIP:1,GeoMIP:1,PMIP:1,RFMIP:1), amip (AerChemMIP:1,CFMIP:1,CMIP:1,DAMIP:1,GMMIP:1,HighResMIP:1,ISMIP6:1,PMIP:1,RFMIP:1,VIACSAB:1,VIACSAB:2), 1pctCO2 (AerChemMIP:1,CFMIP:1,CMIP:1,DAMIP:1,FAFMIP:1,ISMIP6:1,PMIP:1,RFMIP:1,VIACSAB:1), historical (AerChemMIP:1,CFMIP:1,CMIP:1,DAMIP:1,GeoMIP:1,HighResMIP:1,ISMIP6:1,LUMIP:1,PMIP:1,RFMIP:1,VIACSAB:1,VolMIP:1,VIACSAB:2,VIACSAB:2), piControl (AerChemMIP:1,CFMIP:1,CMIP:1,DAMIP:1,FAFMIP:1,GeoMIP:1,HighResMIP:1,ISMIP6:1,PMIP:1,RFMIP:1,VolMIP:1,VIACSAB:2)"
  },
  "rsdt": {
    "CCCma TS var name": "FSO",
    "CCCma diag file": "gp",
    "CCCma units": "W m-2",
    "CCCma hist file": "gs",
    "CCCma hist var names": "FSO",
    "CCCma hist var frequency": "ISRAD",
    "CCCma check": "Done.",
    "MIPs (requesting)": "  AerChemMIP(1,1,1,1,1), CDRMIP(3,3,3,3,3), CFMIP(1,1,1,1,1), CMIP(1,1,1,1,1), DAMIP(1,1,1,1,1), DCPP(1), FAFMIP(1,1,1), GeoMIP(1,1,1), GMMIP(1), HighResMIP(1,1,1), ISMIP6(1,1,1,1), LUMIP(1), PAMIP(1), PMIP(1,1,1,1,1), RFMIP(1,1,1,1,1), VIACSAB(1,1,1,1), VolMIP(1,1)",
    "experiments": "  abrupt-4xCO2 (AerChemMIP:1,CFMIP:1,CMIP:1,DAMIP:1,FAFMIP:1,GeoMIP:1,PMIP:1,RFMIP:1,CDRMIP:3), amip (AerChemMIP:1,CFMIP:1,CMIP:1,DAMIP:1,GMMIP:1,HighResMIP:1,ISMIP6:1,PMIP:1,RFMIP:1,VIACSAB:1,CDRMIP:3), 1pctCO2 (AerChemMIP:1,CFMIP:1,CMIP:1,DAMIP:1,FAFMIP:1,ISMIP6:1,PMIP:1,RFMIP:1,CDRMIP:3), historical (AerChemMIP:1,CFMIP:1,CMIP:1,DAMIP:1,DCPP:1,GeoMIP:1,HighResMIP:1,ISMIP6:1,LUMIP:1,PAMIP:1,PMIP:1,RFMIP:1,VIACSAB:1,VIACSAB:1,VolMIP:1,CDRMIP:3), piControl (AerChemMIP:1,CFMIP:1,CMIP:1,DAMIP:1,FAFMIP:1,GeoMIP:1,HighResMIP:1,ISMIP6:1,PMIP:1,RFMIP:1,VIACSAB:1,VolMIP:1,CDRMIP:3)"
  },
  "rsus": {
    "CCCma TS var name": "FSS FSG",
    "CCCma diag file": "gp",
    "CCCma optional deck": "subtract",
    "CCCma units": "W m-2",
    "CCCma hist file": "gs",
    "CCCma hist var names": "FSS FSG",
    "CCCma hist var frequency": "ISRAD",
    "CCCma check": "Done.",
    "CCCma comment": "FSS-FSG",
    "MIPs (requesting)": "  AerChemMIP(1,1,1,1,1), CFMIP(1,1,1,1,1), CMIP(1,1,1,1,1), DAMIP(1,1,1,1,1), FAFMIP(1,1,1), GeoMIP(1,1,1), GMMIP(1), HighResMIP(1,1,1), ISMIP6(1,1,1,1), LUMIP(1), PMIP(1,1,1,1,1), RFMIP(1,1,1,1,1), VIACSAB(1,1,1,2,2,2,2), VolMIP(1,1)",
    "experiments": "  abrupt-4xCO2 (AerChemMIP:1,CFMIP:1,CMIP:1,DAMIP:1,FAFMIP:1,GeoMIP:1,PMIP:1,RFMIP:1), amip (AerChemMIP:1,CFMIP:1,CMIP:1,DAMIP:1,GMMIP:1,HighResMIP:1,ISMIP6:1,PMIP:1,RFMIP:1,VIACSAB:1,VIACSAB:2), 1pctCO2 (AerChemMIP:1,CFMIP:1,CMIP:1,DAMIP:1,FAFMIP:1,ISMIP6:1,PMIP:1,RFMIP:1,VIACSAB:1), historical (AerChemMIP:1,CFMIP:1,CMIP:1,DAMIP:1,GeoMIP:1,HighResMIP:1,ISMIP6:1,LUMIP:1,PMIP:1,RFMIP:1,VIACSAB:1,VolMIP:1,VIACSAB:2,VIACSAB:2), piControl (AerChemMIP:1,CFMIP:1,CMIP:1,DAMIP:1,FAFMIP:1,GeoMIP:1,HighResMIP:1,ISMIP6:1,PMIP:1,RFMIP:1,VolMIP:1,VIACSAB:2)"
  },
  "rsuscs": {
    "CCCma TS var name": "FSSC FSGC",
    "CCCma diag file": "gp",
    "CCCma optional deck": "subtract",
    "CCCma units": "W m-2",
    "CCCma hist file": "gs",
    "CCCma hist var names": "FSSC FSGC",
    "CCCma hist var frequency": "ISRAD",
    "CCCma check": "Done.",
    "CCCma comment": "FSSC-FSGC",
    "MIPs (requesting)": "  AerChemMIP(1,1,1,1,1), CFMIP(1,1,1,1,1), CMIP(1,1,1,1,1), DAMIP(1,1,1,1,1), FAFMIP(1,1,1), GeoMIP(1,1,1), GMMIP(1), HighResMIP(1,1,1), ISMIP6(1,1,1,1), LUMIP(1), PMIP(1,1,1,1,1), RFMIP(1,1,1,1,1), VIACSAB(1,1,1,2,2,2,2), VolMIP(1,1)",
    "experiments": "  abrupt-4xCO2 (AerChemMIP:1,CFMIP:1,CMIP:1,DAMIP:1,FAFMIP:1,GeoMIP:1,PMIP:1,RFMIP:1), amip (AerChemMIP:1,CFMIP:1,CMIP:1,DAMIP:1,GMMIP:1,HighResMIP:1,ISMIP6:1,PMIP:1,RFMIP:1,VIACSAB:1,VIACSAB:2), 1pctCO2 (AerChemMIP:1,CFMIP:1,CMIP:1,DAMIP:1,FAFMIP:1,ISMIP6:1,PMIP:1,RFMIP:1,VIACSAB:1), historical (AerChemMIP:1,CFMIP:1,CMIP:1,DAMIP:1,GeoMIP:1,HighResMIP:1,ISMIP6:1,LUMIP:1,PMIP:1,RFMIP:1,VIACSAB:1,VolMIP:1,VIACSAB:2,VIACSAB:2), piControl (AerChemMIP:1,CFMIP:1,CMIP:1,DAMIP:1,FAFMIP:1,GeoMIP:1,HighResMIP:1,ISMIP6:1,PMIP:1,RFMIP:1,VolMIP:1,VIACSAB:2)"
  },
  "rsut": {
    "CCCma TS var name": "FSR",
    "CCCma diag file": "gp",
    "CCCma units": "W m-2",
    "CCCma hist file": "gs",
    "CCCma hist var names": "FSR",
    "CCCma hist var frequency": "ISRAD",
    "CCCma check": "Done.",
    "MIPs (requesting)": "  AerChemMIP(1,1,1,1,1), CDRMIP(3,3,3,3,3), CFMIP(1,1,1,1,1), CMIP(1,1,1,1,1,1), DAMIP(1,1,1,1,1), DCPP(1), FAFMIP(1,1,1), GeoMIP(1,1,1), GMMIP(1), HighResMIP(1,1,1), ISMIP6(1,1,1,1), LUMIP(1), PAMIP(1), PMIP(1,1,1,1,1), RFMIP(1,1,1,1,1), VIACSAB(1,1,1,1), VolMIP(1,1)",
    "experiments": "  abrupt-4xCO2 (AerChemMIP:1,CFMIP:1,CMIP:1,CMIP:1,DAMIP:1,FAFMIP:1,GeoMIP:1,PMIP:1,RFMIP:1,CDRMIP:3), amip (AerChemMIP:1,CFMIP:1,CMIP:1,DAMIP:1,GMMIP:1,HighResMIP:1,ISMIP6:1,PMIP:1,RFMIP:1,VIACSAB:1,CDRMIP:3), 1pctCO2 (AerChemMIP:1,CFMIP:1,CMIP:1,DAMIP:1,FAFMIP:1,ISMIP6:1,PMIP:1,RFMIP:1,CDRMIP:3), historical (AerChemMIP:1,CFMIP:1,CMIP:1,DAMIP:1,DCPP:1,GeoMIP:1,HighResMIP:1,ISMIP6:1,LUMIP:1,PAMIP:1,PMIP:1,RFMIP:1,VIACSAB:1,VIACSAB:1,VolMIP:1,CDRMIP:3), piControl (AerChemMIP:1,CFMIP:1,CMIP:1,DAMIP:1,FAFMIP:1,GeoMIP:1,HighResMIP:1,ISMIP6:1,PMIP:1,RFMIP:1,VIACSAB:1,VolMIP:1,CDRMIP:3)"
  },
  "rsutcs": {
    "CCCma TS var name": "FSRC",
    "CCCma diag file": "gp",
    "CCCma units": "W m-2",
    "CCCma hist file": "gs",
    "CCCma hist var names": "FSRC",
    "CCCma hist var frequency": "ISRAD",
    "CCCma check": "Done.",
    "MIPs (requesting)": "  AerChemMIP(1,1,1,1,1), CDRMIP(3,3,3,3,3), CFMIP(1,1,1,1,1), CMIP(1,1,1,1,1,1), DAMIP(1,1,1,1,1), DCPP(2), FAFMIP(1,1,1), GeoMIP(1,1,1), GMMIP(1), HighResMIP(1,1,1), ISMIP6(1,1,1,1), LUMIP(1), PAMIP(2), PMIP(1,1,1,1,1), RFMIP(1,1,1,1,1), VIACSAB(2,2,2,2), VolMIP(1,1)",
    "experiments": "  abrupt-4xCO2 (AerChemMIP:1,CFMIP:1,CMIP:1,CMIP:1,DAMIP:1,FAFMIP:1,GeoMIP:1,PMIP:1,RFMIP:1,CDRMIP:3), amip (AerChemMIP:1,CFMIP:1,CMIP:1,DAMIP:1,GMMIP:1,HighResMIP:1,ISMIP6:1,PMIP:1,RFMIP:1,VIACSAB:2,CDRMIP:3), 1pctCO2 (AerChemMIP:1,CFMIP:1,CMIP:1,DAMIP:1,FAFMIP:1,ISMIP6:1,PMIP:1,RFMIP:1,CDRMIP:3), historical (AerChemMIP:1,CFMIP:1,CMIP:1,DAMIP:1,GeoMIP:1,HighResMIP:1,ISMIP6:1,LUMIP:1,PMIP:1,RFMIP:1,VolMIP:1,DCPP:2,PAMIP:2,VIACSAB:2,VIACSAB:2,CDRMIP:3), piControl (AerChemMIP:1,CFMIP:1,CMIP:1,DAMIP:1,FAFMIP:1,GeoMIP:1,HighResMIP:1,ISMIP6:1,PMIP:1,RFMIP:1,VolMIP:1,VIACSAB:2,CDRMIP:3)"
  },
  "rtmt": {
    "CCCma TS var name": "BALT",
    "CCCma diag file": "gp",
    "CCCma units": "W m-2",
    "CCCma hist file": "gs",
    "CCCma hist var names": "FSO FSLO FSR OLR",
    "CCCma hist var frequency": "ISRAD",
    "CCCma check": "Done.",
    "MIPs (requesting)": "  AerChemMIP(1,1,1,1,1), CDRMIP(1,1,1,1,1), CFMIP(1,1,1,1,1), CMIP(1,1,1,1,1,1), DAMIP(1,1,1,1,1), FAFMIP(1,1,1), GeoMIP(1,1,1), GMMIP(1), HighResMIP(1,1,1), ISMIP6(1,1,1,1), LUMIP(1), PMIP(1,1,1,1,1), RFMIP(1,1,1,1,1), VolMIP(1,1)",
    "experiments": "  abrupt-4xCO2 (AerChemMIP:1,CDRMIP:1,CFMIP:1,CMIP:1,CMIP:1,DAMIP:1,FAFMIP:1,GeoMIP:1,PMIP:1,RFMIP:1), amip (AerChemMIP:1,CDRMIP:1,CFMIP:1,CMIP:1,DAMIP:1,GMMIP:1,HighResMIP:1,ISMIP6:1,PMIP:1,RFMIP:1), 1pctCO2 (AerChemMIP:1,CDRMIP:1,CFMIP:1,CMIP:1,DAMIP:1,FAFMIP:1,ISMIP6:1,PMIP:1,RFMIP:1), historical (AerChemMIP:1,CDRMIP:1,CFMIP:1,CMIP:1,DAMIP:1,GeoMIP:1,HighResMIP:1,ISMIP6:1,LUMIP:1,PMIP:1,RFMIP:1,VolMIP:1), piControl (AerChemMIP:1,CDRMIP:1,CFMIP:1,CMIP:1,DAMIP:1,FAFMIP:1,GeoMIP:1,HighResMIP:1,ISMIP6:1,PMIP:1,RFMIP:1,VolMIP:1)"
  },
  "sbl": {
    "CCCma TS var name": "QFN QFVF",
    "CCCma diag file": "gp",
    "CCCma optional deck": "addtwo",
    "CCCma units": "kg m-2 s-1",
    "CCCma hist file": "gs",
    "CCCma hist var names": "QFN QFVF",
    "CCCma hist var frequency": "ISRAD",
    "CCCma check": "DREQ vs Twiki (land ice?)? Over all grid or only over land? We do land only!",
    "CCCma comment": "is it both from surface and vegetation?",
    "MIPs (requesting)": "  AerChemMIP(1,1,1,1,1), CFMIP(1,1,1,1,1), CMIP(1,1,1,1,1), DAMIP(1,1,1,1,1), FAFMIP(1,1,1), GeoMIP(1,1,1), GMMIP(1), HighResMIP(1,1,1), ISMIP6(1,1,1,1), LUMIP(1), PMIP(1,1,1,1,1), RFMIP(1,1,1,1,1), VolMIP(1,1)",
    "experiments": "  abrupt-4xCO2 (AerChemMIP:1,CFMIP:1,CMIP:1,DAMIP:1,FAFMIP:1,GeoMIP:1,PMIP:1,RFMIP:1), amip (AerChemMIP:1,CFMIP:1,CMIP:1,DAMIP:1,GMMIP:1,HighResMIP:1,ISMIP6:1,PMIP:1,RFMIP:1), 1pctCO2 (AerChemMIP:1,CFMIP:1,CMIP:1,DAMIP:1,FAFMIP:1,ISMIP6:1,PMIP:1,RFMIP:1), historical (AerChemMIP:1,CFMIP:1,CMIP:1,DAMIP:1,GeoMIP:1,HighResMIP:1,ISMIP6:1,LUMIP:1,PMIP:1,RFMIP:1,VolMIP:1), piControl (AerChemMIP:1,CFMIP:1,CMIP:1,DAMIP:1,FAFMIP:1,GeoMIP:1,HighResMIP:1,ISMIP6:1,PMIP:1,RFMIP:1,VolMIP:1)"
  },
  "sci": {
    "CCCma TS var name": "TCSCB",
    "CCCma diag file": "gp",
    "CCCma units": "-",
    "CCCma hist file": "gs",
    "CCCma hist var names": "CSCB",
    "CCCma hist var frequency": "ISRAD",
    "CCCma check": "Done.",
    "CCCma comment": "%df xtraconv",
    "MIPs (requesting)": "  AerChemMIP(1,1,1,1,1), CFMIP(1,1,1,1,1), CMIP(1,1,1,1,1), DAMIP(1,1,1,1,1), FAFMIP(1,1,1), GeoMIP(1,1,1), GMMIP(1), HighResMIP(1,1,1), ISMIP6(1,1,1,1), LUMIP(1), RFMIP(1,1,1,1,1), VIACSAB(2,2,2,2), VolMIP(1,1)",
    "experiments": "  abrupt-4xCO2 (AerChemMIP:1,CFMIP:1,CMIP:1,DAMIP:1,FAFMIP:1,GeoMIP:1,RFMIP:1), amip (AerChemMIP:1,CFMIP:1,CMIP:1,DAMIP:1,GMMIP:1,HighResMIP:1,ISMIP6:1,RFMIP:1,VIACSAB:2), 1pctCO2 (AerChemMIP:1,CFMIP:1,CMIP:1,DAMIP:1,FAFMIP:1,ISMIP6:1,RFMIP:1), historical (AerChemMIP:1,CFMIP:1,CMIP:1,DAMIP:1,GeoMIP:1,HighResMIP:1,ISMIP6:1,LUMIP:1,RFMIP:1,VolMIP:1,VIACSAB:2,VIACSAB:2), piControl (AerChemMIP:1,CFMIP:1,CMIP:1,DAMIP:1,FAFMIP:1,GeoMIP:1,HighResMIP:1,ISMIP6:1,RFMIP:1,VolMIP:1,VIACSAB:2)"
  },
  "sfcWind": {
    "CCCma TS var name": "SWA",
    "CCCma diag file": "gp",
    "CCCma units": "m s-1",
    "CCCma hist file": "gs",
    "CCCma hist var names": "SWA",
    "CCCma hist var frequency": "ISRAD",
    "CCCma check": "Done.",
    "MIPs (requesting)": "  AerChemMIP(1,1,1,1,1), CFMIP(1,1,1,1,1), CMIP(1,1,1,1,1), DAMIP(1,1,1,1,1), DCPP(1), FAFMIP(1,1,1), GeoMIP(1,1,1), GMMIP(1), HighResMIP(1,1,1), ISMIP6(1,1,1,1), LUMIP(1), PAMIP(1), PMIP(1,1,1,1,1), RFMIP(1,1,1,1,1), VIACSAB(1,1,1,1,1,2,2,2), VolMIP(1,1)",
    "experiments": "  abrupt-4xCO2 (AerChemMIP:1,CFMIP:1,CMIP:1,DAMIP:1,FAFMIP:1,GeoMIP:1,PMIP:1,RFMIP:1), amip (AerChemMIP:1,CFMIP:1,CMIP:1,DAMIP:1,GMMIP:1,HighResMIP:1,ISMIP6:1,PMIP:1,RFMIP:1,VIACSAB:1,VIACSAB:2), 1pctCO2 (AerChemMIP:1,CFMIP:1,CMIP:1,DAMIP:1,FAFMIP:1,ISMIP6:1,PMIP:1,RFMIP:1,VIACSAB:1,VIACSAB:2), historical (AerChemMIP:1,CFMIP:1,CMIP:1,DAMIP:1,DCPP:1,GeoMIP:1,HighResMIP:1,ISMIP6:1,LUMIP:1,PAMIP:1,PMIP:1,RFMIP:1,VIACSAB:1,VIACSAB:1,VolMIP:1,VIACSAB:2), piControl (AerChemMIP:1,CFMIP:1,CMIP:1,DAMIP:1,FAFMIP:1,GeoMIP:1,HighResMIP:1,ISMIP6:1,PMIP:1,RFMIP:1,VIACSAB:1,VolMIP:1)"
  },
  "ta": {
    "CCCma TS var name": "T",
    "CCCma diag file": "gp",
    "CCCma units": "K",
    "CCCma hist file": "ss",
    "CCCma hist var names": "TEMP",
    "CCCma hist var frequency": "Spectral at ISSP",
    "CCCma check": "Done.",
    "MIPs (requesting)": "  AerChemMIP(1,1,1,1,1), CFMIP(1,1,1,1,1), CMIP(1,1,1,1,1,1), DAMIP(1,1,1,1,1), DCPP(1), FAFMIP(1,1,1), GeoMIP(1,1,1), GMMIP(1), HighResMIP(1,1,1), LUMIP(1), PAMIP(1), PMIP(1,1,1,1,1), RFMIP(1,1,1,1,1), VIACSAB(1,1,1,1,1,2), VolMIP(1,1)",
    "experiments": "  abrupt-4xCO2 (AerChemMIP:1,CFMIP:1,CMIP:1,CMIP:1,DAMIP:1,FAFMIP:1,GeoMIP:1,PMIP:1,RFMIP:1), amip (AerChemMIP:1,CFMIP:1,CMIP:1,DAMIP:1,GMMIP:1,HighResMIP:1,PMIP:1,RFMIP:1,VIACSAB:1), 1pctCO2 (AerChemMIP:1,CFMIP:1,CMIP:1,DAMIP:1,FAFMIP:1,PMIP:1,RFMIP:1,VIACSAB:1), historical (AerChemMIP:1,CFMIP:1,CMIP:1,DAMIP:1,DCPP:1,GeoMIP:1,HighResMIP:1,LUMIP:1,PAMIP:1,PMIP:1,RFMIP:1,VIACSAB:1,VIACSAB:1,VolMIP:1,VIACSAB:2), piControl (AerChemMIP:1,CFMIP:1,CMIP:1,DAMIP:1,FAFMIP:1,GeoMIP:1,HighResMIP:1,PMIP:1,RFMIP:1,VIACSAB:1,VolMIP:1)"
  },
  "tas": {
    "CCCma TS var name": "ST",
    "CCCma diag file": "gp",
    "CCCma optional deck": "degctok",
    "CCCma hist file": "gs",
    "CCCma hist var names": "ST",
    "CCCma hist var frequency": "ISRAD",
    "CCCma check": "Model in deg C vs diag in deg K",
    "CCCma comment": "ST+273.16",
    "MIPs (requesting)": "  AerChemMIP(1,1,1,1,1), CDRMIP(1,1,1,1,1), CFMIP(1,1,1,1,1), CMIP(1,1,1,1,1,1), DAMIP(1,1,1,1,1), DCPP(1), FAFMIP(1,1,1), GeoMIP(1,1,1), GMMIP(1), HighResMIP(1,1,1), ISMIP6(1,1,1,1), LUMIP(1), PAMIP(1), PMIP(1,1,1,1,1), RFMIP(1,1,1,1,1), VIACSAB(1,1,1,1,1), VolMIP(1,1)",
    "experiments": "  abrupt-4xCO2 (AerChemMIP:1,CDRMIP:1,CFMIP:1,CMIP:1,CMIP:1,DAMIP:1,FAFMIP:1,GeoMIP:1,PMIP:1,RFMIP:1), amip (AerChemMIP:1,CDRMIP:1,CFMIP:1,CMIP:1,DAMIP:1,GMMIP:1,HighResMIP:1,ISMIP6:1,PMIP:1,RFMIP:1,VIACSAB:1), 1pctCO2 (AerChemMIP:1,CDRMIP:1,CFMIP:1,CMIP:1,DAMIP:1,FAFMIP:1,ISMIP6:1,PMIP:1,RFMIP:1,VIACSAB:1), historical (AerChemMIP:1,CDRMIP:1,CFMIP:1,CMIP:1,DAMIP:1,DCPP:1,GeoMIP:1,HighResMIP:1,ISMIP6:1,LUMIP:1,PAMIP:1,PMIP:1,RFMIP:1,VIACSAB:1,VIACSAB:1,VolMIP:1), piControl (AerChemMIP:1,CDRMIP:1,CFMIP:1,CMIP:1,DAMIP:1,FAFMIP:1,GeoMIP:1,HighResMIP:1,ISMIP6:1,PMIP:1,RFMIP:1,VIACSAB:1,VolMIP:1)"
  },
  "tasmax": {
    "CCCma TS var name": "STMX",
    "CCCma diag file": "gp",
    "CCCma optional deck": "degctok",
    "CCCma hist file": "gs",
    "CCCma hist var names": "STMX",
    "CCCma hist var frequency": "ISDAY",
    "CCCma check": "Model in deg C vs diag in deg K",
    "CCCma comment": "STMX+273.16",
    "MIPs (requesting)": "  AerChemMIP(1,1,1,1,1), CFMIP(1,1,1,1,1), CMIP(1,1,1,1,1,1), DAMIP(1,1,1,1,1), DCPP(1), FAFMIP(1,1,1), GeoMIP(1,1,1), GMMIP(1), HighResMIP(1,1,1), ISMIP6(1,1,1,1), LUMIP(1), PAMIP(1), PMIP(1,1,1,1,1), RFMIP(1,1,1,1,1), VIACSAB(1,1,1,1,1), VolMIP(1,1)",
    "experiments": "  abrupt-4xCO2 (AerChemMIP:1,CFMIP:1,CMIP:1,CMIP:1,DAMIP:1,FAFMIP:1,GeoMIP:1,PMIP:1,RFMIP:1), amip (AerChemMIP:1,CFMIP:1,CMIP:1,DAMIP:1,GMMIP:1,HighResMIP:1,ISMIP6:1,PMIP:1,RFMIP:1,VIACSAB:1), 1pctCO2 (AerChemMIP:1,CFMIP:1,CMIP:1,DAMIP:1,FAFMIP:1,ISMIP6:1,PMIP:1,RFMIP:1,VIACSAB:1), historical (AerChemMIP:1,CFMIP:1,CMIP:1,DAMIP:1,DCPP:1,GeoMIP:1,HighResMIP:1,ISMIP6:1,LUMIP:1,PAMIP:1,PMIP:1,RFMIP:1,VIACSAB:1,VIACSAB:1,VolMIP:1), piControl (AerChemMIP:1,CFMIP:1,CMIP:1,DAMIP:1,FAFMIP:1,GeoMIP:1,HighResMIP:1,ISMIP6:1,PMIP:1,RFMIP:1,VIACSAB:1,VolMIP:1)"
  },
  "tasmin": {
    "CCCma TS var name": "STMN",
    "CCCma diag file": "gp",
    "CCCma optional deck": "degctok",
    "CCCma hist file": "gs",
    "CCCma hist var names": "STMN",
    "CCCma hist var frequency": "ISDAY",
    "CCCma check": "Model in deg C vs diag in deg K",
    "CCCma comment": "STMN+273.16",
    "MIPs (requesting)": "  AerChemMIP(1,1,1,1,1), CFMIP(1,1,1,1,1), CMIP(1,1,1,1,1,1), DAMIP(1,1,1,1,1), DCPP(1), FAFMIP(1,1,1), GeoMIP(1,1,1), GMMIP(1), HighResMIP(1,1,1), ISMIP6(1,1,1,1), LUMIP(1), PAMIP(1), PMIP(1,1,1,1,1), RFMIP(1,1,1,1,1), VIACSAB(1,1,1,1,1), VolMIP(1,1)",
    "experiments": "  abrupt-4xCO2 (AerChemMIP:1,CFMIP:1,CMIP:1,CMIP:1,DAMIP:1,FAFMIP:1,GeoMIP:1,PMIP:1,RFMIP:1), amip (AerChemMIP:1,CFMIP:1,CMIP:1,DAMIP:1,GMMIP:1,HighResMIP:1,ISMIP6:1,PMIP:1,RFMIP:1,VIACSAB:1), 1pctCO2 (AerChemMIP:1,CFMIP:1,CMIP:1,DAMIP:1,FAFMIP:1,ISMIP6:1,PMIP:1,RFMIP:1,VIACSAB:1), historical (AerChemMIP:1,CFMIP:1,CMIP:1,DAMIP:1,DCPP:1,GeoMIP:1,HighResMIP:1,ISMIP6:1,LUMIP:1,PAMIP:1,PMIP:1,RFMIP:1,VIACSAB:1,VIACSAB:1,VolMIP:1), piControl (AerChemMIP:1,CFMIP:1,CMIP:1,DAMIP:1,FAFMIP:1,GeoMIP:1,HighResMIP:1,ISMIP6:1,PMIP:1,RFMIP:1,VIACSAB:1,VolMIP:1)"
  },
  "tauu": {
    "CCCma TS var name": "UFS",
    "CCCma diag file": "gp",
    "CCCma optional deck": "minus",
    "CCCma hist file": "gs",
    "CCCma hist var names": "UFS",
    "CCCma hist var frequency": "ISRAD",
    "CCCma check": "Needs to be post-processed by multiplying by -1 to reflect a downward stress which is being requested.",
    "MIPs (requesting)": "  AerChemMIP(1,1,1,1,1), CFMIP(1,1,1,1,1), CMIP(1,1,1,1,1,1), DAMIP(1,1,1,1,1), DCPP(2), FAFMIP(1,1,1), GeoMIP(1,1,1), GMMIP(1), HighResMIP(1,1,1), LUMIP(1), PAMIP(2), PMIP(1,1,1,1,1), RFMIP(1,1,1,1,1), VIACSAB(1,1,2,2,2,2), VolMIP(1,1)",
    "experiments": "  abrupt-4xCO2 (AerChemMIP:1,CFMIP:1,CMIP:1,CMIP:1,DAMIP:1,FAFMIP:1,GeoMIP:1,PMIP:1,RFMIP:1), amip (AerChemMIP:1,CFMIP:1,CMIP:1,DAMIP:1,GMMIP:1,HighResMIP:1,PMIP:1,RFMIP:1,VIACSAB:1,VIACSAB:2), 1pctCO2 (AerChemMIP:1,CFMIP:1,CMIP:1,DAMIP:1,FAFMIP:1,PMIP:1,RFMIP:1), historical (AerChemMIP:1,CFMIP:1,CMIP:1,DAMIP:1,GeoMIP:1,HighResMIP:1,LUMIP:1,PMIP:1,RFMIP:1,VIACSAB:1,VolMIP:1,DCPP:2,PAMIP:2,VIACSAB:2,VIACSAB:2), piControl (AerChemMIP:1,CFMIP:1,CMIP:1,DAMIP:1,FAFMIP:1,GeoMIP:1,HighResMIP:1,PMIP:1,RFMIP:1,VolMIP:1,VIACSAB:2)"
  },
  "tauv": {
    "CCCma TS var name": "VFS",
    "CCCma diag file": "gp",
    "CCCma optional deck": "minus",
    "CCCma hist file": "gs",
    "CCCma hist var names": "VFS",
    "CCCma hist var frequency": "ISRAD",
    "CCCma check": "Needs to be post-processed by multiplying by -1 to reflect a downward stress which is being requested.",
    "MIPs (requesting)": "  AerChemMIP(1,1,1,1,1), CFMIP(1,1,1,1,1), CMIP(1,1,1,1,1,1), DAMIP(1,1,1,1,1), DCPP(2), FAFMIP(1,1,1), GeoMIP(1,1,1), GMMIP(1), HighResMIP(1,1,1), LUMIP(1), PAMIP(2), PMIP(1,1,1,1,1), RFMIP(1,1,1,1,1), VIACSAB(1,1,2,2,2,2), VolMIP(1,1)",
    "experiments": "  abrupt-4xCO2 (AerChemMIP:1,CFMIP:1,CMIP:1,CMIP:1,DAMIP:1,FAFMIP:1,GeoMIP:1,PMIP:1,RFMIP:1), amip (AerChemMIP:1,CFMIP:1,CMIP:1,DAMIP:1,GMMIP:1,HighResMIP:1,PMIP:1,RFMIP:1,VIACSAB:1,VIACSAB:2), 1pctCO2 (AerChemMIP:1,CFMIP:1,CMIP:1,DAMIP:1,FAFMIP:1,PMIP:1,RFMIP:1), historical (AerChemMIP:1,CFMIP:1,CMIP:1,DAMIP:1,GeoMIP:1,HighResMIP:1,LUMIP:1,PMIP:1,RFMIP:1,VIACSAB:1,VolMIP:1,DCPP:2,PAMIP:2,VIACSAB:2,VIACSAB:2), piControl (AerChemMIP:1,CFMIP:1,CMIP:1,DAMIP:1,FAFMIP:1,GeoMIP:1,HighResMIP:1,PMIP:1,RFMIP:1,VolMIP:1,VIACSAB:2)"
  },
  "ts": {
    "CCCma TS var name": "GT",
    "CCCma diag file": "gp",
    "CCCma optional deck": "degctok",
    "CCCma hist file": "gs",
    "CCCma hist var names": "GT (aggregated over all tiles)",
    "CCCma hist var frequency": "ISRAD",
    "CCCma check": " Model in deg C vs diag in deg K",
    "CCCma comment": "GT+273.16",
    "MIPs (requesting)": "  AerChemMIP(1,1,1,1,1), CFMIP(1,1,1,1,1), CMIP(1,1,1,1,1,1), DAMIP(1,1,1,1,1), DCPP(1), FAFMIP(1,1,1), GeoMIP(1,1,1), GMMIP(1), HighResMIP(1,1,1), ISMIP6(1,1,1,1), LUMIP(1), PAMIP(1), PMIP(1,1,1,1,1), RFMIP(1,1,1,1,1), VIACSAB(1,1,1,1,1,2,2,2), VolMIP(1,1)",
    "experiments": "  abrupt-4xCO2 (AerChemMIP:1,CFMIP:1,CMIP:1,CMIP:1,DAMIP:1,FAFMIP:1,GeoMIP:1,PMIP:1,RFMIP:1), amip (AerChemMIP:1,CFMIP:1,CMIP:1,DAMIP:1,GMMIP:1,HighResMIP:1,ISMIP6:1,PMIP:1,RFMIP:1,VIACSAB:1,VIACSAB:2), 1pctCO2 (AerChemMIP:1,CFMIP:1,CMIP:1,DAMIP:1,FAFMIP:1,ISMIP6:1,PMIP:1,RFMIP:1,VIACSAB:1,VIACSAB:2), historical (AerChemMIP:1,CFMIP:1,CMIP:1,DAMIP:1,DCPP:1,GeoMIP:1,HighResMIP:1,ISMIP6:1,LUMIP:1,PAMIP:1,PMIP:1,RFMIP:1,VIACSAB:1,VIACSAB:1,VolMIP:1,VIACSAB:2), piControl (AerChemMIP:1,CFMIP:1,CMIP:1,DAMIP:1,FAFMIP:1,GeoMIP:1,HighResMIP:1,ISMIP6:1,PMIP:1,RFMIP:1,VIACSAB:1,VolMIP:1)"
  },
  "ua": {
    "CCCma TS var name": "U",
    "CCCma diag file": "gp",
    "CCCma units": "m s-1",
    "CCCma hist file": "ss",
    "CCCma hist var names": "P,C",
    "CCCma hist var frequency": "Spectral at ISSP",
    "CCCma check": "Done.",
    "MIPs (requesting)": "  AerChemMIP(1,1,1,1,1), CFMIP(1,1,1,1,1), CMIP(1,1,1,1,1,1), DAMIP(1,1,1,1,1), DCPP(1), FAFMIP(1,1,1), GeoMIP(1,1,1), GMMIP(1), HighResMIP(1,1,1), LUMIP(1), PAMIP(1), PMIP(1,1,1,1,1), RFMIP(1,1,1,1,1), VIACSAB(1,1,1,1,1,2,2,2), VolMIP(1,1)",
    "experiments": "  abrupt-4xCO2 (AerChemMIP:1,CFMIP:1,CMIP:1,CMIP:1,DAMIP:1,FAFMIP:1,GeoMIP:1,PMIP:1,RFMIP:1), amip (AerChemMIP:1,CFMIP:1,CMIP:1,DAMIP:1,GMMIP:1,HighResMIP:1,PMIP:1,RFMIP:1,VIACSAB:1,VIACSAB:2), 1pctCO2 (AerChemMIP:1,CFMIP:1,CMIP:1,DAMIP:1,FAFMIP:1,PMIP:1,RFMIP:1,VIACSAB:1,VIACSAB:2), historical (AerChemMIP:1,CFMIP:1,CMIP:1,DAMIP:1,DCPP:1,GeoMIP:1,HighResMIP:1,LUMIP:1,PAMIP:1,PMIP:1,RFMIP:1,VIACSAB:1,VIACSAB:1,VolMIP:1,VIACSAB:2), piControl (AerChemMIP:1,CFMIP:1,CMIP:1,DAMIP:1,FAFMIP:1,GeoMIP:1,HighResMIP:1,PMIP:1,RFMIP:1,VIACSAB:1,VolMIP:1)"
  },
  "uas": {
    "CCCma TS var name": "SU",
    "CCCma diag file": "gp",
    "CCCma units": "m s-1",
    "CCCma hist file": "gs",
    "CCCma hist var names": "SU",
    "CCCma hist var frequency": "ISRAD",
    "CCCma check": "Done.",
    "MIPs (requesting)": "  AerChemMIP(1,1,1,1,1), CFMIP(1,1,1,1,1), CMIP(1,1,1,1,1), DAMIP(1,1,1,1,1), DCPP(1), FAFMIP(1,1,1), GeoMIP(1,1,1), GMMIP(1), HighResMIP(1,1,1), ISMIP6(1,1,1,1), LUMIP(1), PAMIP(1), PMIP(1,1,1,1,1), RFMIP(1,1,1,1,1), VIACSAB(1,1,1,1,1,2,2,2), VolMIP(1,1,1)",
    "experiments": "  abrupt-4xCO2 (AerChemMIP:1,CFMIP:1,CMIP:1,DAMIP:1,FAFMIP:1,GeoMIP:1,PMIP:1,RFMIP:1), amip (AerChemMIP:1,CFMIP:1,CMIP:1,DAMIP:1,GMMIP:1,HighResMIP:1,ISMIP6:1,PMIP:1,RFMIP:1,VIACSAB:1,VIACSAB:2), 1pctCO2 (AerChemMIP:1,CFMIP:1,CMIP:1,DAMIP:1,FAFMIP:1,ISMIP6:1,PMIP:1,RFMIP:1,VIACSAB:1,VIACSAB:2), historical (AerChemMIP:1,CFMIP:1,CMIP:1,DAMIP:1,DCPP:1,GeoMIP:1,HighResMIP:1,ISMIP6:1,LUMIP:1,PAMIP:1,PMIP:1,RFMIP:1,VIACSAB:1,VIACSAB:1,VolMIP:1,VIACSAB:2), piControl (AerChemMIP:1,CFMIP:1,CMIP:1,DAMIP:1,FAFMIP:1,GeoMIP:1,HighResMIP:1,ISMIP6:1,PMIP:1,RFMIP:1,VIACSAB:1,VolMIP:1,VolMIP:1)"
  },
  "va": {
    "CCCma TS var name": "V",
    "CCCma diag file": "gp",
    "CCCma units": "m s-1",
    "CCCma hist file": "ss",
    "CCCma hist var names": "P,C",
    "CCCma hist var frequency": "Spectral at ISSP",
    "CCCma check": "Done.",
    "MIPs (requesting)": "  AerChemMIP(1,1,1,1,1), CFMIP(1,1,1,1,1), CMIP(1,1,1,1,1,1), DAMIP(1,1,1,1,1), DCPP(1), FAFMIP(1,1,1), GeoMIP(1,1,1), GMMIP(1), HighResMIP(1,1,1), LUMIP(1), PAMIP(1), PMIP(1,1,1,1,1), RFMIP(1,1,1,1,1), VIACSAB(1,1,1,1,1,2,2,2), VolMIP(1,1)",
    "experiments": "  abrupt-4xCO2 (AerChemMIP:1,CFMIP:1,CMIP:1,CMIP:1,DAMIP:1,FAFMIP:1,GeoMIP:1,PMIP:1,RFMIP:1), amip (AerChemMIP:1,CFMIP:1,CMIP:1,DAMIP:1,GMMIP:1,HighResMIP:1,PMIP:1,RFMIP:1,VIACSAB:1,VIACSAB:2), 1pctCO2 (AerChemMIP:1,CFMIP:1,CMIP:1,DAMIP:1,FAFMIP:1,PMIP:1,RFMIP:1,VIACSAB:1,VIACSAB:2), historical (AerChemMIP:1,CFMIP:1,CMIP:1,DAMIP:1,DCPP:1,GeoMIP:1,HighResMIP:1,LUMIP:1,PAMIP:1,PMIP:1,RFMIP:1,VIACSAB:1,VIACSAB:1,VolMIP:1,VIACSAB:2), piControl (AerChemMIP:1,CFMIP:1,CMIP:1,DAMIP:1,FAFMIP:1,GeoMIP:1,HighResMIP:1,PMIP:1,RFMIP:1,VIACSAB:1,VolMIP:1)"
  },
  "vas": {
    "CCCma TS var name": "SV",
    "CCCma diag file": "gp",
    "CCCma units": "m s-1",
    "CCCma hist file": "gs",
    "CCCma hist var names": "SV",
    "CCCma hist var frequency": "ISRAD",
    "CCCma check": "Done.",
    "MIPs (requesting)": "  AerChemMIP(1,1,1,1,1), CDRMIP(3,3,3,3,3), CFMIP(1,1,1,1,1), CMIP(1,1,1,1,1), DAMIP(1,1,1,1,1), DCPP(1), FAFMIP(1,1,1), GeoMIP(1,1,1), GMMIP(1), HighResMIP(1,1,1), ISMIP6(1,1,1,1), LUMIP(1), PAMIP(1), PMIP(1,1,1,1,1), RFMIP(1,1,1,1,1), VIACSAB(1,1,1,1,1,2,2,2), VolMIP(1,1,1)",
    "experiments": "  abrupt-4xCO2 (AerChemMIP:1,CFMIP:1,CMIP:1,DAMIP:1,FAFMIP:1,GeoMIP:1,PMIP:1,RFMIP:1,CDRMIP:3), amip (AerChemMIP:1,CFMIP:1,CMIP:1,DAMIP:1,GMMIP:1,HighResMIP:1,ISMIP6:1,PMIP:1,RFMIP:1,VIACSAB:1,VIACSAB:2,CDRMIP:3), 1pctCO2 (AerChemMIP:1,CFMIP:1,CMIP:1,DAMIP:1,FAFMIP:1,ISMIP6:1,PMIP:1,RFMIP:1,VIACSAB:1,VIACSAB:2,CDRMIP:3), historical (AerChemMIP:1,CFMIP:1,CMIP:1,DAMIP:1,DCPP:1,GeoMIP:1,HighResMIP:1,ISMIP6:1,LUMIP:1,PAMIP:1,PMIP:1,RFMIP:1,VIACSAB:1,VIACSAB:1,VolMIP:1,VIACSAB:2,CDRMIP:3), piControl (AerChemMIP:1,CFMIP:1,CMIP:1,DAMIP:1,FAFMIP:1,GeoMIP:1,HighResMIP:1,ISMIP6:1,PMIP:1,RFMIP:1,VIACSAB:1,VolMIP:1,VolMIP:1,CDRMIP:3)"
  },
  "wap": {
    "CCCma TS var name": "W",
    "CCCma diag file": "gp",
    "CCCma units": "Pa s-1",
    "CCCma hist file": "gs",
    "CCCma hist var names": "OMET",
    "CCCma hist var frequency": "ISGG",
    "CCCma check": "Done.",
    "MIPs (requesting)": "  AerChemMIP(1,1,1,1,1), CFMIP(1,1,1,1,1), CMIP(1,1,1,1,1,1), DAMIP(1,1,1,1,1), DCPP(2), FAFMIP(1,1,1), GeoMIP(1,1,1), GMMIP(1), HighResMIP(1,1,1), LUMIP(1), PAMIP(2), PMIP(1,1,1,1,1), RFMIP(1,1,1,1,1), VIACSAB(2,2,2,2), VolMIP(1,1)",
    "experiments": "  abrupt-4xCO2 (AerChemMIP:1,CFMIP:1,CMIP:1,CMIP:1,DAMIP:1,FAFMIP:1,GeoMIP:1,PMIP:1,RFMIP:1), amip (AerChemMIP:1,CFMIP:1,CMIP:1,DAMIP:1,GMMIP:1,HighResMIP:1,PMIP:1,RFMIP:1,VIACSAB:2), 1pctCO2 (AerChemMIP:1,CFMIP:1,CMIP:1,DAMIP:1,FAFMIP:1,PMIP:1,RFMIP:1), historical (AerChemMIP:1,CFMIP:1,CMIP:1,DAMIP:1,GeoMIP:1,HighResMIP:1,LUMIP:1,PMIP:1,RFMIP:1,VolMIP:1,DCPP:2,PAMIP:2,VIACSAB:2,VIACSAB:2), piControl (AerChemMIP:1,CFMIP:1,CMIP:1,DAMIP:1,FAFMIP:1,GeoMIP:1,HighResMIP:1,PMIP:1,RFMIP:1,VolMIP:1,VIACSAB:2)"
  },
  "zg": {
    "CCCma TS var name": "GZ",
    "CCCma diag file": "gp",
    "CCCma optional deck": "divbyg",
    "CCCma units": "m",
    "CCCma hist file": "ss",
    "CCCma hist var names": "PHIS LNSP TEMP",
    "CCCma hist var frequency": "ISSP",
    "CCCma check": "Diag file",
    "MIPs (requesting)": "  AerChemMIP(1,1,1,1,1), CFMIP(1,1,1,1,1), CMIP(1,1,1,1,1,1), DAMIP(1,1,1,1,1), DCPP(1), FAFMIP(1,1,1), GeoMIP(1,1,1), GMMIP(1), HighResMIP(1,1,1), LUMIP(1), PAMIP(1), PMIP(1,1,1,1,1), RFMIP(1,1,1,1,1), VIACSAB(1,1,1,1), VolMIP(1,1)",
    "experiments": "  abrupt-4xCO2 (AerChemMIP:1,CFMIP:1,CMIP:1,CMIP:1,DAMIP:1,FAFMIP:1,GeoMIP:1,PMIP:1,RFMIP:1), amip (AerChemMIP:1,CFMIP:1,CMIP:1,DAMIP:1,GMMIP:1,HighResMIP:1,PMIP:1,RFMIP:1,VIACSAB:1), 1pctCO2 (AerChemMIP:1,CFMIP:1,CMIP:1,DAMIP:1,FAFMIP:1,PMIP:1,RFMIP:1), historical (AerChemMIP:1,CFMIP:1,CMIP:1,DAMIP:1,DCPP:1,GeoMIP:1,HighResMIP:1,LUMIP:1,PAMIP:1,PMIP:1,RFMIP:1,VIACSAB:1,VIACSAB:1,VolMIP:1), piControl (AerChemMIP:1,CFMIP:1,CMIP:1,DAMIP:1,FAFMIP:1,GeoMIP:1,HighResMIP:1,PMIP:1,RFMIP:1,VIACSAB:1,VolMIP:1)"
  }
}