{
    "Header": {
        "data_specs_version": "01.00.00",
        "cmor_version": "3.5",
        "table_id": "Table 6hrPtZ",
        "realm": "atmos",
        "table_date": "January 15, 2021",
        "missing_value": "1e20",
        "int_missing_value": "-999",
        "product": "model-output",
        "approx_interval": "0.250000",
        "generic_levels": "",
        "Conventions": "CF-1.8 SNAP"
    },
    "variable_entry": {
        "o3": {
            "frequency": "6hrPt",
            "modeling_realm": "atmos",
            "standard_name": "mole_fraction_of_ozone_in_air",
            "units": "mol mol-1",
            "cell_methods": "longitude: mean time: point",
            "cell_measures": "",
            "long_name": "Mole Fraction of O3",
            "comment": "Mole fraction is used in the construction mole_fraction_of_X_in_Y, where X is a material constituent of Y.",
            "dimensions": "latitude snap34 time",
            "out_name": "o3",
            "type": "real",
            "positive": "",
            "valid_min": "",
            "valid_max": ""
        },
        "epfy": {
            "frequency": "6hrPt",
            "modeling_realm": "atmos",
            "standard_name": "northward_eliassen_palm_flux_in_air",
            "units": "m3 s-2",
            "cell_methods": "longitude: mean time: point",
            "cell_measures": "",
            "long_name": "Northward Component of the Eliassen-Palm Flux",
            "comment": "Transformed Eulerian Mean Diagnostics Meridional component Fy of Eliassen-Palm (EP) flux (Fy, Fz) derived from 6hr or higher frequency fields (use daily fields or 12 hr fields if the 6 hr are not available). Please use the definitions given by equation 3.5.3a of Andrews, Holton and Leovy text book, but scaled by density to have units m3 s-2.",
            "dimensions": "latitude snap34 time",
            "out_name": "epfy",
            "type": "real",
            "positive": "",
            "valid_min": "",
            "valid_max": ""
        },
        "epfz": {
            "frequency": "6hrPt",
            "modeling_realm": "atmos",
            "standard_name": "upward_eliassen_palm_flux_in_air",
            "units": "m3 s-2",
            "cell_methods": "longitude: mean time: point",
            "cell_measures": "",
            "long_name": "Upward Component of the Eliassen-Palm Flux",
            "comment": "Transformed Eulerian Mean Diagnostics Meridional component Fz of the Eliassen-Palm (EP) flux (Fy, Fz) derived from 6hr or higher frequency fields (use daily fields or 12 hr fields if the 6 hr are not available). Please use the definitions given by equation 3.5.3b of Andrews, Holton and Leovy text book, but scaled by density to have units m3 s-2.",
            "dimensions": "latitude snap34 time",
            "out_name": "epfz",
            "type": "real",
            "positive": "up",
            "valid_min": "",
            "valid_max": ""
        },
        "vtem": {
            "frequency": "6hrPt",
            "modeling_realm": "atmos",
            "standard_name": "northward_transformed_eulerian_mean_air_velocity",
            "units": "m s-1",
            "cell_methods": "longitude: mean time: point",
            "cell_measures": "",
            "long_name": "Transformed Eulerian Mean Northward Wind",
            "comment": "Transformed Eulerian Mean Diagnostics v*, meridional component of the residual meridional circulation (v*, w*) derived from 6 hr or higher frequency data fields (use instantaneous daily fields or 12 hr fields if the 6 hr data are not available).",
            "dimensions": "latitude snap34 time",
            "out_name": "vtem",
            "type": "real",
            "positive": "",
            "valid_min": "",
            "valid_max": ""
        },
        "wtem": {
            "frequency": "6hrPt",
            "modeling_realm": "atmos",
            "standard_name": "upward_transformed_eulerian_mean_air_velocity",
            "units": "m s-1",
            "cell_methods": "longitude: mean time: point",
            "cell_measures": "",
            "long_name": "Transformed Eulerian Mean Upward Wind",
            "comment": "Transformed Eulerian Mean Diagnostics w*, upward component of the residual meridional circulation (v*, w*) derived from 6 hr or higher frequency data fields (use instantaneous daily fields or 12 hr fields if the 6 hr data are not available). Scale height: 6950 m",
            "dimensions": "latitude snap34 time",
            "out_name": "wtem",
            "type": "real",
            "positive": "",
            "valid_min": "",
            "valid_max": ""
        }
    }
}
