{
    "Header": {
        "data_specs_version": "01.00.00",
        "cmor_version": "3.5",
        "table_id": "Table 6hr",
        "realm": "atmos",
        "table_date": "Apr 20, 2021",
        "missing_value": "1e20",
        "int_missing_value": "-999",
        "product": "model-output",
        "approx_interval": "0.250000",
        "generic_levels": "",
        "Conventions": "CF-1.8 SNAP"
    },
    "variable_entry": {
        "pr": {
            "frequency": "6hr",
            "modeling_realm": "atmos",
            "standard_name": "precipitation_flux",
            "units": "kg m-2 s-1",
            "cell_methods": "area: time: mean",
            "cell_measures": "area: areacella",
            "long_name": "Precipitation",
            "comment": "includes both liquid and solid phases",
            "dimensions": "longitude latitude time",
            "out_name": "pr",
            "type": "real",
            "positive": "",
            "valid_min": "",
            "valid_max": ""
        },
        "prc": {
            "frequency": "6hr", 
            "modeling_realm": "atmos", 
            "standard_name": "convective_precipitation_flux", 
            "units": "kg m-2 s-1", 
            "cell_methods": "area: time: mean", 
            "cell_measures": "area: areacella", 
            "long_name": "Convective Precipitation", 
            "comment": "Convective precipitation at surface; includes both liquid and solid phases.", 
            "dimensions": "longitude latitude time", 
            "out_name": "prc", 
            "type": "real", 
            "positive": "", 
            "valid_min": "", 
            "valid_max": "", 
            "ok_min_mean_abs": "", 
            "ok_max_mean_abs": ""
        }, 
        "tauu": {
            "frequency": "6hr", 
            "modeling_realm": "atmos", 
            "standard_name": "surface_downward_eastward_stress", 
            "units": "Pa", 
            "cell_methods": "area: time: mean", 
            "cell_measures": "area: areacella", 
            "long_name": "Surface Downward Eastward Wind Stress", 
            "comment": "Downward eastward wind stress at the surface", 
            "dimensions": "longitude latitude time", 
            "out_name": "tauu", 
            "type": "real", 
            "positive": "down", 
            "valid_min": "", 
            "valid_max": "", 
            "ok_min_mean_abs": "", 
            "ok_max_mean_abs": ""
        }, 
        "tauv": {
            "frequency": "6hr", 
            "modeling_realm": "atmos", 
            "standard_name": "surface_downward_northward_stress", 
            "units": "Pa", 
            "cell_methods": "area: time: mean", 
            "cell_measures": "area: areacella", 
            "long_name": "Surface Downward Northward Wind Stress", 
            "comment": "Downward northward wind stress at the surface", 
            "dimensions": "longitude latitude time", 
            "out_name": "tauv", 
            "type": "real", 
            "positive": "down", 
            "valid_min": "", 
            "valid_max": "", 
            "ok_min_mean_abs": "", 
            "ok_max_mean_abs": ""
        }, 
        "hfds": {
            "frequency": "6hr",
            "modeling_realm": "ocean",
            "standard_name": "surface_downward_heat_flux_in_sea_water",
            "units": "W m-2",
            "cell_methods": "area: mean where sea time: mean",
            "cell_measures": "area: areacello",
            "long_name": "Downward Heat Flux at Sea Water Surface",
            "comment": "This is the net flux of heat entering the liquid water column through its upper surface (excluding any 'flux adjustment') .",
            "dimensions": "longitude latitude time",
            "out_name": "hfds",
            "type": "real",
            "positive": "down",
            "valid_min": "",
            "valid_max": "",
            "ok_min_mean_abs": "",
            "ok_max_mean_abs": ""
        },
        "clt": {
            "frequency": "6hr",
            "modeling_realm": "atmos",
            "standard_name": "cloud_area_fraction",
            "units": "%",
            "cell_methods": "area: mean time: mean",
            "cell_measures": "area: areacella",
            "long_name": "Total Cloud Cover Percentage",
            "comment": "Total cloud area fraction (reported as a percentage) for the whole atmospheric column, as seen from the surface or the top of the atmosphere. Includes both large-scale and convective cloud.",
            "dimensions": "longitude latitude time",
            "out_name": "clt",
            "type": "real",
            "positive": "",
            "valid_min": "",
            "valid_max": ""
        },
        "tasmin": {
            "frequency": "6hr",
            "modeling_realm": "atmos",
            "standard_name": "air_temperature",
            "units": "K",
            "cell_methods": "area: mean time: minimum",
            "cell_measures": "area: areacella",
            "long_name": "6 hourly Minimum Near-Surface Air Temperature",
            "comment": "minimum near-surface (usually, 2 meter) air temperature (add cell_method attribute 'time: minimum')",
            "dimensions": "longitude latitude time height2m",
            "out_name": "tasmin",
            "type": "real",
            "positive": "",
            "valid_min": "",
            "valid_max": ""
        },
        "tasmax": {
            "frequency": "6hr",
            "modeling_realm": "atmos",
            "standard_name": "air_temperature",
            "units": "K",
            "cell_methods": "area: mean time: maximum",
            "cell_measures": "area: areacella",
            "long_name": "a 6hourly Maximum Near-Surface Air Temperature",
            "comment": "maximum near-surface (usually, 2 meter) air temperature (add cell_method attribute 'time: maximum')",
            "dimensions": "longitude latitude time height2m",
            "out_name": "tasmax",
            "type": "real",
            "positive": "",
            "valid_min": "",
            "valid_max": ""
        }
    }
}
