{
  "rlut": {
    "CCCma TS var name": null,
    "CCCma diag file": null,
    "MIPs (requesting)": "  CFMIP(1)",
    "experiments": "  amip (CFMIP:1)"
  },
  "rlutcs": {
    "CCCma TS var name": null,
    "CCCma diag file": null,
    "MIPs (requesting)": "  CFMIP(1)",
    "experiments": "  amip (CFMIP:1)"
  },
  "rsdt": {
    "CCCma TS var name": null,
    "CCCma diag file": null,
    "MIPs (requesting)": "  CFMIP(1)",
    "experiments": "  amip (CFMIP:1)"
  },
  "rsut": {
    "CCCma TS var name": null,
    "CCCma diag file": null,
    "MIPs (requesting)": "  CFMIP(1)",
    "experiments": "  amip (CFMIP:1)"
  },
  "rsutcs": {
    "CCCma TS var name": null,
    "CCCma diag file": null,
    "MIPs (requesting)": "  CFMIP(1)",
    "experiments": "  amip (CFMIP:1)"
  }
}