{
  "epfy": {
    "CCCma TS var name": "meridional_component_ep_flux",
    "CCCma diag file": "zp",
    "CCCma check": "OK, Michael",
    "MIPs (requesting)": "  DAMIP(1,1,1,1,1), DCPP(3), HighResMIP(2,2), PAMIP(1), VolMIP(1)",
    "experiments": "  abrupt-4xCO2 (DAMIP:1), amip (DAMIP:1,HighResMIP:2), 1pctCO2 (DAMIP:1), historical (DAMIP:1,PAMIP:1,DCPP:3), piControl (DAMIP:1,VolMIP:1,HighResMIP:2)"
  },
  "epfz": {
    "CCCma TS var name": "vertical_component_ep_flux",
    "CCCma diag file": "zp",
    "CCCma check": "OK, Michael",
    "MIPs (requesting)": "  DAMIP(1,1,1,1,1), DCPP(3), HighResMIP(2,2), PAMIP(1), VolMIP(1)",
    "experiments": "  abrupt-4xCO2 (DAMIP:1), amip (DAMIP:1,HighResMIP:2), 1pctCO2 (DAMIP:1), historical (DAMIP:1,PAMIP:1,DCPP:3), piControl (DAMIP:1,VolMIP:1,HighResMIP:2)"
  },
  "jo2": {
    "CCCma TS var name": null,
    "CCCma diag file": null,
    "MIPs (requesting)": "  DAMIP(1,1,1,1,1)",
    "experiments": "  abrupt-4xCO2 (DAMIP:1), amip (DAMIP:1), 1pctCO2 (DAMIP:1), historical (DAMIP:1), piControl (DAMIP:1)"
  },
  "jo3": {
    "CCCma TS var name": null,
    "CCCma diag file": null,
    "MIPs (requesting)": "  DAMIP(1,1,1,1,1)",
    "experiments": "  abrupt-4xCO2 (DAMIP:1), amip (DAMIP:1), 1pctCO2 (DAMIP:1), historical (DAMIP:1), piControl (DAMIP:1)"
  },
  "oxloss": {
    "CCCma TS var name": null,
    "CCCma diag file": null,
    "MIPs (requesting)": "  DAMIP(1,1,1,1,1)",
    "experiments": "  abrupt-4xCO2 (DAMIP:1), amip (DAMIP:1), 1pctCO2 (DAMIP:1), historical (DAMIP:1), piControl (DAMIP:1)"
  },
  "oxprod": {
    "CCCma TS var name": null,
    "CCCma diag file": null,
    "MIPs (requesting)": "  DAMIP(1,1,1,1,1)",
    "experiments": "  abrupt-4xCO2 (DAMIP:1), amip (DAMIP:1), 1pctCO2 (DAMIP:1), historical (DAMIP:1), piControl (DAMIP:1)"
  },
  "sltbasin": {
    "CCCma TS var name": null,
    "CCCma diag file": null,
    "MIPs (requesting)": "  PAMIP(2), PMIP(1,1,1,1)",
    "experiments": "  abrupt-4xCO2 (PMIP:1), 1pctCO2 (PMIP:1), historical (PMIP:1,PAMIP:2), piControl (PMIP:1)"
  },
  "tntc": {
    "CCCma TS var name": "TTPM TTPC",
    "CCCma diag file": "zp",
    "CCCma optional deck": "addtwo",
    "CCCma hist file": "td",
    "CCCma hist var names": "TTPM TTPC",
    "CCCma hist var frequency": "ISRAD",
    "CCCma check": "Jason",
    "CCCma comment": "cpp   tprhsc, rhs_cmip6.dk, add together",
    "MIPs (requesting)": "  VolMIP(1)",
    "experiments": "  piControl (VolMIP:1)"
  },
  "tntmp": {
    "CCCma TS var name": "TTP",
    "CCCma diag file": "zp",
    "CCCma hist file": "td",
    "CCCma hist var names": "TTP",
    "CCCma hist var frequency": "ISRAD",
    "CCCma check": "Jason",
    "CCCma comment": "cpp   tprhsc, rhs_cmip6.dk, add together",
    "MIPs (requesting)": "  VolMIP(1)",
    "experiments": "  piControl (VolMIP:1)"
  },
  "tntnogw": {
    "CCCma TS var name": null,
    "CCCma diag file": null,
    "CCCma check": "N/A, Michael",
    "priority": 2.0,
    "MIPs (requesting)": "  VolMIP(2)",
    "experiments": "  piControl (VolMIP:2)"
  },
  "tntogw": {
    "CCCma TS var name": null,
    "CCCma diag file": null,
    "CCCma check": "Not providing, Michael",
    "priority": 2.0,
    "MIPs (requesting)": "  VolMIP(2)",
    "experiments": "  piControl (VolMIP:2)"
  },
  "tntrl": {
    "CCCma TS var name": "TTPL",
    "CCCma diag file": "xp",
    "CCCma hist file": "td",
    "CCCma hist var names": "TTPL",
    "CCCma hist var frequency": "ISRAD",
    "CCCma check": "Jason",
    "priority": 3.0,
    "MIPs (requesting)": "  VolMIP(3)",
    "experiments": "  piControl (VolMIP:3)"
  },
  "tntrlcs": {
    "CCCma TS var name": "TTLC",
    "CCCma diag file": "zp",
    "CCCma hist file": "td",
    "CCCma hist var names": "TTLC",
    "CCCma hist var frequency": "ISRAD",
    "CCCma check": "Jason",
    "CCCma comment": "cpp   tprhsc, rhs_cmip6.dk, add together",
    "MIPs (requesting)": "  VolMIP(1)",
    "experiments": "  piControl (VolMIP:1)"
  },
  "tntrs": {
    "CCCma TS var name": "TTPS",
    "CCCma diag file": "xp",
    "CCCma hist file": "td",
    "CCCma hist var names": "TTPS",
    "CCCma hist var frequency": "ISRAD",
    "CCCma check": "Jason",
    "priority": 3.0,
    "MIPs (requesting)": "  VolMIP(3)",
    "experiments": "  piControl (VolMIP:3)"
  },
  "tntrscs": {
    "CCCma TS var name": "TTSC",
    "CCCma diag file": "zp",
    "CCCma hist file": "td",
    "CCCma hist var names": "TTSC",
    "CCCma hist var frequency": "ISRAD",
    "CCCma check": "Jason",
    "CCCma comment": "cpp   tprhsc, rhs_cmip6.dk, add together",
    "MIPs (requesting)": "  VolMIP(1)",
    "experiments": "  piControl (VolMIP:1)"
  },
  "tntscp": {
    "CCCma TS var name": null,
    "CCCma diag file": null,
    "CCCma check": "N/A",
    "MIPs (requesting)": "  VolMIP(1)",
    "experiments": "  piControl (VolMIP:1)"
  },
  "utendepfd": {
    "CCCma TS var name": "ep_flux_divergence ",
    "CCCma diag file": "zp",
    "CCCma check": "OK, Michael",
    "MIPs (requesting)": "  DAMIP(1,1,1,1,1), DCPP(3), HighResMIP(2,2), PAMIP(1), VolMIP(1)",
    "experiments": "  abrupt-4xCO2 (DAMIP:1), amip (DAMIP:1,HighResMIP:2), 1pctCO2 (DAMIP:1), historical (DAMIP:1,PAMIP:1,DCPP:3), piControl (DAMIP:1,VolMIP:1,HighResMIP:2)"
  },
  "utendnogw": {
    "CCCma TS var name": null,
    "CCCma diag file": null,
    "CCCma check": "N/A, Michael",
    "priority": 2.0,
    "MIPs (requesting)": "  HighResMIP(2,2)",
    "experiments": "  piControl (HighResMIP:2), amip (HighResMIP:2)"
  },
  "vmrox": {
    "CCCma TS var name": null,
    "CCCma diag file": null,
    "MIPs (requesting)": "  DAMIP(1,1,1,1,1)",
    "experiments": "  abrupt-4xCO2 (DAMIP:1), amip (DAMIP:1), 1pctCO2 (DAMIP:1), historical (DAMIP:1), piControl (DAMIP:1)"
  },
  "vtem": {
    "CCCma TS var name": "residual_meridional_velocity",
    "CCCma diag file": "zp",
    "CCCma check": "OK, Michael",
    "MIPs (requesting)": "  DAMIP(1,1,1,1,1), DCPP(3), HighResMIP(2,2), PAMIP(1), VolMIP(1)",
    "experiments": "  abrupt-4xCO2 (DAMIP:1), amip (DAMIP:1,HighResMIP:2), 1pctCO2 (DAMIP:1), historical (DAMIP:1,PAMIP:1,DCPP:3), piControl (DAMIP:1,VolMIP:1,HighResMIP:2)"
  },
  "vtendnogw": {
    "CCCma TS var name": null,
    "CCCma diag file": null,
    "CCCma check": "N/A, Michael",
    "priority": 2.0,
    "MIPs (requesting)": "  HighResMIP(2,2)",
    "experiments": "  piControl (HighResMIP:2), amip (HighResMIP:2)"
  },
  "wtem": {
    "CCCma TS var name": "residual_vertical_velocity",
    "CCCma diag file": "zp",
    "CCCma check": "OK, Michael",
    "MIPs (requesting)": "  DAMIP(1,1,1,1,1), DCPP(3), HighResMIP(2,2), PAMIP(1), VolMIP(1)",
    "experiments": "  abrupt-4xCO2 (DAMIP:1), amip (DAMIP:1,HighResMIP:2), 1pctCO2 (DAMIP:1), historical (DAMIP:1,PAMIP:1,DCPP:3), piControl (DAMIP:1,VolMIP:1,HighResMIP:2)"
  },
  "xgwdparam": {
    "CCCma TS var name": null,
    "CCCma diag file": null,
    "CCCma check": "Not providing, Michael",
    "priority": 2.0,
    "MIPs (requesting)": "  HighResMIP(2,2)",
    "experiments": "  piControl (HighResMIP:2), amip (HighResMIP:2)"
  },
  "ygwdparam": {
    "CCCma TS var name": null,
    "CCCma diag file": null,
    "CCCma check": "Not providing, Michael",
    "priority": 2.0,
    "MIPs (requesting)": "  HighResMIP(2,2)",
    "experiments": "  piControl (HighResMIP:2), amip (HighResMIP:2)"
  },
  "zmtnt": {
    "CCCma TS var name": null,
    "CCCma diag file": null,
    "MIPs (requesting)": "  DAMIP(1,1,1,1,1)",
    "experiments": "  abrupt-4xCO2 (DAMIP:1), amip (DAMIP:1), 1pctCO2 (DAMIP:1), historical (DAMIP:1), piControl (DAMIP:1)"
  }
}