{
  "abs550aer": {
    "CCCma TS var name": "ABST",
    "CCCma diag file": "gp",
    "CCCma hist file": "gs",
    "CCCma hist var names": "ABST",
    "CCCma check": "Knut/Jason",
    "MIPs (requesting)": "  AerChemMIP(1,1,1,1,1), CFMIP(1,1,1,1,1), DAMIP(1,1), GeoMIP(1,1,1), HighResMIP(1,1,1), PMIP(1,1,1,1,1), VIACSAB(1,1,1)",
    "experiments": "  abrupt-4xCO2 (AerChemMIP:1,CFMIP:1,GeoMIP:1,PMIP:1), amip (AerChemMIP:1,CFMIP:1,HighResMIP:1,PMIP:1,VIACSAB:1), 1pctCO2 (AerChemMIP:1,CFMIP:1,PMIP:1), historical (AerChemMIP:1,CFMIP:1,DAMIP:1,GeoMIP:1,HighResMIP:1,PMIP:1,VIACSAB:1), piControl (AerChemMIP:1,CFMIP:1,DAMIP:1,GeoMIP:1,HighResMIP:1,PMIP:1,VIACSAB:1)"
  },
  "airmass": {
    "CCCma TS var name": null,
    "CCCma diag file": null,
    "CCCma check": "TBA",
    "MIPs (requesting)": "  AerChemMIP(1,1,1,1,1), DAMIP(1,1)",
    "experiments": "  abrupt-4xCO2 (AerChemMIP:1), amip (AerChemMIP:1), 1pctCO2 (AerChemMIP:1), historical (AerChemMIP:1,DAMIP:1), piControl (AerChemMIP:1,DAMIP:1)"
  },
  "aoanh": {
    "CCCma TS var name": null,
    "CCCma diag file": null,
    "CCCma check": "?",
    "MIPs (requesting)": "  AerChemMIP(1,1,1,1,1), DAMIP(1,1)",
    "experiments": "  abrupt-4xCO2 (AerChemMIP:1), amip (AerChemMIP:1), 1pctCO2 (AerChemMIP:1), historical (AerChemMIP:1,DAMIP:1), piControl (AerChemMIP:1,DAMIP:1)"
  },
  "bldep": {
    "CCCma TS var name": "PBLH",
    "CCCma diag file": "gp",
    "CCCma hist file": "gs",
    "CCCma hist var names": "PBLH",
    "CCCma check": "Jason",
    "MIPs (requesting)": "  AerChemMIP(1,1,1,1,1), DAMIP(1,1), HighResMIP(1,1,1)",
    "experiments": "  abrupt-4xCO2 (AerChemMIP:1), amip (AerChemMIP:1,HighResMIP:1), 1pctCO2 (AerChemMIP:1), historical (AerChemMIP:1,DAMIP:1,HighResMIP:1), piControl (AerChemMIP:1,DAMIP:1,HighResMIP:1)"
  },
  "c2h2": {
    "CCCma TS var name": null,
    "CCCma diag file": null,
    "CCCma check": "?",
    "MIPs (requesting)": "  AerChemMIP(1,1,1,1,1), DAMIP(1,1)",
    "experiments": "  abrupt-4xCO2 (AerChemMIP:1), amip (AerChemMIP:1), 1pctCO2 (AerChemMIP:1), historical (AerChemMIP:1,DAMIP:1), piControl (AerChemMIP:1,DAMIP:1)"
  },
  "c2h6": {
    "CCCma TS var name": null,
    "CCCma diag file": null,
    "CCCma check": "?",
    "MIPs (requesting)": "  AerChemMIP(1,1,1,1,1), DAMIP(1,1)",
    "experiments": "  abrupt-4xCO2 (AerChemMIP:1), amip (AerChemMIP:1), 1pctCO2 (AerChemMIP:1), historical (AerChemMIP:1,DAMIP:1), piControl (AerChemMIP:1,DAMIP:1)"
  },
  "c3h6": {
    "CCCma TS var name": null,
    "CCCma diag file": null,
    "CCCma check": "?",
    "MIPs (requesting)": "  AerChemMIP(1,1,1,1,1), DAMIP(1,1)",
    "experiments": "  abrupt-4xCO2 (AerChemMIP:1), amip (AerChemMIP:1), 1pctCO2 (AerChemMIP:1), historical (AerChemMIP:1,DAMIP:1), piControl (AerChemMIP:1,DAMIP:1)"
  },
  "c3h8": {
    "CCCma TS var name": null,
    "CCCma diag file": null,
    "CCCma check": "?",
    "MIPs (requesting)": "  AerChemMIP(1,1,1,1,1), DAMIP(1,1)",
    "experiments": "  abrupt-4xCO2 (AerChemMIP:1), amip (AerChemMIP:1), 1pctCO2 (AerChemMIP:1), historical (AerChemMIP:1,DAMIP:1), piControl (AerChemMIP:1,DAMIP:1)"
  },
  "ccn": {
    "CCCma TS var name": null,
    "CCCma diag file": null,
    "CCCma check": "N/A, Jason",
    "MIPs (requesting)": "  AerChemMIP(1,1,1,1,1), DAMIP(1,1), HighResMIP(1,1,1)",
    "experiments": "  abrupt-4xCO2 (AerChemMIP:1), amip (AerChemMIP:1,HighResMIP:1), 1pctCO2 (AerChemMIP:1), historical (AerChemMIP:1,DAMIP:1,HighResMIP:1), piControl (AerChemMIP:1,DAMIP:1,HighResMIP:1)"
  },
  "cdnc": {
    "CCCma TS var name": "LNC CLIQ",
    "CCCma diag file": "gp",
    "CCCma optional deck": "mask_mltby1e6",
    "CCCma hist file": "gs",
    "CCCma hist var names": "LNC CLIQ",
    "CCCma hist var frequency": "ISRAD",
    "CCCma check": "Jason",
    "MIPs (requesting)": "  AerChemMIP(1,1,1,1,1), CFMIP(1,1,1,1,1), DAMIP(1,1)",
    "experiments": "  abrupt-4xCO2 (AerChemMIP:1,CFMIP:1), amip (AerChemMIP:1,CFMIP:1), 1pctCO2 (AerChemMIP:1,CFMIP:1), historical (AerChemMIP:1,CFMIP:1,DAMIP:1), piControl (AerChemMIP:1,CFMIP:1,DAMIP:1)"
  },
  "ch3coch3": {
    "CCCma TS var name": null,
    "CCCma diag file": null,
    "CCCma check": "?",
    "MIPs (requesting)": "  AerChemMIP(1,1,1,1,1), DAMIP(1,1)",
    "experiments": "  abrupt-4xCO2 (AerChemMIP:1), amip (AerChemMIP:1), 1pctCO2 (AerChemMIP:1), historical (AerChemMIP:1,DAMIP:1), piControl (AerChemMIP:1,DAMIP:1)"
  },
  "ch4": {
    "CCCma TS var name": null,
    "CCCma diag file": null,
    "CCCma check": "?",
    "MIPs (requesting)": "  AerChemMIP(1,1,1,1,1), DAMIP(1,1)",
    "experiments": "  abrupt-4xCO2 (AerChemMIP:1), amip (AerChemMIP:1), 1pctCO2 (AerChemMIP:1), historical (AerChemMIP:1,DAMIP:1), piControl (AerChemMIP:1,DAMIP:1)"
  },
  "cheaqpso4": {
    "CCCma TS var name": "SLO3 SLHP SDO3 SDHP SSO3 SSHP",
    "CCCma diag file": "gp",
    "CCCma optional deck": "addsixmltby3",
    "CCCma hist file": "gs",
    "CCCma hist var names": "SLO3 SLHP SDO3 SDHP SSO3 SSHP",
    "CCCma check": "Knut/Jason",
    "CCCma comment": "3.00*(slo3+slhp+sdo3+sdhp+sso3+sshp)",
    "MIPs (requesting)": "  AerChemMIP(1,1,1,1,1), DAMIP(1,1)",
    "experiments": "  abrupt-4xCO2 (AerChemMIP:1), amip (AerChemMIP:1), 1pctCO2 (AerChemMIP:1), historical (AerChemMIP:1,DAMIP:1), piControl (AerChemMIP:1,DAMIP:1)"
  },
  "chegpso4": {
    "CCCma TS var name": "DOX4",
    "CCCma diag file": "gp",
    "CCCma optional deck": "mltby3",
    "CCCma hist file": "gs",
    "CCCma hist var names": "DOX4",
    "CCCma check": "Knut/Jason",
    "CCCma comment": "3.00*dox4",
    "MIPs (requesting)": "  AerChemMIP(1,1,1,1,1), DAMIP(1,1)",
    "experiments": "  abrupt-4xCO2 (AerChemMIP:1), amip (AerChemMIP:1), 1pctCO2 (AerChemMIP:1), historical (AerChemMIP:1,DAMIP:1), piControl (AerChemMIP:1,DAMIP:1)"
  },
  "chepasoa": {
    "CCCma TS var name": null,
    "CCCma diag file": null,
    "CCCma check": "N/A, Jason",
    "MIPs (requesting)": "  AerChemMIP(1,1,1,1,1), DAMIP(1,1), HighResMIP(1,1,1)",
    "experiments": "  abrupt-4xCO2 (AerChemMIP:1), amip (AerChemMIP:1,HighResMIP:1), 1pctCO2 (AerChemMIP:1), historical (AerChemMIP:1,DAMIP:1,HighResMIP:1), piControl (AerChemMIP:1,DAMIP:1,HighResMIP:1)"
  },
  "chepsoa": {
    "CCCma TS var name": null,
    "CCCma diag file": null,
    "CCCma check": "N/A, Jason",
    "MIPs (requesting)": "  AerChemMIP(1,1,1,1,1), DAMIP(1,1), HighResMIP(1,1,1)",
    "experiments": "  abrupt-4xCO2 (AerChemMIP:1), amip (AerChemMIP:1,HighResMIP:1), 1pctCO2 (AerChemMIP:1), historical (AerChemMIP:1,DAMIP:1,HighResMIP:1), piControl (AerChemMIP:1,DAMIP:1,HighResMIP:1)"
  },
  "cltc": {
    "CCCma TS var name": null,
    "CCCma diag file": null,
    "CCCma check": "N/A, Jason",
    "MIPs (requesting)": "  AerChemMIP(1,1,1,1,1), DAMIP(1,1), HighResMIP(1,1,1)",
    "experiments": "  abrupt-4xCO2 (AerChemMIP:1), amip (AerChemMIP:1,HighResMIP:1), 1pctCO2 (AerChemMIP:1), historical (AerChemMIP:1,DAMIP:1,HighResMIP:1), piControl (AerChemMIP:1,DAMIP:1,HighResMIP:1)"
  },
  "co": {
    "CCCma TS var name": null,
    "CCCma diag file": null,
    "CCCma check": "?",
    "MIPs (requesting)": "  AerChemMIP(1,1,1,1,1), DAMIP(1,1)",
    "experiments": "  abrupt-4xCO2 (AerChemMIP:1), amip (AerChemMIP:1), 1pctCO2 (AerChemMIP:1), historical (AerChemMIP:1,DAMIP:1), piControl (AerChemMIP:1,DAMIP:1)"
  },
  "co2": {
    "CCCma TS var name": "CO2_MC",
    "CCCma diag file": "gp",
    "CCCma optional deck": "co2toppmv",
    "CCCma hist file": "ss",
    "CCCma hist var names": "CO2",
    "CCCma hist var frequency": "spectral at ISTR",
    "CCCma check": "Jason",
    "CCCma comment": "CO2*28.970/44.011*1E6, may need revision in xstats5.dk, mass concentration, MMR*RHO, needed conversion to right units, ML, Charles,Knut",
    "MIPs (requesting)": "  AerChemMIP(1,1,1,1,1), DAMIP(1,1)",
    "experiments": "  abrupt-4xCO2 (AerChemMIP:1), amip (AerChemMIP:1), 1pctCO2 (AerChemMIP:1), historical (AerChemMIP:1,DAMIP:1), piControl (AerChemMIP:1,DAMIP:1)"
  },
  "cod": {
    "CCCma TS var name": null,
    "CCCma diag file": null,
    "CCCma check": "N/A, Jason",
    "MIPs (requesting)": "  AerChemMIP(1,1,1,1,1), DAMIP(1,1), HighResMIP(1,1,1)",
    "experiments": "  abrupt-4xCO2 (AerChemMIP:1), amip (AerChemMIP:1,HighResMIP:1), 1pctCO2 (AerChemMIP:1), historical (AerChemMIP:1,DAMIP:1,HighResMIP:1), piControl (AerChemMIP:1,DAMIP:1,HighResMIP:1)"
  },
  "dms": {
    "CCCma TS var name": "DMS_MC",
    "CCCma diag file": "gp",
    "CCCma optional deck": "mltby0.9",
    "CCCma hist file": "ss",
    "CCCma hist var names": "DMS",
    "CCCma check": "Knut/Jason",
    "CCCma comment": "0.9*DMS",
    "MIPs (requesting)": "  AerChemMIP(1,1,1,1,1), CFMIP(1,1,1,1,1), DAMIP(1,1)",
    "experiments": "  abrupt-4xCO2 (AerChemMIP:1,CFMIP:1), amip (AerChemMIP:1,CFMIP:1), 1pctCO2 (AerChemMIP:1,CFMIP:1), historical (AerChemMIP:1,CFMIP:1,DAMIP:1), piControl (AerChemMIP:1,CFMIP:1,DAMIP:1)"
  },
  "drybc": {
    "CCCma TS var name": "DDB",
    "CCCma diag file": "gp",
    "CCCma hist file": "gs",
    "CCCma hist var names": "DDB",
    "CCCma check": "Knut/Jason",
    "MIPs (requesting)": "  AerChemMIP(1,1,1,1,1), DAMIP(1,1), HighResMIP(1,1,1)",
    "experiments": "  abrupt-4xCO2 (AerChemMIP:1), amip (AerChemMIP:1,HighResMIP:1), 1pctCO2 (AerChemMIP:1), historical (AerChemMIP:1,DAMIP:1,HighResMIP:1), piControl (AerChemMIP:1,DAMIP:1,HighResMIP:1)"
  },
  "drydust": {
    "CCCma TS var name": "DDD",
    "CCCma diag file": "gp",
    "CCCma hist file": "gs",
    "CCCma hist var names": "DDD",
    "CCCma check": "Knut/Jason",
    "MIPs (requesting)": "  AerChemMIP(1,1,1,1,1), DAMIP(1,1), GeoMIP(1,1,1), HighResMIP(1,1,1), PMIP(1,1,1,1,1), VIACSAB(1,1,1)",
    "experiments": "  abrupt-4xCO2 (AerChemMIP:1,GeoMIP:1,PMIP:1), amip (AerChemMIP:1,HighResMIP:1,PMIP:1,VIACSAB:1), 1pctCO2 (AerChemMIP:1,PMIP:1), historical (AerChemMIP:1,DAMIP:1,GeoMIP:1,HighResMIP:1,PMIP:1,VIACSAB:1), piControl (AerChemMIP:1,DAMIP:1,GeoMIP:1,HighResMIP:1,PMIP:1,VIACSAB:1)"
  },
  "drynh3": {
    "CCCma TS var name": null,
    "CCCma diag file": null,
    "CCCma check": "N/A, Jason",
    "MIPs (requesting)": "  AerChemMIP(1,1,1,1,1), DAMIP(1,1), HighResMIP(1,1,1), VIACSAB(1,1,1,1,1)",
    "experiments": "  abrupt-4xCO2 (AerChemMIP:1), amip (AerChemMIP:1,HighResMIP:1,VIACSAB:1), 1pctCO2 (AerChemMIP:1,VIACSAB:1), historical (AerChemMIP:1,DAMIP:1,HighResMIP:1,VIACSAB:1,VIACSAB:1), piControl (AerChemMIP:1,DAMIP:1,HighResMIP:1,VIACSAB:1)"
  },
  "drynh4": {
    "CCCma TS var name": null,
    "CCCma diag file": null,
    "CCCma check": "N/A, Jason",
    "MIPs (requesting)": "  AerChemMIP(1,1,1,1,1), DAMIP(1,1), HighResMIP(1,1,1), VIACSAB(1,1,1,1,1)",
    "experiments": "  abrupt-4xCO2 (AerChemMIP:1), amip (AerChemMIP:1,HighResMIP:1,VIACSAB:1), 1pctCO2 (AerChemMIP:1,VIACSAB:1), historical (AerChemMIP:1,DAMIP:1,HighResMIP:1,VIACSAB:1,VIACSAB:1), piControl (AerChemMIP:1,DAMIP:1,HighResMIP:1,VIACSAB:1)"
  },
  "drynoy": {
    "CCCma TS var name": null,
    "CCCma diag file": null,
    "CCCma check": "N/A, Jason",
    "MIPs (requesting)": "  AerChemMIP(1,1,1,1,1), DAMIP(1,1), HighResMIP(1,1,1)",
    "experiments": "  abrupt-4xCO2 (AerChemMIP:1), amip (AerChemMIP:1,HighResMIP:1), 1pctCO2 (AerChemMIP:1), historical (AerChemMIP:1,DAMIP:1,HighResMIP:1), piControl (AerChemMIP:1,DAMIP:1,HighResMIP:1)"
  },
  "dryo3": {
    "CCCma TS var name": null,
    "CCCma diag file": null,
    "CCCma check": "N/A, Jason",
    "MIPs (requesting)": "  AerChemMIP(1,1,1,1,1), DAMIP(1,1), HighResMIP(1,1,1)",
    "experiments": "  abrupt-4xCO2 (AerChemMIP:1), amip (AerChemMIP:1,HighResMIP:1), 1pctCO2 (AerChemMIP:1), historical (AerChemMIP:1,DAMIP:1,HighResMIP:1), piControl (AerChemMIP:1,DAMIP:1,HighResMIP:1)"
  },
  "dryoa": {
    "CCCma TS var name": null,
    "CCCma diag file": null,
    "CCCma check": "N/A, Jason",
    "MIPs (requesting)": "  AerChemMIP(1,1,1,1,1), DAMIP(1,1), HighResMIP(1,1,1), VIACSAB(1,1,1)",
    "experiments": "  abrupt-4xCO2 (AerChemMIP:1), amip (AerChemMIP:1,HighResMIP:1,VIACSAB:1), 1pctCO2 (AerChemMIP:1), historical (AerChemMIP:1,DAMIP:1,HighResMIP:1,VIACSAB:1), piControl (AerChemMIP:1,DAMIP:1,HighResMIP:1,VIACSAB:1)"
  },
  "dryso2": {
    "CCCma TS var name": "DD4",
    "CCCma diag file": "gp",
    "CCCma optional deck": "mltby2",
    "CCCma hist file": "gs",
    "CCCma hist var names": "DD4",
    "CCCma check": "Knut/Jason",
    "CCCma comment": "2*DD4",
    "MIPs (requesting)": "  AerChemMIP(1,1,1,1,1), DAMIP(1,1), GeoMIP(1,1,1), HighResMIP(1,1,1), VIACSAB(1,1,1)",
    "experiments": "  abrupt-4xCO2 (AerChemMIP:1,GeoMIP:1), amip (AerChemMIP:1,HighResMIP:1,VIACSAB:1), 1pctCO2 (AerChemMIP:1), historical (AerChemMIP:1,DAMIP:1,GeoMIP:1,HighResMIP:1,VIACSAB:1), piControl (AerChemMIP:1,DAMIP:1,GeoMIP:1,HighResMIP:1,VIACSAB:1)"
  },
  "dryso4": {
    "CCCma TS var name": "DD6",
    "CCCma diag file": "gp",
    "CCCma optional deck": "mltby3",
    "CCCma hist file": "gs",
    "CCCma hist var names": "DD6",
    "CCCma check": "Knut/Jason",
    "CCCma comment": "3*DD6",
    "MIPs (requesting)": "  AerChemMIP(1,1,1,1,1), DAMIP(1,1), GeoMIP(1,1,1), HighResMIP(1,1,1), VIACSAB(1,1,1)",
    "experiments": "  abrupt-4xCO2 (AerChemMIP:1,GeoMIP:1), amip (AerChemMIP:1,HighResMIP:1,VIACSAB:1), 1pctCO2 (AerChemMIP:1), historical (AerChemMIP:1,DAMIP:1,GeoMIP:1,HighResMIP:1,VIACSAB:1), piControl (AerChemMIP:1,DAMIP:1,GeoMIP:1,HighResMIP:1,VIACSAB:1)"
  },
  "dryss": {
    "CCCma TS var name": null,
    "CCCma diag file": null,
    "CCCma check": "N/A, Jason",
    "MIPs (requesting)": "  AerChemMIP(1,1,1,1,1), DAMIP(1,1), GeoMIP(1,1,1), HighResMIP(1,1,1), VIACSAB(1,1,1)",
    "experiments": "  abrupt-4xCO2 (AerChemMIP:1,GeoMIP:1), amip (AerChemMIP:1,HighResMIP:1,VIACSAB:1), 1pctCO2 (AerChemMIP:1), historical (AerChemMIP:1,DAMIP:1,GeoMIP:1,HighResMIP:1,VIACSAB:1), piControl (AerChemMIP:1,DAMIP:1,GeoMIP:1,HighResMIP:1,VIACSAB:1)"
  },
  "emiaco": {
    "CCCma TS var name": null,
    "CCCma diag file": null,
    "CCCma check": "N/A, Jason",
    "MIPs (requesting)": "  AerChemMIP(1,1,1,1,1), DAMIP(1,1), HighResMIP(1,1,1)",
    "experiments": "  abrupt-4xCO2 (AerChemMIP:1), amip (AerChemMIP:1,HighResMIP:1), 1pctCO2 (AerChemMIP:1), historical (AerChemMIP:1,DAMIP:1,HighResMIP:1), piControl (AerChemMIP:1,DAMIP:1,HighResMIP:1)"
  },
  "emianox": {
    "CCCma TS var name": null,
    "CCCma diag file": null,
    "CCCma check": "N/A, Jason",
    "MIPs (requesting)": "  AerChemMIP(1,1,1,1,1), DAMIP(1,1), HighResMIP(1,1,1)",
    "experiments": "  abrupt-4xCO2 (AerChemMIP:1), amip (AerChemMIP:1,HighResMIP:1), 1pctCO2 (AerChemMIP:1), historical (AerChemMIP:1,DAMIP:1,HighResMIP:1), piControl (AerChemMIP:1,DAMIP:1,HighResMIP:1)"
  },
  "emiaoa": {
    "CCCma TS var name": null,
    "CCCma diag file": null,
    "CCCma check": "N/A, Jason",
    "MIPs (requesting)": "  AerChemMIP(1,1,1,1,1), DAMIP(1,1), HighResMIP(1,1,1)",
    "experiments": "  abrupt-4xCO2 (AerChemMIP:1), amip (AerChemMIP:1,HighResMIP:1), 1pctCO2 (AerChemMIP:1), historical (AerChemMIP:1,DAMIP:1,HighResMIP:1), piControl (AerChemMIP:1,DAMIP:1,HighResMIP:1)"
  },
  "emibc": {
    "CCCma TS var name": "ESFB EAIB ESTB EFIB",
    "CCCma diag file": "gp",
    "CCCma optional deck": "addfour",
    "CCCma hist file": "gs",
    "CCCma hist var names": "ESFB EAIB ESTB EFIB",
    "CCCma check": "Knut/Jason",
    "CCCma comment": "ESFB+EAIB+ESTB+EFIB",
    "MIPs (requesting)": "  AerChemMIP(1,1,1,1,1), DAMIP(1,1), HighResMIP(1,1,1), VIACSAB(1,1,1)",
    "experiments": "  abrupt-4xCO2 (AerChemMIP:1), amip (AerChemMIP:1,HighResMIP:1,VIACSAB:1), 1pctCO2 (AerChemMIP:1), historical (AerChemMIP:1,DAMIP:1,HighResMIP:1,VIACSAB:1), piControl (AerChemMIP:1,DAMIP:1,HighResMIP:1,VIACSAB:1)"
  },
  "emibvoc": {
    "CCCma TS var name": null,
    "CCCma diag file": null,
    "CCCma check": "N/A, Jason",
    "MIPs (requesting)": "  AerChemMIP(1,1,1,1,1), DAMIP(1,1), HighResMIP(1,1,1)",
    "experiments": "  abrupt-4xCO2 (AerChemMIP:1), amip (AerChemMIP:1,HighResMIP:1), 1pctCO2 (AerChemMIP:1), historical (AerChemMIP:1,DAMIP:1,HighResMIP:1), piControl (AerChemMIP:1,DAMIP:1,HighResMIP:1)"
  },
  "emico": {
    "CCCma TS var name": null,
    "CCCma diag file": null,
    "CCCma check": "N/A, Jason",
    "MIPs (requesting)": "  AerChemMIP(1,1,1,1,1), DAMIP(1,1), HighResMIP(1,1,1)",
    "experiments": "  abrupt-4xCO2 (AerChemMIP:1), amip (AerChemMIP:1,HighResMIP:1), 1pctCO2 (AerChemMIP:1), historical (AerChemMIP:1,DAMIP:1,HighResMIP:1), piControl (AerChemMIP:1,DAMIP:1,HighResMIP:1)"
  },
  "emidms": {
    "CCCma TS var name": "EDSL EDSO",
    "CCCma diag file": "gp",
    "CCCma optional deck": "addtwomltby1.94",
    "CCCma hist file": "gs",
    "CCCma hist var names": "EDSL EDSO",
    "CCCma check": "Knut/Jason",
    "CCCma comment": "1.94*(EDSL+EDSO)",
    "MIPs (requesting)": "  AerChemMIP(1,1,1,1,1), DAMIP(1,1), HighResMIP(1,1,1), VIACSAB(1,1,1)",
    "experiments": "  abrupt-4xCO2 (AerChemMIP:1), amip (AerChemMIP:1,HighResMIP:1,VIACSAB:1), 1pctCO2 (AerChemMIP:1), historical (AerChemMIP:1,DAMIP:1,HighResMIP:1,VIACSAB:1), piControl (AerChemMIP:1,DAMIP:1,HighResMIP:1,VIACSAB:1)"
  },
  "emidust": {
    "CCCma TS var name": "ESD",
    "CCCma diag file": "gp",
    "CCCma hist file": "gs",
    "CCCma hist var names": "ESD",
    "CCCma check": "Knut/Jason",
    "MIPs (requesting)": "  AerChemMIP(1,1,1,1,1), DAMIP(1,1), GeoMIP(1,1,1), HighResMIP(1,1,1), PMIP(1,1,1,1,1), VIACSAB(1,1,1)",
    "experiments": "  abrupt-4xCO2 (AerChemMIP:1,GeoMIP:1,PMIP:1), amip (AerChemMIP:1,HighResMIP:1,PMIP:1,VIACSAB:1), 1pctCO2 (AerChemMIP:1,PMIP:1), historical (AerChemMIP:1,DAMIP:1,GeoMIP:1,HighResMIP:1,PMIP:1,VIACSAB:1), piControl (AerChemMIP:1,DAMIP:1,GeoMIP:1,HighResMIP:1,PMIP:1,VIACSAB:1)"
  },
  "emiisop": {
    "CCCma TS var name": null,
    "CCCma diag file": null,
    "CCCma check": "N/A, Jason",
    "MIPs (requesting)": "  AerChemMIP(1,1,1,1,1), DAMIP(1,1), HighResMIP(1,1,1)",
    "experiments": "  abrupt-4xCO2 (AerChemMIP:1), amip (AerChemMIP:1,HighResMIP:1), 1pctCO2 (AerChemMIP:1), historical (AerChemMIP:1,DAMIP:1,HighResMIP:1), piControl (AerChemMIP:1,DAMIP:1,HighResMIP:1)"
  },
  "emilnox": {
    "CCCma TS var name": null,
    "CCCma diag file": null,
    "CCCma check": "N/A, Jason",
    "MIPs (requesting)": "  AerChemMIP(1,1,1,1,1), DAMIP(1,1)",
    "experiments": "  abrupt-4xCO2 (AerChemMIP:1), amip (AerChemMIP:1), 1pctCO2 (AerChemMIP:1), historical (AerChemMIP:1,DAMIP:1), piControl (AerChemMIP:1,DAMIP:1)"
  },
  "eminh3": {
    "CCCma TS var name": null,
    "CCCma diag file": null,
    "CCCma check": "N/A, Jason",
    "MIPs (requesting)": "  AerChemMIP(1,1,1,1,1), DAMIP(1,1), HighResMIP(1,1,1), VIACSAB(1,1,1)",
    "experiments": "  abrupt-4xCO2 (AerChemMIP:1), amip (AerChemMIP:1,HighResMIP:1,VIACSAB:1), 1pctCO2 (AerChemMIP:1), historical (AerChemMIP:1,DAMIP:1,HighResMIP:1,VIACSAB:1), piControl (AerChemMIP:1,DAMIP:1,HighResMIP:1,VIACSAB:1)"
  },
  "eminox": {
    "CCCma TS var name": null,
    "CCCma diag file": null,
    "CCCma check": "N/A, Jason",
    "MIPs (requesting)": "  AerChemMIP(1,1,1,1,1), DAMIP(1,1), HighResMIP(1,1,1)",
    "experiments": "  abrupt-4xCO2 (AerChemMIP:1), amip (AerChemMIP:1,HighResMIP:1), 1pctCO2 (AerChemMIP:1), historical (AerChemMIP:1,DAMIP:1,HighResMIP:1), piControl (AerChemMIP:1,DAMIP:1,HighResMIP:1)"
  },
  "emioa": {
    "CCCma TS var name": null,
    "CCCma diag file": null,
    "CCCma check": "N/A, Jason",
    "MIPs (requesting)": "  AerChemMIP(1,1,1,1,1), DAMIP(1,1), HighResMIP(1,1,1)",
    "experiments": "  abrupt-4xCO2 (AerChemMIP:1), amip (AerChemMIP:1,HighResMIP:1), 1pctCO2 (AerChemMIP:1), historical (AerChemMIP:1,DAMIP:1,HighResMIP:1), piControl (AerChemMIP:1,DAMIP:1,HighResMIP:1)"
  },
  "emiso2": {
    "CCCma TS var name": "ESFS EAIS ESTS EFIS ESVC ESVE NOXD DOXD",
    "CCCma diag file": "gp",
    "CCCma optional deck": "addeightmltby2",
    "CCCma hist file": "gs",
    "CCCma hist var names": "ESFS EAIS ESTS EFIS ESVC ESVE NOXD DOXD",
    "CCCma check": "Knut/Jason",
    "CCCma comment": "2.00*(ESFS+EAIS+ESTS+EFIS+ESVC+ESVE+NOXD+DOXD)",
    "MIPs (requesting)": "  AerChemMIP(1,1,1,1,1), DAMIP(1,1), GeoMIP(1,1,1), HighResMIP(1,1,1), VIACSAB(1,1,1)",
    "experiments": "  abrupt-4xCO2 (AerChemMIP:1,GeoMIP:1), amip (AerChemMIP:1,HighResMIP:1,VIACSAB:1), 1pctCO2 (AerChemMIP:1), historical (AerChemMIP:1,DAMIP:1,GeoMIP:1,HighResMIP:1,VIACSAB:1), piControl (AerChemMIP:1,DAMIP:1,GeoMIP:1,HighResMIP:1,VIACSAB:1)"
  },
  "emiso4": {
    "CCCma TS var name": "ESFS",
    "CCCma diag file": "gp",
    "CCCma optional deck": "mltby0",
    "CCCma hist file": "gs",
    "CCCma hist var names": "ESFS",
    "CCCma check": "Knut/Jason",
    "CCCma comment": "0.0*ESFS",
    "MIPs (requesting)": "  AerChemMIP(1,1,1,1,1), DAMIP(1,1), GeoMIP(1,1,1), HighResMIP(1,1,1), VIACSAB(1,1,1)",
    "experiments": "  abrupt-4xCO2 (AerChemMIP:1,GeoMIP:1), amip (AerChemMIP:1,HighResMIP:1,VIACSAB:1), 1pctCO2 (AerChemMIP:1), historical (AerChemMIP:1,DAMIP:1,GeoMIP:1,HighResMIP:1,VIACSAB:1), piControl (AerChemMIP:1,DAMIP:1,GeoMIP:1,HighResMIP:1,VIACSAB:1)"
  },
  "emiss": {
    "CCCma TS var name": null,
    "CCCma diag file": null,
    "CCCma check": "N/A, Jason",
    "MIPs (requesting)": "  AerChemMIP(1,1,1,1,1), DAMIP(1,1), GeoMIP(1,1,1), HighResMIP(1,1,1), VIACSAB(1,1,1)",
    "experiments": "  abrupt-4xCO2 (AerChemMIP:1,GeoMIP:1), amip (AerChemMIP:1,HighResMIP:1,VIACSAB:1), 1pctCO2 (AerChemMIP:1), historical (AerChemMIP:1,DAMIP:1,GeoMIP:1,HighResMIP:1,VIACSAB:1), piControl (AerChemMIP:1,DAMIP:1,GeoMIP:1,HighResMIP:1,VIACSAB:1)"
  },
  "emivoc": {
    "CCCma TS var name": null,
    "CCCma diag file": null,
    "CCCma check": "N/A, Jason",
    "MIPs (requesting)": "  AerChemMIP(1,1,1,1,1), DAMIP(1,1), HighResMIP(1,1,1)",
    "experiments": "  abrupt-4xCO2 (AerChemMIP:1), amip (AerChemMIP:1,HighResMIP:1), 1pctCO2 (AerChemMIP:1), historical (AerChemMIP:1,DAMIP:1,HighResMIP:1), piControl (AerChemMIP:1,DAMIP:1,HighResMIP:1)"
  },
  "h2o": {
    "CCCma TS var name": null,
    "CCCma diag file": null,
    "CCCma check": "N/A, Jason",
    "MIPs (requesting)": "  AerChemMIP(1,1,1,1,1), DAMIP(1,1)",
    "experiments": "  abrupt-4xCO2 (AerChemMIP:1), amip (AerChemMIP:1), 1pctCO2 (AerChemMIP:1), historical (AerChemMIP:1,DAMIP:1), piControl (AerChemMIP:1,DAMIP:1)"
  },
  "hcho": {
    "CCCma TS var name": null,
    "CCCma diag file": null,
    "CCCma check": "N/A, Jason",
    "MIPs (requesting)": "  AerChemMIP(1,1,1,1,1), DAMIP(1,1)",
    "experiments": "  abrupt-4xCO2 (AerChemMIP:1), amip (AerChemMIP:1), 1pctCO2 (AerChemMIP:1), historical (AerChemMIP:1,DAMIP:1), piControl (AerChemMIP:1,DAMIP:1)"
  },
  "hcl": {
    "CCCma TS var name": null,
    "CCCma diag file": null,
    "CCCma check": "N/A, Jason",
    "MIPs (requesting)": "  AerChemMIP(1,1,1,1,1), DAMIP(1,1)",
    "experiments": "  abrupt-4xCO2 (AerChemMIP:1), amip (AerChemMIP:1), 1pctCO2 (AerChemMIP:1), historical (AerChemMIP:1,DAMIP:1), piControl (AerChemMIP:1,DAMIP:1)"
  },
  "hno3": {
    "CCCma TS var name": null,
    "CCCma diag file": null,
    "CCCma check": "N/A, Jason",
    "MIPs (requesting)": "  AerChemMIP(1,1,1,1,1), DAMIP(1,1)",
    "experiments": "  abrupt-4xCO2 (AerChemMIP:1), amip (AerChemMIP:1), 1pctCO2 (AerChemMIP:1), historical (AerChemMIP:1,DAMIP:1), piControl (AerChemMIP:1,DAMIP:1)"
  },
  "isop": {
    "CCCma TS var name": null,
    "CCCma diag file": null,
    "CCCma check": "N/A, Jason",
    "MIPs (requesting)": "  AerChemMIP(1,1,1,1,1), DAMIP(1,1)",
    "experiments": "  abrupt-4xCO2 (AerChemMIP:1), amip (AerChemMIP:1), 1pctCO2 (AerChemMIP:1), historical (AerChemMIP:1,DAMIP:1), piControl (AerChemMIP:1,DAMIP:1)"
  },
  "jno2": {
    "CCCma TS var name": null,
    "CCCma diag file": null,
    "CCCma check": "N/A, Jason",
    "MIPs (requesting)": "  AerChemMIP(1,1,1,1,1), DAMIP(1,1)",
    "experiments": "  abrupt-4xCO2 (AerChemMIP:1), amip (AerChemMIP:1), 1pctCO2 (AerChemMIP:1), historical (AerChemMIP:1,DAMIP:1), piControl (AerChemMIP:1,DAMIP:1)"
  },
  "lossch4": {
    "CCCma TS var name": null,
    "CCCma diag file": null,
    "CCCma check": "N/A, Jason",
    "MIPs (requesting)": "  AerChemMIP(1,1,1,1,1), DAMIP(1,1)",
    "experiments": "  abrupt-4xCO2 (AerChemMIP:1), amip (AerChemMIP:1), 1pctCO2 (AerChemMIP:1), historical (AerChemMIP:1,DAMIP:1), piControl (AerChemMIP:1,DAMIP:1)"
  },
  "lossco": {
    "CCCma TS var name": null,
    "CCCma diag file": null,
    "CCCma check": "N/A, Jason",
    "MIPs (requesting)": "  AerChemMIP(1,1,1,1,1), DAMIP(1,1)",
    "experiments": "  abrupt-4xCO2 (AerChemMIP:1), amip (AerChemMIP:1), 1pctCO2 (AerChemMIP:1), historical (AerChemMIP:1,DAMIP:1), piControl (AerChemMIP:1,DAMIP:1)"
  },
  "lossn2o": {
    "CCCma TS var name": null,
    "CCCma diag file": null,
    "CCCma check": "N/A, Jason",
    "MIPs (requesting)": "  AerChemMIP(1,1,1,1,1), DAMIP(1,1)",
    "experiments": "  abrupt-4xCO2 (AerChemMIP:1), amip (AerChemMIP:1), 1pctCO2 (AerChemMIP:1), historical (AerChemMIP:1,DAMIP:1), piControl (AerChemMIP:1,DAMIP:1)"
  },
  "lwp": {
    "CCCma TS var name": "CLWT",
    "CCCma diag file": "gp",
    "CCCma hist file": "gs",
    "CCCma hist var names": "CLWT",
    "CCCma check": "Jason",
    "MIPs (requesting)": "  AerChemMIP(1,1,1,1,1), DAMIP(1,1), HighResMIP(1,1,1), PMIP(1,1,1,1,1)",
    "experiments": "  abrupt-4xCO2 (AerChemMIP:1,PMIP:1), amip (AerChemMIP:1,HighResMIP:1,PMIP:1), 1pctCO2 (AerChemMIP:1,PMIP:1), historical (AerChemMIP:1,DAMIP:1,HighResMIP:1,PMIP:1), piControl (AerChemMIP:1,DAMIP:1,HighResMIP:1,PMIP:1)"
  },
  "mmraerh2o": {
    "CCCma TS var name": null,
    "CCCma diag file": null,
    "CCCma check": "N/A, Jason",
    "MIPs (requesting)": "  AerChemMIP(1,1,1,1,1), DAMIP(1,1), GeoMIP(1,1,1)",
    "experiments": "  abrupt-4xCO2 (AerChemMIP:1,GeoMIP:1), amip (AerChemMIP:1), 1pctCO2 (AerChemMIP:1), historical (AerChemMIP:1,DAMIP:1,GeoMIP:1), piControl (AerChemMIP:1,DAMIP:1,GeoMIP:1)"
  },
  "mmrbc": {
    "CCCma TS var name": "BCO BCY",
    "CCCma diag file": "gp",
    "CCCma optional deck": "addtwo",
    "CCCma hist file": "ss",
    "CCCma hist var names": "BCO BCY",
    "CCCma check": "Knut/Jason",
    "MIPs (requesting)": "  AerChemMIP(1,1,1,1,1), CFMIP(1,1,1,1,1), DAMIP(1,1), PMIP(1,1,1,1,1)",
    "experiments": "  abrupt-4xCO2 (AerChemMIP:1,CFMIP:1,PMIP:1), amip (AerChemMIP:1,CFMIP:1,PMIP:1), 1pctCO2 (AerChemMIP:1,CFMIP:1,PMIP:1), historical (AerChemMIP:1,CFMIP:1,DAMIP:1,PMIP:1), piControl (AerChemMIP:1,CFMIP:1,DAMIP:1,PMIP:1)"
  },
  "mmrdust": {
    "CCCma TS var name": "DUA DUC",
    "CCCma diag file": "gp",
    "CCCma optional deck": "addtwo",
    "CCCma hist file": "ss",
    "CCCma hist var names": "DUA DUC",
    "CCCma check": "Knut/Jason",
    "MIPs (requesting)": "  AerChemMIP(1,1,1,1,1), CFMIP(1,1,1,1,1), DAMIP(1,1), GeoMIP(1,1,1), PMIP(1,1,1,1,1)",
    "experiments": "  abrupt-4xCO2 (AerChemMIP:1,CFMIP:1,GeoMIP:1,PMIP:1), amip (AerChemMIP:1,CFMIP:1,PMIP:1), 1pctCO2 (AerChemMIP:1,CFMIP:1,PMIP:1), historical (AerChemMIP:1,CFMIP:1,DAMIP:1,GeoMIP:1,PMIP:1), piControl (AerChemMIP:1,CFMIP:1,DAMIP:1,GeoMIP:1,PMIP:1)"
  },
  "mmrnh4": {
    "CCCma TS var name": null,
    "CCCma diag file": null,
    "CCCma check": "N/A, Jason",
    "MIPs (requesting)": "  AerChemMIP(1,1,1,1,1), CFMIP(1,1,1,1,1), DAMIP(1,1)",
    "experiments": "  abrupt-4xCO2 (AerChemMIP:1,CFMIP:1), amip (AerChemMIP:1,CFMIP:1), 1pctCO2 (AerChemMIP:1,CFMIP:1), historical (AerChemMIP:1,CFMIP:1,DAMIP:1), piControl (AerChemMIP:1,CFMIP:1,DAMIP:1)"
  },
  "mmrno3": {
    "CCCma TS var name": null,
    "CCCma diag file": null,
    "CCCma check": "N/A, Jason",
    "MIPs (requesting)": "  AerChemMIP(1,1,1,1,1), CFMIP(1,1,1,1,1), DAMIP(1,1)",
    "experiments": "  abrupt-4xCO2 (AerChemMIP:1,CFMIP:1), amip (AerChemMIP:1,CFMIP:1), 1pctCO2 (AerChemMIP:1,CFMIP:1), historical (AerChemMIP:1,CFMIP:1,DAMIP:1), piControl (AerChemMIP:1,CFMIP:1,DAMIP:1)"
  },
  "mmroa": {
    "CCCma TS var name": "OCO OCY",
    "CCCma diag file": "gp",
    "CCCma optional deck": "addtwomltby1.4",
    "CCCma hist file": "ss",
    "CCCma hist var names": "OCO OCY",
    "CCCma check": "Knut/Jason",
    "CCCma comment": "1.4*(OCO+OCY)",
    "MIPs (requesting)": "  AerChemMIP(1,1,1,1,1), CFMIP(1,1,1,1,1), DAMIP(1,1)",
    "experiments": "  abrupt-4xCO2 (AerChemMIP:1,CFMIP:1), amip (AerChemMIP:1,CFMIP:1), 1pctCO2 (AerChemMIP:1,CFMIP:1), historical (AerChemMIP:1,CFMIP:1,DAMIP:1), piControl (AerChemMIP:1,CFMIP:1,DAMIP:1)"
  },
  "mmrpm1": {
    "CCCma TS var name": null,
    "CCCma diag file": null,
    "CCCma check": "N/A, Jason",
    "MIPs (requesting)": "  AerChemMIP(1,1,1,1,1), DAMIP(1,1)",
    "experiments": "  abrupt-4xCO2 (AerChemMIP:1), amip (AerChemMIP:1), 1pctCO2 (AerChemMIP:1), historical (AerChemMIP:1,DAMIP:1), piControl (AerChemMIP:1,DAMIP:1)"
  },
  "mmrpm10": {
    "CCCma TS var name": null,
    "CCCma diag file": null,
    "CCCma check": "N/A, Jason",
    "MIPs (requesting)": "  AerChemMIP(1,1,1,1,1), DAMIP(1,1)",
    "experiments": "  abrupt-4xCO2 (AerChemMIP:1), amip (AerChemMIP:1), 1pctCO2 (AerChemMIP:1), historical (AerChemMIP:1,DAMIP:1), piControl (AerChemMIP:1,DAMIP:1)"
  },
  "mmrpm2p5": {
    "CCCma TS var name": null,
    "CCCma diag file": null,
    "CCCma check": "N/A, Jason",
    "MIPs (requesting)": "  AerChemMIP(1,1,1,1,1), DAMIP(1,1)",
    "experiments": "  abrupt-4xCO2 (AerChemMIP:1), amip (AerChemMIP:1), 1pctCO2 (AerChemMIP:1), historical (AerChemMIP:1,DAMIP:1), piControl (AerChemMIP:1,DAMIP:1)"
  },
  "mmrso4": {
    "CCCma TS var name": "SO4",
    "CCCma diag file": "gp",
    "CCCma hist file": "ss",
    "CCCma hist var names": "SO4",
    "CCCma check": "Knut/Jason",
    "MIPs (requesting)": "  AerChemMIP(1,1,1,1,1), CFMIP(1,1,1,1,1), DAMIP(1,1), PMIP(1,1,1,1,1)",
    "experiments": "  abrupt-4xCO2 (AerChemMIP:1,CFMIP:1,PMIP:1), amip (AerChemMIP:1,CFMIP:1,PMIP:1), 1pctCO2 (AerChemMIP:1,CFMIP:1,PMIP:1), historical (AerChemMIP:1,CFMIP:1,DAMIP:1,PMIP:1), piControl (AerChemMIP:1,CFMIP:1,DAMIP:1,PMIP:1)"
  },
  "mmrsoa": {
    "CCCma TS var name": null,
    "CCCma diag file": null,
    "CCCma check": "N/A, Jason",
    "MIPs (requesting)": "  AerChemMIP(1,1,1,1,1), CFMIP(1,1,1,1,1), DAMIP(1,1)",
    "experiments": "  abrupt-4xCO2 (AerChemMIP:1,CFMIP:1), amip (AerChemMIP:1,CFMIP:1), 1pctCO2 (AerChemMIP:1,CFMIP:1), historical (AerChemMIP:1,CFMIP:1,DAMIP:1), piControl (AerChemMIP:1,CFMIP:1,DAMIP:1)"
  },
  "mmrss": {
    "CCCma TS var name": "SSC SSA",
    "CCCma diag file": "gp",
    "CCCma optional deck": "addtwo",
    "CCCma hist file": "ss",
    "CCCma hist var names": "SSC SSA",
    "CCCma check": "Knut/Jason",
    "MIPs (requesting)": "  AerChemMIP(1,1,1,1,1), CFMIP(1,1,1,1,1), DAMIP(1,1), GeoMIP(1,1,1), PMIP(1,1,1,1,1)",
    "experiments": "  abrupt-4xCO2 (AerChemMIP:1,CFMIP:1,GeoMIP:1,PMIP:1), amip (AerChemMIP:1,CFMIP:1,PMIP:1), 1pctCO2 (AerChemMIP:1,CFMIP:1,PMIP:1), historical (AerChemMIP:1,CFMIP:1,DAMIP:1,GeoMIP:1,PMIP:1), piControl (AerChemMIP:1,CFMIP:1,DAMIP:1,GeoMIP:1,PMIP:1)"
  },
  "n2o": {
    "CCCma TS var name": null,
    "CCCma diag file": null,
    "CCCma check": "N/A, Jason",
    "MIPs (requesting)": "  AerChemMIP(1,1,1,1,1), DAMIP(1,1)",
    "experiments": "  abrupt-4xCO2 (AerChemMIP:1), amip (AerChemMIP:1), 1pctCO2 (AerChemMIP:1), historical (AerChemMIP:1,DAMIP:1), piControl (AerChemMIP:1,DAMIP:1)"
  },
  "nh50": {
    "CCCma TS var name": null,
    "CCCma diag file": null,
    "CCCma check": "N/A, Jason",
    "MIPs (requesting)": "  AerChemMIP(1,1,1,1,1), DAMIP(1,1)",
    "experiments": "  abrupt-4xCO2 (AerChemMIP:1), amip (AerChemMIP:1), 1pctCO2 (AerChemMIP:1), historical (AerChemMIP:1,DAMIP:1), piControl (AerChemMIP:1,DAMIP:1)"
  },
  "no": {
    "CCCma TS var name": null,
    "CCCma diag file": null,
    "CCCma check": "N/A, Jason",
    "MIPs (requesting)": "  AerChemMIP(1,1,1,1,1), DAMIP(1,1)",
    "experiments": "  abrupt-4xCO2 (AerChemMIP:1), amip (AerChemMIP:1), 1pctCO2 (AerChemMIP:1), historical (AerChemMIP:1,DAMIP:1), piControl (AerChemMIP:1,DAMIP:1)"
  },
  "no2": {
    "CCCma TS var name": null,
    "CCCma diag file": null,
    "CCCma check": "N/A, Jason",
    "MIPs (requesting)": "  AerChemMIP(1,1,1,1,1), DAMIP(1,1)",
    "experiments": "  abrupt-4xCO2 (AerChemMIP:1), amip (AerChemMIP:1), 1pctCO2 (AerChemMIP:1), historical (AerChemMIP:1,DAMIP:1), piControl (AerChemMIP:1,DAMIP:1)"
  },
  "o3": {
    "CCCma TS var name": null,
    "CCCma diag file": null,
    "CCCma check": "?, See Amon",
    "MIPs (requesting)": "  AerChemMIP(1,1,1,1,1), DAMIP(1,1)",
    "experiments": "  abrupt-4xCO2 (AerChemMIP:1), amip (AerChemMIP:1), 1pctCO2 (AerChemMIP:1), historical (AerChemMIP:1,DAMIP:1), piControl (AerChemMIP:1,DAMIP:1)"
  },
  "o3loss": {
    "CCCma TS var name": null,
    "CCCma diag file": null,
    "CCCma check": "N/A, Jason",
    "MIPs (requesting)": "  AerChemMIP(1,1,1,1,1), DAMIP(1,1)",
    "experiments": "  abrupt-4xCO2 (AerChemMIP:1), amip (AerChemMIP:1), 1pctCO2 (AerChemMIP:1), historical (AerChemMIP:1,DAMIP:1), piControl (AerChemMIP:1,DAMIP:1)"
  },
  "o3prod": {
    "CCCma TS var name": null,
    "CCCma diag file": null,
    "CCCma check": "N/A, Jason",
    "MIPs (requesting)": "  AerChemMIP(1,1,1,1,1), DAMIP(1,1)",
    "experiments": "  abrupt-4xCO2 (AerChemMIP:1), amip (AerChemMIP:1), 1pctCO2 (AerChemMIP:1), historical (AerChemMIP:1,DAMIP:1), piControl (AerChemMIP:1,DAMIP:1)"
  },
  "o3ste": {
    "CCCma TS var name": null,
    "CCCma diag file": null,
    "CCCma check": "?, just a unit change?",
    "MIPs (requesting)": "  AerChemMIP(1,1,1,1,1), DAMIP(1,1)",
    "experiments": "  abrupt-4xCO2 (AerChemMIP:1), amip (AerChemMIP:1), 1pctCO2 (AerChemMIP:1), historical (AerChemMIP:1,DAMIP:1), piControl (AerChemMIP:1,DAMIP:1)"
  },
  "od440aer": {
    "CCCma TS var name": null,
    "CCCma diag file": null,
    "CCCma check": "N/A, Jason",
    "MIPs (requesting)": "  AerChemMIP(1,1,1,1,1), DAMIP(1,1), HighResMIP(1,1,1)",
    "experiments": "  abrupt-4xCO2 (AerChemMIP:1), amip (AerChemMIP:1,HighResMIP:1), 1pctCO2 (AerChemMIP:1), historical (AerChemMIP:1,DAMIP:1,HighResMIP:1), piControl (AerChemMIP:1,DAMIP:1,HighResMIP:1)"
  },
  "od550aer": {
    "CCCma TS var name": "ODST",
    "CCCma diag file": "gp",
    "CCCma hist file": "gs",
    "CCCma hist var names": "ODST",
    "CCCma check": "Knut/Jason",
    "MIPs (requesting)": "  AerChemMIP(1,1,1,1,1), CFMIP(1,1,1,1,1), DAMIP(1,1), GeoMIP(1,1,1), HighResMIP(1,1,1), PMIP(1,1,1,1,1), VIACSAB(1,1,1)",
    "experiments": "  abrupt-4xCO2 (AerChemMIP:1,CFMIP:1,GeoMIP:1,PMIP:1), amip (AerChemMIP:1,CFMIP:1,HighResMIP:1,PMIP:1,VIACSAB:1), 1pctCO2 (AerChemMIP:1,CFMIP:1,PMIP:1), historical (AerChemMIP:1,CFMIP:1,DAMIP:1,GeoMIP:1,HighResMIP:1,PMIP:1,VIACSAB:1), piControl (AerChemMIP:1,CFMIP:1,DAMIP:1,GeoMIP:1,HighResMIP:1,PMIP:1,VIACSAB:1)"
  },
  "od550aerh2o": {
    "CCCma TS var name": null,
    "CCCma diag file": null,
    "CCCma check": "N/A, Jason",
    "MIPs (requesting)": "  AerChemMIP(1,1,1,1,1), DAMIP(1,1), HighResMIP(1,1,1)",
    "experiments": "  abrupt-4xCO2 (AerChemMIP:1), amip (AerChemMIP:1,HighResMIP:1), 1pctCO2 (AerChemMIP:1), historical (AerChemMIP:1,DAMIP:1,HighResMIP:1), piControl (AerChemMIP:1,DAMIP:1,HighResMIP:1)"
  },
  "od550bb": {
    "CCCma TS var name": null,
    "CCCma diag file": null,
    "CCCma check": "N/A, Jason",
    "MIPs (requesting)": "  AerChemMIP(1,1,1,1,1), DAMIP(1,1), HighResMIP(1,1,1)",
    "experiments": "  abrupt-4xCO2 (AerChemMIP:1), amip (AerChemMIP:1,HighResMIP:1), 1pctCO2 (AerChemMIP:1), historical (AerChemMIP:1,DAMIP:1,HighResMIP:1), piControl (AerChemMIP:1,DAMIP:1,HighResMIP:1)"
  },
  "od550bc": {
    "CCCma TS var name": null,
    "CCCma diag file": null,
    "CCCma check": "N/A, Jason",
    "MIPs (requesting)": "  AerChemMIP(1,1,1,1,1), DAMIP(1,1), HighResMIP(1,1,1)",
    "experiments": "  abrupt-4xCO2 (AerChemMIP:1), amip (AerChemMIP:1,HighResMIP:1), 1pctCO2 (AerChemMIP:1), historical (AerChemMIP:1,DAMIP:1,HighResMIP:1), piControl (AerChemMIP:1,DAMIP:1,HighResMIP:1)"
  },
  "od550csaer": {
    "CCCma TS var name": "ODST",
    "CCCma diag file": "gp",
    "CCCma hist file": "gs",
    "CCCma hist var names": "ODST",
    "CCCma check": "Knut/Jason",
    "MIPs (requesting)": "  AerChemMIP(1,1,1,1,1), DAMIP(1,1), HighResMIP(1,1,1)",
    "experiments": "  abrupt-4xCO2 (AerChemMIP:1), amip (AerChemMIP:1,HighResMIP:1), 1pctCO2 (AerChemMIP:1), historical (AerChemMIP:1,DAMIP:1,HighResMIP:1), piControl (AerChemMIP:1,DAMIP:1,HighResMIP:1)"
  },
  "od550dust": {
    "CCCma TS var name": "ODS3",
    "CCCma diag file": "gp",
    "CCCma hist file": "gs",
    "CCCma hist var names": "ODS3",
    "CCCma check": "Knut/Jason",
    "MIPs (requesting)": "  AerChemMIP(1,1,1,1,1), DAMIP(1,1), HighResMIP(1,1,1), PMIP(1,1,1,1,1)",
    "experiments": "  abrupt-4xCO2 (AerChemMIP:1,PMIP:1), amip (AerChemMIP:1,HighResMIP:1,PMIP:1), 1pctCO2 (AerChemMIP:1,PMIP:1), historical (AerChemMIP:1,DAMIP:1,HighResMIP:1,PMIP:1), piControl (AerChemMIP:1,DAMIP:1,HighResMIP:1,PMIP:1)"
  },
  "od550lt1aer": {
    "CCCma TS var name": null,
    "CCCma diag file": null,
    "CCCma check": "N/A, Jason",
    "MIPs (requesting)": "  AerChemMIP(1,1,1,1,1), CFMIP(1,1,1,1,1), DAMIP(1,1), GeoMIP(1,1,1), HighResMIP(1,1,1), VIACSAB(1,1,1)",
    "experiments": "  abrupt-4xCO2 (AerChemMIP:1,CFMIP:1,GeoMIP:1), amip (AerChemMIP:1,CFMIP:1,HighResMIP:1,VIACSAB:1), 1pctCO2 (AerChemMIP:1,CFMIP:1), historical (AerChemMIP:1,CFMIP:1,DAMIP:1,GeoMIP:1,HighResMIP:1,VIACSAB:1), piControl (AerChemMIP:1,CFMIP:1,DAMIP:1,GeoMIP:1,HighResMIP:1,VIACSAB:1)"
  },
  "od550no3": {
    "CCCma TS var name": null,
    "CCCma diag file": null,
    "CCCma check": "N/A, Jason",
    "MIPs (requesting)": "  AerChemMIP(1,1,1,1,1), DAMIP(1,1), HighResMIP(1,1,1)",
    "experiments": "  abrupt-4xCO2 (AerChemMIP:1), amip (AerChemMIP:1,HighResMIP:1), 1pctCO2 (AerChemMIP:1), historical (AerChemMIP:1,DAMIP:1,HighResMIP:1), piControl (AerChemMIP:1,DAMIP:1,HighResMIP:1)"
  },
  "od550oa": {
    "CCCma TS var name": null,
    "CCCma diag file": null,
    "CCCma check": "N/A, Jason",
    "MIPs (requesting)": "  AerChemMIP(1,1,1,1,1), DAMIP(1,1), HighResMIP(1,1,1)",
    "experiments": "  abrupt-4xCO2 (AerChemMIP:1), amip (AerChemMIP:1,HighResMIP:1), 1pctCO2 (AerChemMIP:1), historical (AerChemMIP:1,DAMIP:1,HighResMIP:1), piControl (AerChemMIP:1,DAMIP:1,HighResMIP:1)"
  },
  "od550so4": {
    "CCCma TS var name": null,
    "CCCma diag file": null,
    "CCCma check": "N/A, Jason",
    "MIPs (requesting)": "  AerChemMIP(1,1,1,1,1), DAMIP(1,1), HighResMIP(1,1,1), PMIP(1,1,1,1,1)",
    "experiments": "  abrupt-4xCO2 (AerChemMIP:1,PMIP:1), amip (AerChemMIP:1,HighResMIP:1,PMIP:1), 1pctCO2 (AerChemMIP:1,PMIP:1), historical (AerChemMIP:1,DAMIP:1,HighResMIP:1,PMIP:1), piControl (AerChemMIP:1,DAMIP:1,HighResMIP:1,PMIP:1)"
  },
  "od550soa": {
    "CCCma TS var name": null,
    "CCCma diag file": null,
    "CCCma check": "N/A, Jason",
    "MIPs (requesting)": "  AerChemMIP(1,1,1,1,1), DAMIP(1,1), HighResMIP(1,1,1)",
    "experiments": "  abrupt-4xCO2 (AerChemMIP:1), amip (AerChemMIP:1,HighResMIP:1), 1pctCO2 (AerChemMIP:1), historical (AerChemMIP:1,DAMIP:1,HighResMIP:1), piControl (AerChemMIP:1,DAMIP:1,HighResMIP:1)"
  },
  "od550ss": {
    "CCCma TS var name": "ODS2",
    "CCCma diag file": "gp",
    "CCCma hist file": "gs",
    "CCCma hist var names": "ODS2",
    "CCCma check": "Knut/Jason",
    "MIPs (requesting)": "  AerChemMIP(1,1,1,1,1), DAMIP(1,1), HighResMIP(1,1,1)",
    "experiments": "  abrupt-4xCO2 (AerChemMIP:1), amip (AerChemMIP:1,HighResMIP:1), 1pctCO2 (AerChemMIP:1), historical (AerChemMIP:1,DAMIP:1,HighResMIP:1), piControl (AerChemMIP:1,DAMIP:1,HighResMIP:1)"
  },
  "od870aer": {
    "CCCma TS var name": null,
    "CCCma diag file": null,
    "CCCma check": "N/A, Jason",
    "MIPs (requesting)": "  AerChemMIP(1,1,1,1,1), DAMIP(1,1), HighResMIP(1,1,1), VIACSAB(1,1,1)",
    "experiments": "  abrupt-4xCO2 (AerChemMIP:1), amip (AerChemMIP:1,HighResMIP:1,VIACSAB:1), 1pctCO2 (AerChemMIP:1), historical (AerChemMIP:1,DAMIP:1,HighResMIP:1,VIACSAB:1), piControl (AerChemMIP:1,DAMIP:1,HighResMIP:1,VIACSAB:1)"
  },
  "oh": {
    "CCCma TS var name": null,
    "CCCma diag file": null,
    "CCCma check": "N/A, Jason",
    "MIPs (requesting)": "  AerChemMIP(1,1,1,1,1), DAMIP(1,1)",
    "experiments": "  abrupt-4xCO2 (AerChemMIP:1), amip (AerChemMIP:1), 1pctCO2 (AerChemMIP:1), historical (AerChemMIP:1,DAMIP:1), piControl (AerChemMIP:1,DAMIP:1)"
  },
  "pan": {
    "CCCma TS var name": null,
    "CCCma diag file": null,
    "CCCma check": "N/A, Jason",
    "MIPs (requesting)": "  AerChemMIP(1,1,1,1,1), DAMIP(1,1)",
    "experiments": "  abrupt-4xCO2 (AerChemMIP:1), amip (AerChemMIP:1), 1pctCO2 (AerChemMIP:1), historical (AerChemMIP:1,DAMIP:1), piControl (AerChemMIP:1,DAMIP:1)"
  },
  "pfull": {
    "CCCma TS var name": null,
    "CCCma diag file": null,
    "CCCma check": "See Amon, same variable on different time?",
    "MIPs (requesting)": "  AerChemMIP(1,1,1,1,1), DAMIP(1,1), PMIP(1,1,1,1,1)",
    "experiments": "  abrupt-4xCO2 (AerChemMIP:1,PMIP:1), amip (AerChemMIP:1,PMIP:1), 1pctCO2 (AerChemMIP:1,PMIP:1), historical (AerChemMIP:1,DAMIP:1,PMIP:1), piControl (AerChemMIP:1,DAMIP:1,PMIP:1)"
  },
  "phalf": {
    "CCCma TS var name": null,
    "CCCma diag file": null,
    "CCCma check": "See Amon, same variable on different time?",
    "MIPs (requesting)": "  AerChemMIP(1,1,1,1,1), DAMIP(1,1), PMIP(1,1,1,1,1)",
    "experiments": "  abrupt-4xCO2 (AerChemMIP:1,PMIP:1), amip (AerChemMIP:1,PMIP:1), 1pctCO2 (AerChemMIP:1,PMIP:1), historical (AerChemMIP:1,DAMIP:1,PMIP:1), piControl (AerChemMIP:1,DAMIP:1,PMIP:1)"
  },
  "photo1d": {
    "CCCma TS var name": null,
    "CCCma diag file": null,
    "CCCma check": "N/A, Jason",
    "MIPs (requesting)": "  AerChemMIP(1,1,1,1,1), DAMIP(1,1)",
    "experiments": "  abrupt-4xCO2 (AerChemMIP:1), amip (AerChemMIP:1), 1pctCO2 (AerChemMIP:1), historical (AerChemMIP:1,DAMIP:1), piControl (AerChemMIP:1,DAMIP:1)"
  },
  "pod0": {
    "CCCma TS var name": null,
    "CCCma diag file": null,
    "CCCma check": "N/A, Jason",
    "MIPs (requesting)": "  AerChemMIP(1,1,1,1,1), DAMIP(1,1), HighResMIP(1,1,1)",
    "experiments": "  abrupt-4xCO2 (AerChemMIP:1), amip (AerChemMIP:1,HighResMIP:1), 1pctCO2 (AerChemMIP:1), historical (AerChemMIP:1,DAMIP:1,HighResMIP:1), piControl (AerChemMIP:1,DAMIP:1,HighResMIP:1)"
  },
  "ps": {
    "CCCma TS var name": "PS",
    "CCCma diag file": "gp",
    "CCCma optional deck": "mltby100",
    "CCCma units": "mb",
    "CCCma hist file": "ss",
    "CCCma hist var names": "LNSP",
    "CCCma hist var frequency": "Spectral at ISSP",
    "CCCma check": "Jason",
    "MIPs (requesting)": "  AerChemMIP(1,1,1,1,1), DAMIP(1,1), HighResMIP(1,1,1)",
    "experiments": "  abrupt-4xCO2 (AerChemMIP:1), amip (AerChemMIP:1,HighResMIP:1), 1pctCO2 (AerChemMIP:1), historical (AerChemMIP:1,DAMIP:1,HighResMIP:1), piControl (AerChemMIP:1,DAMIP:1,HighResMIP:1)"
  },
  "ptp": {
    "CCCma TS var name": null,
    "CCCma diag file": null,
    "CCCma check": "?",
    "MIPs (requesting)": "  AerChemMIP(1,1,1,1,1), DAMIP(1,1), HighResMIP(1,1,1)",
    "experiments": "  abrupt-4xCO2 (AerChemMIP:1), amip (AerChemMIP:1,HighResMIP:1), 1pctCO2 (AerChemMIP:1), historical (AerChemMIP:1,DAMIP:1,HighResMIP:1), piControl (AerChemMIP:1,DAMIP:1,HighResMIP:1)"
  },
  "reffclwtop": {
    "CCCma TS var name": "RELL CLDL",
    "CCCma diag file": "gp",
    "CCCma optional deck": "mask_mltby1em6",
    "CCCma hist file": "gs",
    "CCCma hist var names": "RELL CLDL",
    "CCCma hist var frequency": "ISRAD",
    "CCCma check": "Done, Jason",
    "CCCma comment": "define xtrals, cldmic2",
    "MIPs (requesting)": "  AerChemMIP(1,1,1,1,1), DAMIP(1,1), GeoMIP(1,1,1), HighResMIP(1,1,1), VIACSAB(1,1,1)",
    "experiments": "  abrupt-4xCO2 (AerChemMIP:1,GeoMIP:1), amip (AerChemMIP:1,HighResMIP:1,VIACSAB:1), 1pctCO2 (AerChemMIP:1), historical (AerChemMIP:1,DAMIP:1,GeoMIP:1,HighResMIP:1,VIACSAB:1), piControl (AerChemMIP:1,DAMIP:1,GeoMIP:1,HighResMIP:1,VIACSAB:1)"
  },
  "rlutaf": {
    "CCCma TS var name": "TALG",
    "CCCma diag file": "gp",
    "CCCma hist file": "gs",
    "CCCma hist var names": "LAU1",
    "CCCma hist var frequency": "ISRAD",
    "CCCma check": "Jason",
    "MIPs (requesting)": "  AerChemMIP(1,1,1,1,1), DAMIP(1,1), HighResMIP(1,1,1)",
    "experiments": "  abrupt-4xCO2 (AerChemMIP:1), amip (AerChemMIP:1,HighResMIP:1), 1pctCO2 (AerChemMIP:1), historical (AerChemMIP:1,DAMIP:1,HighResMIP:1), piControl (AerChemMIP:1,DAMIP:1,HighResMIP:1)"
  },
  "rlutcsaf": {
    "CCCma TS var name": "TCLG",
    "CCCma diag file": "gp",
    "CCCma hist file": "gs",
    "CCCma hist var names": "LCU1",
    "CCCma hist var frequency": "ISRAD",
    "CCCma check": "Jason",
    "MIPs (requesting)": "  AerChemMIP(1,1,1,1,1), DAMIP(1,1), HighResMIP(1,1,1)",
    "experiments": "  abrupt-4xCO2 (AerChemMIP:1), amip (AerChemMIP:1,HighResMIP:1), 1pctCO2 (AerChemMIP:1), historical (AerChemMIP:1,DAMIP:1,HighResMIP:1), piControl (AerChemMIP:1,DAMIP:1,HighResMIP:1)"
  },
  "rsutaf": {
    "CCCma TS var name": "TASG",
    "CCCma diag file": "gp",
    "CCCma hist file": "gs",
    "CCCma hist var names": "SAU1",
    "CCCma hist var frequency": "ISRAD",
    "CCCma check": "Jason",
    "MIPs (requesting)": "  AerChemMIP(1,1,1,1,1), DAMIP(1,1), GeoMIP(1,1,1), HighResMIP(1,1,1)",
    "experiments": "  abrupt-4xCO2 (AerChemMIP:1,GeoMIP:1), amip (AerChemMIP:1,HighResMIP:1), 1pctCO2 (AerChemMIP:1), historical (AerChemMIP:1,DAMIP:1,GeoMIP:1,HighResMIP:1), piControl (AerChemMIP:1,DAMIP:1,GeoMIP:1,HighResMIP:1)"
  },
  "rsutcsaf": {
    "CCCma TS var name": "TCSG",
    "CCCma diag file": "gp",
    "CCCma hist file": "gs",
    "CCCma hist var names": "SCU1",
    "CCCma hist var frequency": "ISRAD",
    "CCCma check": "Jason",
    "MIPs (requesting)": "  AerChemMIP(1,1,1,1,1), DAMIP(1,1), GeoMIP(1,1,1), HighResMIP(1,1,1)",
    "experiments": "  abrupt-4xCO2 (AerChemMIP:1,GeoMIP:1), amip (AerChemMIP:1,HighResMIP:1), 1pctCO2 (AerChemMIP:1), historical (AerChemMIP:1,DAMIP:1,GeoMIP:1,HighResMIP:1), piControl (AerChemMIP:1,DAMIP:1,GeoMIP:1,HighResMIP:1)"
  },
  "so2": {
    "CCCma TS var name": "SO2_MC",
    "CCCma diag file": "gp",
    "CCCma optional deck": "mltby0.9",
    "CCCma hist file": "gs",
    "CCCma hist var names": "SO2_MC",
    "CCCma check": "Knut/Jason",
    "CCCma comment": "0.9*SO2",
    "MIPs (requesting)": "  AerChemMIP(1,1,1,1,1), CFMIP(1,1,1,1,1), DAMIP(1,1), GeoMIP(1,1,1)",
    "experiments": "  abrupt-4xCO2 (AerChemMIP:1,CFMIP:1,GeoMIP:1), amip (AerChemMIP:1,CFMIP:1), 1pctCO2 (AerChemMIP:1,CFMIP:1), historical (AerChemMIP:1,CFMIP:1,DAMIP:1,GeoMIP:1), piControl (AerChemMIP:1,CFMIP:1,DAMIP:1,GeoMIP:1)"
  },
  "tatp": {
    "CCCma TS var name": null,
    "CCCma diag file": null,
    "CCCma check": "?",
    "MIPs (requesting)": "  AerChemMIP(1,1,1,1,1), DAMIP(1,1), HighResMIP(1,1,1)",
    "experiments": "  abrupt-4xCO2 (AerChemMIP:1), amip (AerChemMIP:1,HighResMIP:1), 1pctCO2 (AerChemMIP:1), historical (AerChemMIP:1,DAMIP:1,HighResMIP:1), piControl (AerChemMIP:1,DAMIP:1,HighResMIP:1)"
  },
  "tntrl": {
    "CCCma TS var name": null,
    "CCCma diag file": null,
    "CCCma hist file": "td",
    "CCCma hist var names": "TTPL",
    "CCCma hist var frequency": "ISRAD",
    "CCCma check": "Jason",
    "CCCma comment": "cpp -> tprhsc",
    "MIPs (requesting)": "  AerChemMIP(1,1,1,1,1), CFMIP(3,3,3), DAMIP(1,1,1,1,1,1,1), PMIP(1,1,1,1,1)",
    "experiments": "  abrupt-4xCO2 (AerChemMIP:1,DAMIP:1,PMIP:1,CFMIP:3), amip (AerChemMIP:1,DAMIP:1,PMIP:1,CFMIP:3), 1pctCO2 (AerChemMIP:1,DAMIP:1,PMIP:1), historical (AerChemMIP:1,DAMIP:1,DAMIP:1,PMIP:1), piControl (AerChemMIP:1,DAMIP:1,DAMIP:1,PMIP:1,CFMIP:3)"
  },
  "tntrs": {
    "CCCma TS var name": null,
    "CCCma diag file": null,
    "CCCma hist file": "td",
    "CCCma hist var names": "TTPL",
    "CCCma hist var frequency": "ISRAD",
    "CCCma check": "Jason",
    "CCCma comment": "cpp -> tprhsc",
    "MIPs (requesting)": "  AerChemMIP(1,1,1,1,1), CFMIP(3,3,3), DAMIP(1,1,1,1,1,1,1)",
    "experiments": "  abrupt-4xCO2 (AerChemMIP:1,DAMIP:1,CFMIP:3), amip (AerChemMIP:1,DAMIP:1,CFMIP:3), 1pctCO2 (AerChemMIP:1,DAMIP:1), historical (AerChemMIP:1,DAMIP:1,DAMIP:1), piControl (AerChemMIP:1,DAMIP:1,DAMIP:1,CFMIP:3)"
  },
  "toz": {
    "CCCma TS var name": null,
    "CCCma diag file": null,
    "CCCma check": "?",
    "MIPs (requesting)": "  AerChemMIP(1,1,1,1,1), DAMIP(1,1), HighResMIP(1,1,1)",
    "experiments": "  abrupt-4xCO2 (AerChemMIP:1), amip (AerChemMIP:1,HighResMIP:1), 1pctCO2 (AerChemMIP:1), historical (AerChemMIP:1,DAMIP:1,HighResMIP:1), piControl (AerChemMIP:1,DAMIP:1,HighResMIP:1)"
  },
  "tropoz": {
    "CCCma TS var name": null,
    "CCCma diag file": null,
    "CCCma check": "?",
    "MIPs (requesting)": "  AerChemMIP(1,1,1,1,1), DAMIP(1,1), HighResMIP(1,1,1)",
    "experiments": "  abrupt-4xCO2 (AerChemMIP:1), amip (AerChemMIP:1,HighResMIP:1), 1pctCO2 (AerChemMIP:1), historical (AerChemMIP:1,DAMIP:1,HighResMIP:1), piControl (AerChemMIP:1,DAMIP:1,HighResMIP:1)"
  },
  "ttop": {
    "CCCma TS var name": null,
    "CCCma diag file": null,
    "CCCma check": "N/A, Jason",
    "MIPs (requesting)": "  AerChemMIP(1,1,1,1,1), DAMIP(1,1), HighResMIP(1,1,1)",
    "experiments": "  abrupt-4xCO2 (AerChemMIP:1), amip (AerChemMIP:1,HighResMIP:1), 1pctCO2 (AerChemMIP:1), historical (AerChemMIP:1,DAMIP:1,HighResMIP:1), piControl (AerChemMIP:1,DAMIP:1,HighResMIP:1)"
  },
  "ua": {
    "CCCma TS var name": "U",
    "CCCma diag file": "gp",
    "CCCma hist file": "ss",
    "CCCma hist var names": "P,C",
    "CCCma hist var frequency": "Spectral at ISSP",
    "CCCma check": "Jason",
    "MIPs (requesting)": "  AerChemMIP(1,1,1,1,1), DAMIP(1,1), HighResMIP(2,2), VolMIP(1)",
    "experiments": "  abrupt-4xCO2 (AerChemMIP:1), amip (AerChemMIP:1,HighResMIP:2), 1pctCO2 (AerChemMIP:1), historical (AerChemMIP:1,DAMIP:1), piControl (AerChemMIP:1,DAMIP:1,VolMIP:1,HighResMIP:2)"
  },
  "va": {
    "CCCma TS var name": "V",
    "CCCma diag file": "gp",
    "CCCma hist file": "ss",
    "CCCma hist var names": "P,C",
    "CCCma hist var frequency": "Spectral at ISSP",
    "CCCma check": "Jason",
    "MIPs (requesting)": "  AerChemMIP(1,1,1,1,1), DAMIP(1,1), HighResMIP(2,2)",
    "experiments": "  abrupt-4xCO2 (AerChemMIP:1), amip (AerChemMIP:1,HighResMIP:2), 1pctCO2 (AerChemMIP:1), historical (AerChemMIP:1,DAMIP:1), piControl (AerChemMIP:1,DAMIP:1,HighResMIP:2)"
  },
  "wa": {
    "CCCma TS var name": null,
    "CCCma diag file": null,
    "CCCma check": "TBA?, convert omega to vertical velocity? ",
    "MIPs (requesting)": "  AerChemMIP(1,1,1,1,1), DAMIP(1,1)",
    "experiments": "  abrupt-4xCO2 (AerChemMIP:1), amip (AerChemMIP:1), 1pctCO2 (AerChemMIP:1), historical (AerChemMIP:1,DAMIP:1), piControl (AerChemMIP:1,DAMIP:1)"
  },
  "wetbc": {
    "CCCma TS var name": "WDLB WDDB WDSB",
    "CCCma diag file": "gp",
    "CCCma optional deck": "addthree",
    "CCCma hist file": "gs",
    "CCCma hist var names": "WDLB WDDB WDSB",
    "CCCma check": "Knut/Jason",
    "CCCma comment": "WDLB+WDDB+WDSB",
    "MIPs (requesting)": "  AerChemMIP(1,1,1,1,1), DAMIP(1,1), HighResMIP(1,1,1)",
    "experiments": "  abrupt-4xCO2 (AerChemMIP:1), amip (AerChemMIP:1,HighResMIP:1), 1pctCO2 (AerChemMIP:1), historical (AerChemMIP:1,DAMIP:1,HighResMIP:1), piControl (AerChemMIP:1,DAMIP:1,HighResMIP:1)"
  },
  "wetdust": {
    "CCCma TS var name": "WDLD WDDD WDSD",
    "CCCma diag file": "gp",
    "CCCma optional deck": "addthree",
    "CCCma hist file": "gs",
    "CCCma hist var names": "WDLD WDDD WDSD",
    "CCCma check": "Knut/Jason",
    "MIPs (requesting)": "  AerChemMIP(1,1,1,1,1), DAMIP(1,1), GeoMIP(1,1,1), HighResMIP(1,1,1), PMIP(1,1,1,1,1), VIACSAB(1,1,1)",
    "experiments": "  abrupt-4xCO2 (AerChemMIP:1,GeoMIP:1,PMIP:1), amip (AerChemMIP:1,HighResMIP:1,PMIP:1,VIACSAB:1), 1pctCO2 (AerChemMIP:1,PMIP:1), historical (AerChemMIP:1,DAMIP:1,GeoMIP:1,HighResMIP:1,PMIP:1,VIACSAB:1), piControl (AerChemMIP:1,DAMIP:1,GeoMIP:1,HighResMIP:1,PMIP:1,VIACSAB:1)"
  },
  "wetnh3": {
    "CCCma TS var name": null,
    "CCCma diag file": null,
    "CCCma check": "N/A, Jason",
    "MIPs (requesting)": "  AerChemMIP(1,1,1,1,1), DAMIP(1,1), HighResMIP(1,1,1)",
    "experiments": "  abrupt-4xCO2 (AerChemMIP:1), amip (AerChemMIP:1,HighResMIP:1), 1pctCO2 (AerChemMIP:1), historical (AerChemMIP:1,DAMIP:1,HighResMIP:1), piControl (AerChemMIP:1,DAMIP:1,HighResMIP:1)"
  },
  "wetnh4": {
    "CCCma TS var name": null,
    "CCCma diag file": null,
    "CCCma check": "N/A, Jason",
    "MIPs (requesting)": "  AerChemMIP(1,1,1,1,1), DAMIP(1,1), HighResMIP(1,1,1), VIACSAB(1,1,1,1,1)",
    "experiments": "  abrupt-4xCO2 (AerChemMIP:1), amip (AerChemMIP:1,HighResMIP:1,VIACSAB:1), 1pctCO2 (AerChemMIP:1,VIACSAB:1), historical (AerChemMIP:1,DAMIP:1,HighResMIP:1,VIACSAB:1,VIACSAB:1), piControl (AerChemMIP:1,DAMIP:1,HighResMIP:1,VIACSAB:1)"
  },
  "wetnoy": {
    "CCCma TS var name": null,
    "CCCma diag file": null,
    "CCCma check": "N/A, Jason",
    "MIPs (requesting)": "  AerChemMIP(1,1,1,1,1), DAMIP(1,1), HighResMIP(1,1,1)",
    "experiments": "  abrupt-4xCO2 (AerChemMIP:1), amip (AerChemMIP:1,HighResMIP:1), 1pctCO2 (AerChemMIP:1), historical (AerChemMIP:1,DAMIP:1,HighResMIP:1), piControl (AerChemMIP:1,DAMIP:1,HighResMIP:1)"
  },
  "wetoa": {
    "CCCma TS var name": null,
    "CCCma diag file": null,
    "CCCma check": "N/A, Jason",
    "MIPs (requesting)": "  AerChemMIP(1,1,1,1,1), DAMIP(1,1), HighResMIP(1,1,1)",
    "experiments": "  abrupt-4xCO2 (AerChemMIP:1), amip (AerChemMIP:1,HighResMIP:1), 1pctCO2 (AerChemMIP:1), historical (AerChemMIP:1,DAMIP:1,HighResMIP:1), piControl (AerChemMIP:1,DAMIP:1,HighResMIP:1)"
  },
  "wetso2": {
    "CCCma TS var name": "WDL4 WDD4 WDS4",
    "CCCma diag file": "gp",
    "CCCma optional deck": "addthreemltby2",
    "CCCma hist file": "gs",
    "CCCma hist var names": "WDL4 WDD4 WDS4",
    "CCCma check": "Knut/Jason",
    "CCCma comment": "2.00*(WDL4+WDD4+WDS4)",
    "MIPs (requesting)": "  AerChemMIP(1,1,1,1,1), DAMIP(1,1), GeoMIP(1,1,1), HighResMIP(1,1,1), VIACSAB(1,1,1)",
    "experiments": "  abrupt-4xCO2 (AerChemMIP:1,GeoMIP:1), amip (AerChemMIP:1,HighResMIP:1,VIACSAB:1), 1pctCO2 (AerChemMIP:1), historical (AerChemMIP:1,DAMIP:1,GeoMIP:1,HighResMIP:1,VIACSAB:1), piControl (AerChemMIP:1,DAMIP:1,GeoMIP:1,HighResMIP:1,VIACSAB:1)"
  },
  "wetso4": {
    "CCCma TS var name": "WDL6 WDD6 WDS6",
    "CCCma diag file": "gp",
    "CCCma optional deck": "addthreemltby3",
    "CCCma hist file": "gs",
    "CCCma hist var names": "WDL6 WDD6 WDS6",
    "CCCma check": "Knut/Jason",
    "CCCma comment": "3.00*(WDL6+WDD6+WDS6)",
    "MIPs (requesting)": "  AerChemMIP(1,1,1,1,1), DAMIP(1,1), GeoMIP(1,1,1), HighResMIP(1,1,1), VIACSAB(1,1,1)",
    "experiments": "  abrupt-4xCO2 (AerChemMIP:1,GeoMIP:1), amip (AerChemMIP:1,HighResMIP:1,VIACSAB:1), 1pctCO2 (AerChemMIP:1), historical (AerChemMIP:1,DAMIP:1,GeoMIP:1,HighResMIP:1,VIACSAB:1), piControl (AerChemMIP:1,DAMIP:1,GeoMIP:1,HighResMIP:1,VIACSAB:1)"
  },
  "wetss": {
    "CCCma TS var name": null,
    "CCCma diag file": null,
    "CCCma check": "N/A, Jason",
    "MIPs (requesting)": "  AerChemMIP(1,1,1,1,1), DAMIP(1,1), GeoMIP(1,1,1), HighResMIP(1,1,1), VIACSAB(1,1,1)",
    "experiments": "  abrupt-4xCO2 (AerChemMIP:1,GeoMIP:1), amip (AerChemMIP:1,HighResMIP:1,VIACSAB:1), 1pctCO2 (AerChemMIP:1), historical (AerChemMIP:1,DAMIP:1,GeoMIP:1,HighResMIP:1,VIACSAB:1), piControl (AerChemMIP:1,DAMIP:1,GeoMIP:1,HighResMIP:1,VIACSAB:1)"
  },
  "zg": {
    "CCCma TS var name": null,
    "CCCma diag file": null,
    "CCCma hist file": "ss",
    "CCCma hist var names": "PHIS",
    "CCCma hist var frequency": "ISSP",
    "CCCma check": "Jason",
    "MIPs (requesting)": "  AerChemMIP(1,1,1,1,1), DAMIP(1,1)",
    "experiments": "  abrupt-4xCO2 (AerChemMIP:1), amip (AerChemMIP:1), 1pctCO2 (AerChemMIP:1), historical (AerChemMIP:1,DAMIP:1), piControl (AerChemMIP:1,DAMIP:1)"
  },
  "ztp": {
    "CCCma TS var name": null,
    "CCCma diag file": null,
    "CCCma check": "?",
    "MIPs (requesting)": "  AerChemMIP(1,1,1,1,1), DAMIP(1,1), HighResMIP(1,1,1)",
    "experiments": "  abrupt-4xCO2 (AerChemMIP:1), amip (AerChemMIP:1,HighResMIP:1), 1pctCO2 (AerChemMIP:1), historical (AerChemMIP:1,DAMIP:1,HighResMIP:1), piControl (AerChemMIP:1,DAMIP:1,HighResMIP:1)"
  }
}