{
  "bry": {
    "CCCma TS var name": null,
    "CCCma diag file": null,
    "CCCma check": "?",
    "MIPs (requesting)": "  AerChemMIP(1,1,1,1,1)",
    "experiments": "  abrupt-4xCO2 (AerChemMIP:1), amip (AerChemMIP:1), 1pctCO2 (AerChemMIP:1), historical (AerChemMIP:1), piControl (AerChemMIP:1)"
  },
  "ch4": {
    "CCCma TS var name": null,
    "CCCma diag file": null,
    "CCCma check": "See Amon",
    "MIPs (requesting)": "  AerChemMIP(1,1,1,1,1)",
    "experiments": "  abrupt-4xCO2 (AerChemMIP:1), amip (AerChemMIP:1), 1pctCO2 (AerChemMIP:1), historical (AerChemMIP:1), piControl (AerChemMIP:1)"
  },
  "cly": {
    "CCCma TS var name": null,
    "CCCma diag file": null,
    "CCCma check": "?",
    "MIPs (requesting)": "  AerChemMIP(1,1,1,1,1)",
    "experiments": "  abrupt-4xCO2 (AerChemMIP:1), amip (AerChemMIP:1), 1pctCO2 (AerChemMIP:1), historical (AerChemMIP:1), piControl (AerChemMIP:1)"
  },
  "h2o": {
    "CCCma TS var name": null,
    "CCCma diag file": null,
    "MIPs (requesting)": "  AerChemMIP(1,1,1,1,1)",
    "experiments": "  abrupt-4xCO2 (AerChemMIP:1), amip (AerChemMIP:1), 1pctCO2 (AerChemMIP:1), historical (AerChemMIP:1), piControl (AerChemMIP:1)"
  },
  "hcl": {
    "CCCma TS var name": null,
    "CCCma diag file": null,
    "CCCma check": "?",
    "MIPs (requesting)": "  AerChemMIP(1,1,1,1,1)",
    "experiments": "  abrupt-4xCO2 (AerChemMIP:1), amip (AerChemMIP:1), 1pctCO2 (AerChemMIP:1), historical (AerChemMIP:1), piControl (AerChemMIP:1)"
  },
  "hno3": {
    "CCCma TS var name": null,
    "CCCma diag file": null,
    "CCCma check": "?",
    "MIPs (requesting)": "  AerChemMIP(1,1,1,1,1)",
    "experiments": "  abrupt-4xCO2 (AerChemMIP:1), amip (AerChemMIP:1), 1pctCO2 (AerChemMIP:1), historical (AerChemMIP:1), piControl (AerChemMIP:1)"
  },
  "ho2": {
    "CCCma TS var name": null,
    "CCCma diag file": null,
    "CCCma check": "?",
    "MIPs (requesting)": "  AerChemMIP(1,1,1,1,1)",
    "experiments": "  abrupt-4xCO2 (AerChemMIP:1), amip (AerChemMIP:1), 1pctCO2 (AerChemMIP:1), historical (AerChemMIP:1), piControl (AerChemMIP:1)"
  },
  "meanage": {
    "CCCma TS var name": null,
    "CCCma diag file": null,
    "CCCma check": "N/A",
    "MIPs (requesting)": "  AerChemMIP(1,1,1,1,1), VolMIP(1)",
    "experiments": "  abrupt-4xCO2 (AerChemMIP:1), amip (AerChemMIP:1), 1pctCO2 (AerChemMIP:1), historical (AerChemMIP:1), piControl (AerChemMIP:1,VolMIP:1)"
  },
  "n2o": {
    "CCCma TS var name": null,
    "CCCma diag file": null,
    "CCCma check": "See Amon",
    "MIPs (requesting)": "  AerChemMIP(1,1,1,1,1)",
    "experiments": "  abrupt-4xCO2 (AerChemMIP:1), amip (AerChemMIP:1), 1pctCO2 (AerChemMIP:1), historical (AerChemMIP:1), piControl (AerChemMIP:1)"
  },
  "noy": {
    "CCCma TS var name": null,
    "CCCma diag file": null,
    "CCCma check": "?",
    "MIPs (requesting)": "  AerChemMIP(1,1,1,1,1)",
    "experiments": "  abrupt-4xCO2 (AerChemMIP:1), amip (AerChemMIP:1), 1pctCO2 (AerChemMIP:1), historical (AerChemMIP:1), piControl (AerChemMIP:1)"
  },
  "o3": {
    "CCCma TS var name": null,
    "CCCma diag file": null,
    "CCCma check": "See Amon",
    "MIPs (requesting)": "  AerChemMIP(1,1,1,1,1)",
    "experiments": "  abrupt-4xCO2 (AerChemMIP:1), amip (AerChemMIP:1), 1pctCO2 (AerChemMIP:1), historical (AerChemMIP:1), piControl (AerChemMIP:1)"
  },
  "oh": {
    "CCCma TS var name": null,
    "CCCma diag file": null,
    "CCCma check": "?",
    "MIPs (requesting)": "  AerChemMIP(1,1,1,1,1)",
    "experiments": "  abrupt-4xCO2 (AerChemMIP:1), amip (AerChemMIP:1), 1pctCO2 (AerChemMIP:1), historical (AerChemMIP:1), piControl (AerChemMIP:1)"
  },
  "ta": {
    "CCCma TS var name": "t",
    "CCCma diag file": "zp",
    "CCCma hist file": "ss",
    "CCCma hist var names": "TEMP",
    "CCCma hist var frequency": "Spectral at ISSP",
    "CCCma check": "OK, Michael",
    "MIPs (requesting)": "  AerChemMIP(1,1,1,1,1), DCPP(3), PAMIP(3), VolMIP(1)",
    "experiments": "  abrupt-4xCO2 (AerChemMIP:1), amip (AerChemMIP:1), 1pctCO2 (AerChemMIP:1), historical (AerChemMIP:1,DCPP:3,PAMIP:3), piControl (AerChemMIP:1,VolMIP:1)"
  },
  "ua": {
    "CCCma TS var name": "u",
    "CCCma diag file": "zp",
    "CCCma hist file": "ss",
    "CCCma hist var names": "P,C",
    "CCCma hist var frequency": "Spectral at ISSP",
    "CCCma check": "OK, Michael",
    "MIPs (requesting)": "  AerChemMIP(1,1,1,1,1), DCPP(3), PAMIP(3)",
    "experiments": "  abrupt-4xCO2 (AerChemMIP:1), amip (AerChemMIP:1), 1pctCO2 (AerChemMIP:1), historical (AerChemMIP:1,DCPP:3,PAMIP:3), piControl (AerChemMIP:1)"
  },
  "va": {
    "CCCma TS var name": "v",
    "CCCma diag file": "zp",
    "CCCma hist file": "ss",
    "CCCma hist var names": "P,C",
    "CCCma hist var frequency": "Spectral at ISSP",
    "CCCma check": "OK, Michael",
    "MIPs (requesting)": "  AerChemMIP(1,1,1,1,1)",
    "experiments": "  abrupt-4xCO2 (AerChemMIP:1), amip (AerChemMIP:1), 1pctCO2 (AerChemMIP:1), historical (AerChemMIP:1), piControl (AerChemMIP:1)"
  },
  "vt100": {
    "CCCma TS var name": "meridional_heat_flux",
    "CCCma diag file": "zp",
    "CCCma check": "OK, Michael",
    "MIPs (requesting)": "  AerChemMIP(1,1,1,1,1)",
    "experiments": "  abrupt-4xCO2 (AerChemMIP:1), amip (AerChemMIP:1), 1pctCO2 (AerChemMIP:1), historical (AerChemMIP:1), piControl (AerChemMIP:1)"
  },
  "zg": {
    "CCCma TS var name": "z",
    "CCCma diag file": "zp",
    "CCCma optional deck": "divbyg",
    "CCCma units": "m",
    "CCCma hist file": "ss",
    "CCCma hist var names": "PHIS",
    "CCCma hist var frequency": "ISSP",
    "CCCma check": "OK, Michael",
    "CCCma comment": "PHI/9.80616",
    "MIPs (requesting)": "  AerChemMIP(1,1,1,1,1)",
    "experiments": "  abrupt-4xCO2 (AerChemMIP:1), amip (AerChemMIP:1), 1pctCO2 (AerChemMIP:1), historical (AerChemMIP:1), piControl (AerChemMIP:1)"
  }
}